<svg width="128" height="107" viewBox="0 0 128 107" fill="none" xmlns="http://www.w3.org/2000/svg">
<path d="M104.055 75.1344H74.5924L72.2168 101.923H106.432L104.055 75.1344Z" fill="#848484"/>
<g style="mix-blend-mode:multiply">
<path d="M104.558 79.9159H74.0896L73.0087 93.7449H105.64L104.558 79.9159Z" fill="#C6C6C6"/>
</g>
<path d="M45.2013 106.142C45.2013 102.849 47.4647 100.179 50.256 100.179H128.4C131.191 100.179 133.454 102.849 133.454 106.142H45.2013Z" fill="#B6B6B6"/>
<path d="M171.397 0H0V90.0142H171.397V0Z" fill="#B6B6B6"/>
<path d="M167.881 3.25879H3.51614V86.7564H167.881V3.25879Z" fill="#5F6C6C"/>
<mask id="mask0_656_1683" style="mask-type:luminance" maskUnits="userSpaceOnUse" x="3" y="3" width="165" height="84">
<path d="M167.881 3.25879H3.51614V86.7564H167.881V3.25879Z" fill="white"/>
</mask>
<g mask="url(#mask0_656_1683)">
<g opacity="0.09">
<path d="M50.1503 126.776L15.7738 100.613L107.43 -29.7863L141.807 -3.62237L50.1503 126.776Z" fill="white"/>
<path d="M66.8994 130.713L56.4329 122.746L148.09 -7.65344L158.556 0.313002L66.8994 130.713Z" fill="white"/>
</g>
</g>
</svg>
