{
  "usingComponents": {
    "list-confirmation-row": "/components/ListConfirmationRow/ListConfirmationRow",
    "labeled-list-row": "/components/LabeledListRow/LabeledListRow",
    "m-nav": "/components/NavBar/NavBar",
    "m-alert-modal": "/components/mpesa/m-alert-modal/m-alert-modal",
    "m-button": "/components/mpesa/m-btn/m-btn"
  }
}