<svg width="96" height="97" viewBox="0 0 96 97" fill="none" xmlns="http://www.w3.org/2000/svg">
<mask id="mask0_1847_3861" style="mask-type:alpha" maskUnits="userSpaceOnUse" x="8" y="8" width="81" height="81">
<rect x="8.07501" y="8.60498" width="79.965" height="79.965" rx="39.9825" fill="white"/>
</mask>
<g mask="url(#mask0_1847_3861)">
<rect x="8.07501" y="8.60498" width="79.965" height="79.965" rx="39.9825" fill="#03A2D8"/>
<path d="M85.63 34.0698C85.0777 34.0698 84.63 34.5175 84.63 35.0698C84.63 35.6221 85.0777 36.0698 85.63 36.0698C86.1823 36.0698 86.63 35.6221 86.63 35.0698C86.63 34.5175 86.1823 34.0698 85.63 34.0698Z" fill="#03A2D8"/>
<path d="M86.63 39.4048C86.63 38.8525 86.1823 38.4048 85.63 38.4048C85.0777 38.4048 84.63 38.8525 84.63 39.4048C84.63 39.9571 85.0777 40.4048 85.63 40.4048C86.1823 40.4048 86.63 39.9571 86.63 39.4048Z" fill="#03A2D8"/>
<path d="M85.63 44.7197C86.1823 44.7197 86.63 44.272 86.63 43.7197C86.63 43.1674 86.1823 42.7197 85.63 42.7197C85.0777 42.7197 84.63 43.1674 84.63 43.7197C84.63 44.272 85.0777 44.7197 85.63 44.7197Z" fill="#03A2D8"/>
<path d="M85.6599 47.0346C85.2529 47.0224 84.8792 47.2582 84.7149 47.6307C84.5506 48.0032 84.6286 48.4382 84.9121 48.7304C85.1956 49.0227 85.628 49.1139 86.0053 48.961C86.3827 48.8082 86.6297 48.4418 86.6299 48.0346C86.6301 47.4939 86.2004 47.0509 85.6599 47.0346Z" fill="#03A2D8"/>
<path d="M85.62 53.3599C86.1723 53.3599 86.62 52.9121 86.62 52.3599C86.62 51.8076 86.1723 51.3599 85.62 51.3599C85.0677 51.3599 84.62 51.8076 84.62 52.3599C84.62 52.9121 85.0677 53.3599 85.62 53.3599Z" fill="#03A2D8"/>
<path d="M85.63 57.6797C86.1823 57.6797 86.63 57.232 86.63 56.6797C86.63 56.1274 86.1823 55.6797 85.63 55.6797C85.0777 55.6797 84.63 56.1274 84.63 56.6797C84.63 57.232 85.0777 57.6797 85.63 57.6797Z" fill="#03A2D8"/>
<path d="M85.605 59.9946C85.0527 59.9946 84.605 60.4423 84.605 60.9946C84.605 61.5469 85.0527 61.9946 85.605 61.9946C86.1573 61.9946 86.605 61.5469 86.605 60.9946C86.605 60.4423 86.1573 59.9946 85.605 59.9946Z" fill="#03A2D8"/>
<path d="M81.3 60.02C80.8928 60.0202 80.5265 60.2672 80.3736 60.6446C80.2207 61.022 80.3119 61.4543 80.6042 61.7378C80.8964 62.0213 81.3314 62.0993 81.7039 61.935C82.0765 61.7707 82.3122 61.397 82.3 60.99C82.2838 60.4495 81.8408 60.0198 81.3 60.02Z" fill="#03A2D8"/>
<path d="M81.3149 34.0949C80.9076 34.0806 80.5323 34.315 80.3665 34.6873C80.2006 35.0596 80.2773 35.4953 80.5603 35.7886C80.8434 36.0819 81.2761 36.1741 81.6541 36.0216C82.0321 35.8691 82.2797 35.5024 82.2799 35.0949C82.2803 34.556 81.8535 34.1137 81.3149 34.0949Z" fill="#03A2D8"/>
<path d="M81.3 25.4546C80.8928 25.4548 80.5265 25.7018 80.3736 26.0792C80.2207 26.4565 80.3119 26.8889 80.6042 27.1724C80.8964 27.4559 81.3314 27.5339 81.7039 27.3696C82.0765 27.2053 82.3122 26.8316 82.3 26.4246C82.2838 25.8841 81.8408 25.4543 81.3 25.4546Z" fill="#03A2D8"/>
<path d="M81.3149 42.7496C80.9076 42.7354 80.5323 42.9698 80.3665 43.3421C80.2006 43.7144 80.2773 44.1501 80.5603 44.4434C80.8434 44.7367 81.2761 44.8289 81.6541 44.6764C82.0321 44.5239 82.2797 44.1572 82.2799 43.7496C82.2803 43.2107 81.8535 42.7685 81.3149 42.7496Z" fill="#03A2D8"/>
<path d="M81.3099 55.6997C80.903 55.6875 80.5292 55.9232 80.3649 56.2957C80.2007 56.6683 80.2787 57.1032 80.5621 57.3955C80.8456 57.6877 81.278 57.7789 81.6554 57.6261C82.0327 57.4732 82.2797 57.1068 82.2799 56.6997C82.2802 56.1589 81.8505 55.7159 81.3099 55.6997Z" fill="#03A2D8"/>
<path d="M81.29 38.4199C80.882 38.4202 80.5151 38.6684 80.3629 39.0471C80.2108 39.4257 80.3039 39.8587 80.5983 40.1413C80.8926 40.4239 81.3291 40.4993 81.7012 40.3318C82.0733 40.1644 82.3063 39.7876 82.29 39.3799C82.2685 38.8433 81.827 38.4195 81.29 38.4199Z" fill="#03A2D8"/>
<path d="M81.3299 47.0599C80.9215 47.0394 80.5418 47.2697 80.3712 47.6413C80.2005 48.0128 80.2733 48.4509 80.5549 48.7474C80.8366 49.0438 81.2703 49.1389 81.6502 48.9875C82.03 48.8362 82.2794 48.4688 82.2799 48.0599C82.2806 47.5265 81.8626 47.0865 81.3299 47.0599Z" fill="#03A2D8"/>
<path d="M81.3099 29.7749C80.903 29.7627 80.5292 29.9984 80.3649 30.3709C80.2007 30.7435 80.2787 31.1784 80.5621 31.4707C80.8456 31.7629 81.278 31.8541 81.6554 31.7013C82.0327 31.5484 82.2797 31.182 82.2799 30.7749C82.2802 30.2341 81.8505 29.7911 81.3099 29.7749Z" fill="#03A2D8"/>
<path d="M81.295 51.3799C80.8874 51.3801 80.5208 51.6277 80.3683 52.0057C80.2158 52.3837 80.3079 52.8164 80.6012 53.0995C80.8945 53.3825 81.3303 53.4592 81.7026 53.2933C82.0749 53.1275 82.3093 52.7522 82.295 52.3449C82.2762 51.8063 81.8339 51.3796 81.295 51.3799Z" fill="#03A2D8"/>
<path d="M77.01 25.5047C76.6338 25.4946 76.2889 25.7134 76.1378 26.0581C75.9867 26.4028 76.0596 26.8047 76.3221 27.0745C76.5845 27.3442 76.9843 27.428 77.333 27.2865C77.6817 27.1449 77.9099 26.8061 77.91 26.4297C77.9001 25.9327 77.5066 25.5283 77.01 25.5047Z" fill="#03A2D8"/>
<path d="M76.975 34.1499C76.4648 34.1554 76.0554 34.573 76.06 35.0832C76.0646 35.5934 76.4814 36.0035 76.9916 35.9998C77.5018 35.9962 77.9127 35.5801 77.91 35.0699C77.9018 34.5594 77.4856 34.1498 76.975 34.1499Z" fill="#03A2D8"/>
<path d="M76.98 38.4697C76.4704 38.4725 76.0591 38.8868 76.06 39.3964C76.0609 39.9059 76.4738 40.3188 76.9833 40.3197C77.4929 40.3206 77.9072 39.9093 77.91 39.3997C77.9072 38.8872 77.4925 38.4725 76.98 38.4697V38.4697Z" fill="#03A2D8"/>
<path d="M77.015 21.1846C76.6388 21.1724 76.2928 21.3893 76.1398 21.7332C75.9869 22.0771 76.0576 22.4793 76.3185 22.7505C76.5795 23.0217 76.9788 23.1077 77.3282 22.9681C77.6777 22.8284 77.9078 22.4909 77.91 22.1146C77.9078 21.6153 77.5138 21.2059 77.015 21.1846Z" fill="#03A2D8"/>
<path d="M76.995 55.7496C76.6186 55.7455 76.2773 55.97 76.1319 56.3171C75.9865 56.6643 76.0659 57.065 76.3328 57.3304C76.5997 57.5958 77.0008 57.673 77.3471 57.5257C77.6935 57.3784 77.916 57.0359 77.91 56.6596C77.8967 56.1606 77.494 55.7601 76.995 55.7496Z" fill="#03A2D8"/>
<path d="M77 60.0748C76.6232 60.0688 76.2804 60.2919 76.1334 60.6389C75.9864 60.9858 76.0645 61.3873 76.331 61.6538C76.5975 61.9202 76.9989 61.9984 77.3459 61.8514C77.6929 61.7044 77.916 61.3616 77.91 60.9848C77.8944 60.4889 77.4959 60.0904 77 60.0748Z" fill="#03A2D8"/>
<path d="M77.905 43.7498C77.9266 43.2396 77.5306 42.8084 77.0205 42.7865C76.5103 42.7646 76.0789 43.1603 76.0567 43.6704C76.0345 44.1806 76.4298 44.6122 76.94 44.6348C77.449 44.6518 77.878 44.2583 77.905 43.7498Z" fill="#03A2D8"/>
<path d="M76.9899 51.4346C76.4797 51.4319 76.0636 51.8427 76.06 52.3529C76.0563 52.8631 76.4664 53.2799 76.9766 53.2845C77.4868 53.2891 77.9044 52.8798 77.9099 52.3696C77.9099 51.859 77.5004 51.4428 76.9899 51.4346Z" fill="#03A2D8"/>
<path d="M76.985 47.1099C76.6086 47.11 76.2699 47.3382 76.1283 47.6869C75.9867 48.0356 76.0705 48.4354 76.3403 48.6978C76.61 48.9603 77.0119 49.0331 77.3566 48.8821C77.7014 48.731 77.9202 48.3861 77.91 48.0099C77.8888 47.5122 77.4831 47.1174 76.985 47.1099V47.1099Z" fill="#03A2D8"/>
<path d="M76.985 29.8296C76.6104 29.8296 76.2728 30.0555 76.13 30.4018C75.9871 30.748 76.0671 31.1463 76.3327 31.4104C76.5983 31.6746 76.997 31.7525 77.3425 31.6077C77.688 31.463 77.912 31.1242 77.91 30.7496C77.8993 30.244 77.4906 29.8375 76.985 29.8296V29.8296Z" fill="#03A2D8"/>
<path d="M72.66 25.5698C72.1863 25.5726 71.8041 25.9578 71.805 26.4315C71.8059 26.9051 72.1897 27.2889 72.6633 27.2898C73.137 27.2907 73.5222 26.9085 73.525 26.4348C73.5222 25.9582 73.1366 25.5726 72.66 25.5698Z" fill="#03A2D8"/>
<path d="M72.655 38.5347C72.1807 38.5402 71.8004 38.9287 71.805 39.4029C71.8096 39.8772 72.1973 40.2582 72.6716 40.2546C73.1459 40.2509 73.5277 39.864 73.525 39.3897C73.5168 38.915 73.1297 38.5346 72.655 38.5347V38.5347Z" fill="#03A2D8"/>
<path d="M72.665 47.1748C72.1913 47.1748 71.8069 47.5579 71.8051 48.0315C71.8032 48.5052 72.1848 48.8911 72.6584 48.8948C73.1321 48.8984 73.5195 48.5184 73.525 48.0448C73.5263 47.8154 73.4365 47.5948 73.2752 47.4317C73.1139 47.2685 72.8944 47.1761 72.665 47.1748V47.1748Z" fill="#03A2D8"/>
<path d="M72.67 51.4946C72.1963 51.492 71.8097 51.8728 71.8052 52.3464C71.8006 52.82 72.1799 53.2081 72.6535 53.2145C73.1271 53.221 73.5167 52.8432 73.525 52.3696C73.5251 51.8941 73.1454 51.5055 72.67 51.4946Z" fill="#03A2D8"/>
<path d="M72.64 60.1399C72.1666 60.1537 71.7935 60.5477 71.8054 61.0211C71.8173 61.4946 72.2098 61.8693 72.6833 61.8593C73.1567 61.8493 73.5331 61.4584 73.525 60.9849C73.5198 60.7555 73.4236 60.5375 73.2576 60.379C73.0916 60.2205 72.8694 60.1345 72.64 60.1399Z" fill="#03A2D8"/>
<path d="M72.6901 34.2147C72.3397 34.2045 72.0182 34.408 71.8774 34.7291C71.7367 35.0501 71.8049 35.4244 72.0498 35.6752C72.2947 35.926 72.6673 36.003 72.9916 35.8699C73.3159 35.7368 73.527 35.4202 73.5251 35.0697C73.5175 34.6084 73.1511 34.2332 72.6901 34.2147Z" fill="#03A2D8"/>
<path d="M72.655 16.9297C72.1814 16.9352 71.8014 17.3226 71.805 17.7963C71.8087 18.2699 72.1946 18.6514 72.6683 18.6496C73.1419 18.6478 73.525 18.2633 73.525 17.7897C73.5195 17.3131 73.1316 16.9297 72.655 16.9297Z" fill="#03A2D8"/>
<path d="M72.6799 29.8898C72.3308 29.8837 72.0126 30.0893 71.8747 30.4101C71.7369 30.731 71.8067 31.1033 72.0515 31.3524C72.2962 31.6015 72.6672 31.6778 72.9904 31.5457C73.3136 31.4135 73.5248 31.099 73.5249 30.7498C73.5197 30.2828 73.1467 29.9032 72.6799 29.8898Z" fill="#03A2D8"/>
<path d="M72.71 21.2497C72.3605 21.2315 72.0348 21.4269 71.8864 21.7439C71.738 22.0608 71.7965 22.4361 72.0343 22.6929C72.2721 22.9497 72.6418 23.0367 72.9692 22.913C73.2966 22.7893 73.5164 22.4796 73.525 22.1297C73.5287 21.667 73.1716 21.2814 72.71 21.2497Z" fill="#03A2D8"/>
<path d="M72.68 55.82C72.2058 55.8118 71.8145 56.1891 71.8054 56.6633C71.7963 57.1375 72.1727 57.5295 72.6469 57.5396C73.1211 57.5497 73.5139 57.1741 73.525 56.7C73.5307 56.2252 73.1546 55.8336 72.68 55.82Z" fill="#03A2D8"/>
<path d="M72.655 42.855C72.1807 42.8605 71.8004 43.249 71.805 43.7232C71.8096 44.1975 72.1973 44.5786 72.6716 44.5749C73.1459 44.5712 73.5277 44.1843 73.525 43.71C73.5168 43.2354 73.1297 42.8549 72.655 42.855V42.855Z" fill="#03A2D8"/>
<path d="M69.155 43.7495C69.1671 43.4208 68.9793 43.1175 68.6796 42.9818C68.38 42.8461 68.0281 42.9051 67.7891 43.1311C67.5501 43.3571 67.4714 43.7051 67.5901 44.0119C67.7088 44.3187 68.0011 44.5232 68.33 44.5295C68.5434 44.5376 68.7511 44.4595 68.9063 44.3128C69.0615 44.1661 69.1511 43.9631 69.155 43.7495Z" fill="#03A2D8"/>
<path d="M68.36 29.9398C68.1418 29.933 67.9302 30.0156 67.7744 30.1686C67.6187 30.3216 67.5321 30.5315 67.535 30.7498C67.535 31.1972 67.8976 31.5598 68.345 31.5598C68.7923 31.5598 69.155 31.1972 69.155 30.7498C69.1576 30.5368 69.0752 30.3315 68.926 30.1795C68.7767 30.0274 68.573 29.9412 68.36 29.9398Z" fill="#03A2D8"/>
<path d="M68.3401 60.1897C67.8947 60.1925 67.5351 60.5543 67.5352 60.9997C67.5352 61.4451 67.8948 61.8069 68.3402 61.8097C68.7855 61.8124 69.1496 61.4551 69.1551 61.0097C69.162 60.7911 69.0786 60.5792 68.9244 60.424C68.7701 60.2689 68.5588 60.1841 68.3401 60.1897Z" fill="#03A2D8"/>
<path d="M68.3401 34.2499C67.8947 34.2527 67.5351 34.6146 67.5352 35.0599C67.5352 35.5053 67.8948 35.8672 68.3402 35.8699C68.7855 35.8726 69.1496 35.5153 69.1551 35.0699C69.1635 34.8508 69.0806 34.6381 68.926 34.4826C68.7714 34.3271 68.5592 34.2428 68.3401 34.2499Z" fill="#03A2D8"/>
<path d="M68.3699 21.2997C68.0411 21.2896 67.7389 21.4793 67.6051 21.7798C67.4712 22.0803 67.5324 22.4318 67.7599 22.6695C67.9874 22.9071 68.3359 22.9835 68.642 22.8629C68.948 22.7423 69.1507 22.4486 69.1549 22.1197C69.1603 21.9067 69.0804 21.7003 68.9331 21.5463C68.7857 21.3924 68.583 21.3036 68.3699 21.2997Z" fill="#03A2D8"/>
<path d="M68.36 51.5446C68.0311 51.5385 67.7312 51.7319 67.601 52.0341C67.4709 52.3362 67.5365 52.687 67.7669 52.9218C67.9973 53.1566 68.3469 53.2287 68.6514 53.1042C68.9559 52.9798 69.1549 52.6835 69.155 52.3546C69.1577 52.1415 69.0752 51.9362 68.926 51.7842C68.7768 51.6321 68.573 51.5459 68.36 51.5446Z" fill="#03A2D8"/>
<path d="M68.365 25.6199C68.0361 25.6118 67.735 25.8033 67.603 26.1047C67.4711 26.406 67.5344 26.7572 67.7634 26.9934C67.9923 27.2296 68.3414 27.3039 68.6467 27.1813C68.952 27.0588 69.1528 26.7638 69.155 26.4349C69.159 26.2218 69.0778 26.016 68.9295 25.863C68.7812 25.71 68.578 25.6225 68.365 25.6199Z" fill="#03A2D8"/>
<path d="M68.36 38.5846C68.0306 38.5785 67.7304 38.7725 67.6005 39.0753C67.4707 39.378 67.5372 39.7293 67.7687 39.9636C68.0001 40.198 68.3505 40.2689 68.6549 40.1429C68.9592 40.0168 69.157 39.719 69.155 39.3896C69.1577 39.177 69.0751 38.9722 68.9257 38.821C68.7763 38.6697 68.5726 38.5846 68.36 38.5846Z" fill="#03A2D8"/>
<path d="M68.375 47.2496C68.0463 47.2375 67.7429 47.4253 67.6073 47.7249C67.4716 48.0246 67.5306 48.3765 67.7566 48.6155C67.9826 48.8545 68.3306 48.9331 68.6374 48.8145C68.9442 48.6958 69.1487 48.4034 69.155 48.0746C69.1617 47.8615 69.0832 47.6546 68.9367 47.4997C68.7903 47.3448 68.5881 47.2548 68.375 47.2496Z" fill="#03A2D8"/>
<path d="M68.3499 12.6598C67.9046 12.6572 67.5406 13.0146 67.5352 13.46C67.5298 13.9053 67.8849 14.2715 68.3302 14.2797C68.7755 14.2879 69.1439 13.9351 69.1549 13.4898C69.1661 13.2708 69.0857 13.0571 68.933 12.8997C68.7804 12.7423 68.5691 12.6554 68.3499 12.6598Z" fill="#03A2D8"/>
<path d="M68.375 55.8697C68.0463 55.8576 67.7429 56.0454 67.6073 56.3451C67.4716 56.6447 67.5306 56.9966 67.7566 57.2356C67.9826 57.4746 68.3306 57.5533 68.6374 57.4346C68.9442 57.3159 69.1487 57.0236 69.155 56.6947C69.1631 56.4813 69.085 56.2736 68.9383 56.1184C68.7916 55.9632 68.5886 55.8736 68.375 55.8697Z" fill="#03A2D8"/>
<path d="M68.345 16.9796C68.016 16.9797 67.7198 17.1787 67.5953 17.4832C67.4709 17.7877 67.543 18.1373 67.7777 18.3677C68.0125 18.5981 68.3633 18.6637 68.6655 18.5336C68.9676 18.4035 69.1611 18.1035 69.155 17.7746C69.155 17.5612 69.0692 17.3566 68.9169 17.2071C68.7645 17.0576 68.5584 16.9756 68.345 16.9796Z" fill="#03A2D8"/>
<path d="M64.015 38.65C63.7133 38.6459 63.4389 38.8243 63.3201 39.1017C63.2014 39.3792 63.2617 39.7008 63.4729 39.9164C63.6842 40.1319 64.0045 40.1987 64.2843 40.0856C64.5641 39.9725 64.748 39.7017 64.75 39.4C64.7569 39.2017 64.6821 39.0092 64.5433 38.8675C64.4044 38.7257 64.2134 38.6471 64.015 38.65Z" fill="#03A2D8"/>
<path d="M64.045 25.6848C63.7425 25.6767 63.4651 25.8525 63.3432 26.1295C63.2212 26.4065 63.279 26.7298 63.4894 26.9474C63.6998 27.165 64.0209 27.2337 64.3019 27.1212C64.5829 27.0088 64.7679 26.7375 64.77 26.4348C64.7754 26.2387 64.7016 26.0486 64.5652 25.9075C64.4288 25.7664 64.2413 25.6861 64.045 25.6848Z" fill="#03A2D8"/>
<path d="M64.03 60.2496C63.7273 60.2476 63.4535 60.4289 63.3372 60.7084C63.2209 60.9878 63.2853 61.3098 63.5 61.5231C63.7148 61.7364 64.0373 61.7986 64.3159 61.6804C64.5946 61.5623 64.774 61.2872 64.77 60.9846C64.7713 60.7884 64.6937 60.5999 64.5544 60.4616C64.4152 60.3233 64.2262 60.2469 64.03 60.2496Z" fill="#03A2D8"/>
<path d="M64.01 21.3648C63.7083 21.3628 63.4351 21.543 63.3182 21.8212C63.2013 22.0995 63.2638 22.4207 63.4765 22.6348C63.6891 22.8489 64.01 22.9136 64.289 22.7986C64.568 22.6836 64.75 22.4116 64.75 22.1098C64.7541 21.9119 64.6776 21.7208 64.5381 21.5803C64.3986 21.4398 64.208 21.3621 64.01 21.3648Z" fill="#03A2D8"/>
<path d="M64.75 43.7797C64.7758 43.478 64.6165 43.1907 64.3469 43.0529C64.0774 42.915 63.7512 42.9541 63.5217 43.1516C63.2922 43.3491 63.2051 43.6658 63.3013 43.9529C63.3975 44.24 63.6579 44.4403 63.96 44.4597C64.1554 44.4762 64.3492 44.4134 64.4978 44.2855C64.6464 44.1576 64.7373 43.9753 64.75 43.7797Z" fill="#03A2D8"/>
<path d="M64.02 34.3249C63.6071 34.3249 63.2719 34.6587 63.2701 35.0716C63.2683 35.4845 63.6005 35.8212 64.0134 35.8248C64.4263 35.8285 64.7645 35.4977 64.77 35.0849C64.7769 34.883 64.7005 34.6872 64.5586 34.5434C64.4167 34.3997 64.2219 34.3206 64.02 34.3249Z" fill="#03A2D8"/>
<path d="M63.28 17.75C63.2544 18.0512 63.4133 18.338 63.6822 18.476C63.9512 18.614 64.2768 18.5758 64.5065 18.3793C64.7363 18.1828 64.8245 17.867 64.7298 17.5799C64.6352 17.2928 64.3765 17.0914 64.075 17.07C63.8791 17.0534 63.6847 17.1161 63.5354 17.2438C63.386 17.3716 63.294 17.5539 63.28 17.75Z" fill="#03A2D8"/>
<path d="M64.0499 55.9298C63.7446 55.9176 63.4624 56.0918 63.3365 56.3703C63.2106 56.6487 63.2663 56.9757 63.4772 57.1968C63.688 57.4179 64.012 57.489 64.2961 57.3765C64.5802 57.264 64.7676 56.9904 64.7699 56.6848C64.7753 56.489 64.7023 56.2992 64.5671 56.1574C64.4319 56.0157 64.2457 55.9337 64.0499 55.9298Z" fill="#03A2D8"/>
<path d="M64.04 12.7198C63.7363 12.7038 63.453 12.8728 63.3228 13.1477C63.1926 13.4225 63.2413 13.7487 63.446 13.9736C63.6507 14.1985 63.9709 14.2775 64.2568 14.1737C64.5426 14.0698 64.7374 13.8036 64.75 13.4998C64.7622 13.3015 64.6937 13.1066 64.5599 12.9596C64.4262 12.8127 64.2386 12.7262 64.04 12.7198Z" fill="#03A2D8"/>
<path d="M64.03 51.6095C63.828 51.6053 63.6333 51.6843 63.4914 51.8281C63.3495 51.9719 63.2731 52.1677 63.28 52.3695C63.28 52.7838 63.6158 53.1195 64.03 53.1195C64.4442 53.1195 64.78 52.7838 64.78 52.3695C64.7869 52.1677 64.7104 51.9719 64.5686 51.8281C64.4267 51.6843 64.2319 51.6053 64.03 51.6095Z" fill="#03A2D8"/>
<path d="M64.035 30.005C63.7313 29.9928 63.4505 30.1663 63.3257 30.4435C63.2009 30.7207 63.257 31.0459 63.4675 31.2653C63.678 31.4846 64.0007 31.554 64.2828 31.4407C64.5649 31.3274 64.7498 31.054 64.75 30.75C64.7556 30.3479 64.437 30.0159 64.035 30.005Z" fill="#03A2D8"/>
<path d="M64.015 47.29C63.6056 47.2955 63.2773 47.6304 63.28 48.0399C63.2828 48.4494 63.6155 48.7799 64.025 48.7799C64.4345 48.7799 64.7672 48.4495 64.77 48.04C64.7757 47.8385 64.6978 47.6437 64.5548 47.5017C64.4118 47.3596 64.2164 47.283 64.015 47.29Z" fill="#03A2D8"/>
<path d="M60.385 30.75C60.3929 30.3766 60.0981 30.0667 59.7248 30.056C59.3514 30.0452 59.0393 30.3375 59.0256 30.7108C59.0119 31.084 59.3019 31.3984 59.675 31.415C59.8587 31.426 60.0387 31.361 60.173 31.2352C60.3073 31.1094 60.384 30.934 60.385 30.75Z" fill="#03A2D8"/>
<path d="M59.6751 53.0347C59.9516 53.0468 60.2079 52.8902 60.3232 52.6386C60.4385 52.3869 60.3897 52.0905 60.2 51.889C60.0102 51.6876 59.7172 51.6212 59.4591 51.7213C59.2011 51.8214 59.0294 52.0679 59.0251 52.3447C59.0183 52.5227 59.0834 52.6961 59.2056 52.8258C59.3278 52.9555 59.4969 53.0308 59.6751 53.0347Z" fill="#03A2D8"/>
<path d="M59.695 9.82478C59.8743 9.83294 60.0492 9.76772 60.1794 9.64413C60.3096 9.52055 60.3838 9.34928 60.385 9.16978C60.3951 8.89361 60.2371 8.63879 59.9853 8.52508C59.7334 8.41138 59.4377 8.46142 59.2373 8.65168C59.0369 8.84194 58.9715 9.13458 59.072 9.39203C59.1724 9.64948 59.4187 9.82053 59.695 9.82478Z" fill="#03A2D8"/>
<path d="M59.7 61.6798C60.0735 61.6824 60.3792 61.3832 60.3846 61.0096C60.39 60.6361 60.0931 60.3282 59.7196 60.32C59.3461 60.3118 59.036 60.6064 59.025 60.9798C59.0152 61.1639 59.0824 61.3438 59.2104 61.4765C59.3383 61.6092 59.5156 61.6828 59.7 61.6798Z" fill="#03A2D8"/>
<path d="M59.025 47.9849C59.0054 48.2594 59.1532 48.5186 59.3994 48.6416C59.6455 48.7646 59.9416 48.7271 60.1493 48.5466C60.357 48.3661 60.4355 48.0782 60.348 47.8172C60.2606 47.5563 60.0245 47.3738 59.75 47.3549C59.5697 47.3398 59.391 47.3982 59.2545 47.5168C59.1179 47.6355 59.0352 47.8043 59.025 47.9849Z" fill="#03A2D8"/>
<path d="M59.72 12.7897C59.3445 12.7814 59.0333 13.0792 59.025 13.4547C59.0167 13.8303 59.3145 14.1414 59.69 14.1497C59.8746 14.1567 60.0539 14.0871 60.1855 13.9574C60.3171 13.8277 60.3893 13.6494 60.385 13.4647C60.3891 13.2862 60.3206 13.1137 60.1953 12.9865C60.07 12.8593 59.8985 12.7883 59.72 12.7897Z" fill="#03A2D8"/>
<path d="M59.72 34.3899C59.4408 34.3818 59.1847 34.544 59.0726 34.7998C58.9605 35.0556 59.015 35.3539 59.2103 35.5536C59.4056 35.7533 59.7025 35.8144 59.9608 35.7081C60.2191 35.6017 60.3869 35.3492 60.385 35.0699C60.3877 34.8914 60.319 34.7191 60.1941 34.5915C60.0692 34.4638 59.8986 34.3913 59.72 34.3899Z" fill="#03A2D8"/>
<path d="M59.715 17.1099C59.4387 17.1059 59.1873 17.2695 59.0792 17.5239C58.9711 17.7782 59.0277 18.0727 59.2224 18.2689C59.4171 18.4651 59.7112 18.5239 59.9664 18.4176C60.2215 18.3114 60.387 18.0613 60.385 17.7849C60.3877 17.606 60.3182 17.4335 60.1921 17.3064C60.066 17.1794 59.894 17.1086 59.715 17.1099Z" fill="#03A2D8"/>
<path d="M59.7099 57.3597C60.0876 57.3597 60.394 57.0541 60.3949 56.6764C60.3958 56.2987 60.0909 55.9916 59.7132 55.9898C59.3356 55.9879 59.0277 56.2921 59.0249 56.6697C59.0194 56.8535 59.0896 57.0315 59.2191 57.162C59.3486 57.2924 59.5261 57.3639 59.7099 57.3597Z" fill="#03A2D8"/>
<path d="M59.685 44.3949C59.9617 44.403 60.2157 44.2426 60.3273 43.9893C60.4389 43.7359 60.3858 43.4402 60.193 43.2416C60.0002 43.0429 59.7062 42.981 59.4496 43.085C59.1931 43.1889 59.0251 43.4381 59.025 43.7149C59.021 43.893 59.0886 44.0652 59.2127 44.1931C59.3367 44.3209 59.5069 44.3936 59.685 44.3949Z" fill="#03A2D8"/>
<path d="M60.385 22.125C60.3929 21.7516 60.0981 21.4417 59.7248 21.431C59.3514 21.4202 59.0393 21.7125 59.0256 22.0858C59.0119 22.459 59.3019 22.7734 59.675 22.79C59.8587 22.801 60.0387 22.736 60.173 22.6102C60.3073 22.4844 60.384 22.309 60.385 22.125Z" fill="#03A2D8"/>
<path d="M59.69 25.7497C59.3165 25.758 59.0196 26.0659 59.0251 26.4395C59.0306 26.813 59.3363 27.1122 59.7099 27.1095C60.0835 27.1068 60.3849 26.8033 60.385 26.4297C60.3894 26.2454 60.317 26.0676 60.1853 25.9387C60.0535 25.8098 59.8742 25.7413 59.69 25.7497Z" fill="#03A2D8"/>
<path d="M60.385 39.4097C60.3929 39.0363 60.0981 38.7264 59.7248 38.7156C59.3514 38.7049 59.0393 38.9972 59.0256 39.3705C59.0119 39.7437 59.3019 40.0581 59.675 40.0747C59.859 40.0872 60.04 40.0226 60.1746 39.8965C60.3092 39.7705 60.3854 39.5941 60.385 39.4097Z" fill="#03A2D8"/>
<path d="M55.37 56.0549C55.0262 56.0632 54.7537 56.3476 54.7601 56.6914C54.7665 57.0352 55.0494 57.3092 55.3932 57.3047C55.7371 57.3002 56.0126 57.0188 56.01 56.6749C56.013 56.5061 55.9458 56.3436 55.8245 56.2261C55.7032 56.1086 55.5387 56.0466 55.37 56.0549Z" fill="#03A2D8"/>
<path d="M55.3901 35.6946C55.7332 35.6864 56.0055 35.403 56 35.0599C55.9946 34.7167 55.7134 34.4422 55.3702 34.4448C55.027 34.4475 54.7502 34.7264 54.7501 35.0696C54.7472 35.2389 54.8142 35.4019 54.9353 35.5202C55.0564 35.6384 55.2209 35.7015 55.3901 35.6946Z" fill="#03A2D8"/>
<path d="M55.375 40.0147C55.7182 40.0146 55.9971 39.7377 55.9998 39.3945C56.0025 39.0513 55.7279 38.7702 55.3848 38.7647C55.0416 38.7593 54.7583 39.0315 54.75 39.3747C54.7431 39.5438 54.8062 39.7083 54.9245 39.8294C55.0428 39.9505 55.2058 40.0175 55.375 40.0147Z" fill="#03A2D8"/>
<path d="M56.01 61.01C56.0154 60.8426 55.9524 60.6802 55.8354 60.5604C55.7183 60.4405 55.5575 60.3736 55.39 60.375C55.0455 60.3723 54.7638 60.6489 54.7601 60.9934C54.7565 61.3379 55.0323 61.6204 55.3768 61.6249C55.7212 61.6295 56.0045 61.3545 56.01 61.01Z" fill="#03A2D8"/>
<path d="M55.36 8.52493C55.0159 8.53887 54.7479 8.8286 54.7608 9.17278C54.7736 9.51696 55.0625 9.78585 55.4068 9.77405C55.751 9.76224 56.0208 9.47418 56.01 9.12993C56.0076 8.96231 55.9368 8.80296 55.8141 8.68875C55.6914 8.57454 55.5274 8.51537 55.36 8.52493Z" fill="#03A2D8"/>
<path d="M55.395 22.7497C55.7354 22.7387 56.0043 22.4572 55.9997 22.1166C55.9952 21.7761 55.7189 21.5019 55.3783 21.5C55.0377 21.4981 54.7583 21.7692 54.75 22.1097C54.7427 22.2824 54.8086 22.4502 54.9313 22.572C55.054 22.6938 55.2223 22.7583 55.395 22.7497Z" fill="#03A2D8"/>
<path d="M55.39 27.055C55.7331 27.0468 56.0054 26.7634 55.9999 26.4202C55.9945 26.0771 55.7133 25.8025 55.3701 25.8052C55.0269 25.8079 54.7501 26.0868 54.75 26.43C54.7486 26.5988 54.816 26.7609 54.9368 26.8789C55.0576 26.9969 55.2213 27.0604 55.39 27.055Z" fill="#03A2D8"/>
<path d="M55.375 52.9799C55.63 52.9839 55.8619 52.8326 55.9609 52.5975C56.0598 52.3625 56.006 52.0909 55.825 51.9113C55.6439 51.7317 55.3718 51.6801 55.1376 51.781C54.9034 51.8819 54.7539 52.115 54.76 52.3699C54.7628 52.7076 55.0373 52.9799 55.375 52.9799Z" fill="#03A2D8"/>
<path d="M55.3951 31.3747C55.7375 31.3637 56.0072 31.0792 56 30.7368C55.9927 30.3943 55.7112 30.1215 55.3686 30.125C55.0261 30.1286 54.7503 30.4071 54.7501 30.7497C54.7471 30.9199 54.8148 31.0836 54.937 31.2021C55.0593 31.3205 55.2251 31.383 55.3951 31.3747Z" fill="#03A2D8"/>
<path d="M55.39 48.66C55.7331 48.6517 56.0054 48.3684 55.9999 48.0252C55.9945 47.6821 55.7133 47.4075 55.3701 47.4102C55.0269 47.4129 54.7501 47.6918 54.75 48.035C54.7486 48.2038 54.816 48.3659 54.9368 48.4839C55.0576 48.6018 55.2213 48.6654 55.39 48.66Z" fill="#03A2D8"/>
<path d="M55.3699 18.4097C55.7111 18.4119 55.9909 18.1401 55.9988 17.799C56.0066 17.458 55.7395 17.1736 55.3986 17.1602C55.0578 17.1467 54.769 17.4091 54.7499 17.7497C54.7357 17.9217 54.7951 18.0916 54.9133 18.2174C55.0314 18.3432 55.1974 18.4131 55.3699 18.4097Z" fill="#03A2D8"/>
<path d="M55.3851 44.3398C55.7283 44.3343 56.0028 44.0531 56 43.7099C55.9973 43.3667 55.7183 43.0899 55.3751 43.0898C55.0319 43.0898 54.7529 43.3666 54.7501 43.7098C54.7473 43.8786 54.8135 44.0412 54.9333 44.1601C55.0532 44.279 55.2163 44.3439 55.3851 44.3398Z" fill="#03A2D8"/>
<path d="M56.01 13.4945C56.0181 13.3276 55.9585 13.1644 55.8446 13.042C55.7307 12.9196 55.5721 12.8484 55.405 12.8445C55.0607 12.8338 54.7727 13.1036 54.7609 13.4478C54.7491 13.792 55.018 14.0809 55.3621 14.0938C55.7063 14.1067 55.996 13.8387 56.01 13.4945Z" fill="#03A2D8"/>
<path d="M51.075 34.53C50.8542 34.524 50.6516 34.6518 50.562 34.8536C50.4724 35.0555 50.5134 35.2915 50.6659 35.4512C50.8185 35.6109 51.0523 35.6628 51.2581 35.5825C51.4639 35.5023 51.6009 35.3058 51.605 35.085C51.6118 34.9401 51.559 34.7988 51.4589 34.694C51.3587 34.5891 51.22 34.5298 51.075 34.53Z" fill="#03A2D8"/>
<path d="M51.06 21.565C50.8538 21.5452 50.6541 21.644 50.5448 21.8201C50.4356 21.9961 50.4356 22.2189 50.5448 22.3949C50.6541 22.571 50.8538 22.6698 51.06 22.65C51.2068 22.6609 51.3509 22.6067 51.454 22.5017C51.5571 22.3966 51.6087 22.2515 51.595 22.105C51.5977 21.9618 51.5424 21.8237 51.4416 21.722C51.3409 21.6202 51.2032 21.5636 51.06 21.565Z" fill="#03A2D8"/>
<path d="M51.075 12.925C50.8542 12.919 50.6516 13.0468 50.562 13.2486C50.4724 13.4505 50.5134 13.6865 50.6659 13.8462C50.8185 14.0059 51.0523 14.0578 51.2581 13.9776C51.4639 13.8973 51.6009 13.7008 51.605 13.48C51.6118 13.3352 51.559 13.1938 51.4589 13.089C51.3587 12.9841 51.22 12.9248 51.075 12.925Z" fill="#03A2D8"/>
<path d="M51.065 43.17C50.9196 43.1673 50.7794 43.2238 50.6766 43.3266C50.5738 43.4294 50.5172 43.5697 50.52 43.715C50.5469 43.9945 50.7817 44.2079 51.0625 44.2079C51.3433 44.2079 51.5781 43.9945 51.605 43.715C51.6077 43.5705 51.5518 43.4311 51.4501 43.3284C51.3484 43.2258 51.2095 43.1686 51.065 43.17Z" fill="#03A2D8"/>
<path d="M51.07 17.2497C50.9246 17.2456 50.7839 17.3009 50.6801 17.4028C50.5764 17.5046 50.5186 17.6443 50.52 17.7897C50.5172 18.0907 50.759 18.3369 51.06 18.3397C51.3609 18.3424 51.6072 18.1007 51.6099 17.7997C51.6127 17.4987 51.371 17.2525 51.07 17.2497Z" fill="#03A2D8"/>
<path d="M51.05 47.4946C50.9046 47.493 50.7649 47.5518 50.6645 47.657C50.564 47.7622 50.5117 47.9044 50.52 48.0496C50.5212 48.1951 50.5816 48.3338 50.6873 48.4337C50.7929 48.5337 50.9347 48.5864 51.08 48.5796C51.2212 48.5732 51.3538 48.5102 51.4478 48.4048C51.5419 48.2994 51.5896 48.1605 51.58 48.0196C51.5874 47.8773 51.5338 47.7387 51.4326 47.6384C51.3314 47.5382 51.1922 47.4859 51.05 47.4946Z" fill="#03A2D8"/>
<path d="M51.0601 51.8148C50.9147 51.8106 50.7741 51.8668 50.6718 51.9701C50.5694 52.0734 50.5145 52.2145 50.5201 52.3599C50.5003 52.5661 50.5991 52.7658 50.7752 52.875C50.9512 52.9843 51.174 52.9843 51.35 52.875C51.5261 52.7658 51.6249 52.5661 51.6051 52.3599C51.6108 52.2136 51.5552 52.0717 51.4517 51.9682C51.3482 51.8648 51.2063 51.8092 51.0601 51.8148Z" fill="#03A2D8"/>
<path d="M51.08 60.4546C50.8748 60.43 50.6733 60.5235 50.5598 60.6962C50.4462 60.8689 50.4401 61.0909 50.5439 61.2696C50.6478 61.4483 50.8438 61.5528 51.05 61.5396C51.1919 61.5553 51.3337 61.5096 51.4397 61.4141C51.5457 61.3186 51.6059 61.1823 51.605 61.0396C51.6222 60.8903 51.5746 60.7408 51.4742 60.6289C51.3738 60.5171 51.2303 60.4536 51.08 60.4546Z" fill="#03A2D8"/>
<path d="M51.605 26.4598C51.6254 26.3155 51.5819 26.1695 51.4858 26.06C51.3898 25.9505 51.2507 25.8883 51.105 25.8898C50.9627 25.8788 50.822 25.9256 50.7148 26.0198C50.6075 26.1139 50.5427 26.2473 50.535 26.3898C50.5254 26.5317 50.5728 26.6717 50.6666 26.7786C50.7605 26.8856 50.893 26.9508 51.035 26.9598C51.1773 26.9707 51.318 26.9239 51.4253 26.8298C51.5326 26.7356 51.5974 26.6023 51.605 26.4598Z" fill="#03A2D8"/>
<path d="M51.055 8.60487C50.8337 8.60698 50.6356 8.74273 50.5538 8.94837C50.472 9.15401 50.5227 9.38871 50.682 9.54229C50.8414 9.69586 51.0778 9.73781 51.2803 9.64843C51.4828 9.55905 51.6111 9.35611 51.605 9.13487C51.6051 8.99077 51.5465 8.85284 51.4428 8.75285C51.339 8.65286 51.199 8.59943 51.055 8.60487Z" fill="#03A2D8"/>
<path d="M51.065 56.1348C50.7855 56.1617 50.5721 56.3965 50.5721 56.6773C50.5721 56.9581 50.7855 57.193 51.065 57.2198C51.2713 57.2397 51.4709 57.1408 51.5802 56.9648C51.6895 56.7887 51.6895 56.5659 51.5802 56.3899C51.4709 56.2139 51.2713 56.115 51.065 56.1348Z" fill="#03A2D8"/>
<path d="M51.065 30.2095C50.7855 30.2364 50.5721 30.4712 50.5721 30.752C50.5721 31.0328 50.7855 31.2677 51.065 31.2945C51.2713 31.3144 51.4709 31.2155 51.5802 31.0395C51.6895 30.8634 51.6895 30.6406 51.5802 30.4646C51.4709 30.2886 51.2713 30.1897 51.065 30.2095Z" fill="#03A2D8"/>
<path d="M51.065 38.8498C50.8437 38.8478 50.6431 38.9798 50.5575 39.1839C50.4718 39.388 50.5181 39.6237 50.6747 39.7802C50.8312 39.9367 51.0668 39.983 51.2709 39.8974C51.475 39.8117 51.607 39.6112 51.605 39.3898C51.6092 39.2454 51.5537 39.1056 51.4515 39.0034C51.3493 38.9012 51.2095 38.8456 51.065 38.8498Z" fill="#03A2D8"/>
<path d="M46.75 8.68997C46.6324 8.68863 46.5192 8.7344 46.4356 8.81706C46.352 8.89972 46.305 9.0124 46.305 9.12997C46.301 9.25283 46.3463 9.3722 46.4308 9.46144C46.5154 9.55068 46.6321 9.60236 46.755 9.60497C47.0027 9.58834 47.2007 9.39248 47.22 9.14497C47.2145 8.89011 47.0049 8.68717 46.75 8.68997Z" fill="#03A2D8"/>
<path d="M46.75 60.5397C46.628 60.537 46.51 60.5829 46.4218 60.6673C46.3337 60.7517 46.2827 60.8677 46.28 60.9897C46.2732 61.1072 46.3138 61.2226 46.3928 61.31C46.4717 61.3974 46.5824 61.4495 46.7 61.4547C46.958 61.4718 47.1814 61.2775 47.2 61.0197C47.1913 60.7696 46.999 60.5645 46.75 60.5397Z" fill="#03A2D8"/>
<path d="M46.75 51.9C46.6285 51.8973 46.5109 51.9434 46.4236 52.0279C46.3362 52.1125 46.2863 52.2285 46.285 52.35C46.2796 52.4676 46.3215 52.5824 46.4014 52.6688C46.4812 52.7553 46.5924 52.8061 46.71 52.81C46.8342 52.8196 46.9571 52.779 47.0511 52.6972C47.1451 52.6154 47.2023 52.4994 47.21 52.375C47.1982 52.1234 47.0011 51.9199 46.75 51.9Z" fill="#03A2D8"/>
<path d="M46.75 48.4947C47.0048 48.4865 47.2056 48.2746 47.2 48.0197C47.1972 47.7759 46.9988 47.5797 46.755 47.5797C46.6321 47.577 46.5133 47.6236 46.425 47.7091C46.3367 47.7946 46.2863 47.9118 46.285 48.0347C46.3043 48.2822 46.5023 48.4781 46.75 48.4947Z" fill="#03A2D8"/>
<path d="M46.75 30.295C46.6275 30.295 46.5103 30.3443 46.4247 30.4318C46.339 30.5193 46.2923 30.6376 46.295 30.76C46.2923 30.8775 46.3368 30.9913 46.4185 31.0758C46.5002 31.1604 46.6124 31.2087 46.73 31.21C46.9048 31.2283 47.0749 31.1453 47.168 30.9962C47.2612 30.8471 47.2612 30.6579 47.168 30.5088C47.0749 30.3597 46.9048 30.2767 46.73 30.295H46.75Z" fill="#03A2D8"/>
<path d="M46.29 43.75C46.29 43.8676 46.337 43.9802 46.4206 44.0629C46.5043 44.1456 46.6175 44.1913 46.735 44.19C46.9899 44.1928 47.1996 43.9899 47.205 43.735C47.1984 43.4813 47.0028 43.2728 46.75 43.25C46.6208 43.2495 46.4973 43.3034 46.4097 43.3986C46.3222 43.4937 46.2788 43.6212 46.29 43.75Z" fill="#03A2D8"/>
<path d="M46.7499 18.2498C46.9994 18.2328 47.198 18.0342 47.2149 17.7848C47.2126 17.6572 47.1575 17.5364 47.0627 17.4511C46.9679 17.3658 46.8419 17.3236 46.7149 17.3348C46.5973 17.3348 46.4846 17.3818 46.402 17.4654C46.3193 17.549 46.2736 17.6622 46.2749 17.7798C46.2721 17.9061 46.3214 18.0281 46.4112 18.117C46.5011 18.2059 46.6236 18.2539 46.7499 18.2498Z" fill="#03A2D8"/>
<path d="M46.75 38.9348C46.632 38.9321 46.5177 38.9765 46.4324 39.0581C46.3471 39.1396 46.2977 39.2518 46.295 39.3698C46.2854 39.494 46.326 39.6169 46.4078 39.7109C46.4896 39.8049 46.6057 39.8622 46.73 39.8698C46.9895 39.8709 47.2067 39.6733 47.23 39.4148C47.2342 39.2863 47.185 39.1617 47.0941 39.0708C47.0031 38.9798 46.8786 38.9306 46.75 38.9348Z" fill="#03A2D8"/>
<path d="M46.75 56.2198C46.632 56.2212 46.5193 56.2693 46.4368 56.3537C46.3543 56.4381 46.3087 56.5518 46.31 56.6698C46.3073 56.7922 46.354 56.9106 46.4397 56.9981C46.5253 57.0856 46.6426 57.1349 46.765 57.1348C47.0125 57.1155 47.2084 56.9175 47.225 56.6698C47.2168 56.415 47.0049 56.2142 46.75 56.2198Z" fill="#03A2D8"/>
<path d="M46.75 22.5697C46.8728 22.5724 46.9917 22.5258 47.08 22.4403C47.1683 22.3549 47.2187 22.2376 47.22 22.1147C47.2285 21.8708 47.0388 21.6656 46.795 21.6547C46.6716 21.6451 46.5494 21.6851 46.4556 21.7658C46.3617 21.8465 46.3039 21.9613 46.295 22.0847C46.3016 22.3384 46.4972 22.547 46.75 22.5697Z" fill="#03A2D8"/>
<path d="M46.75 34.615C46.6325 34.611 46.5182 34.6542 46.4327 34.735C46.3472 34.8157 46.2976 34.9274 46.295 35.045C46.284 35.1695 46.3241 35.2932 46.4062 35.3875C46.4882 35.4818 46.6051 35.5387 46.73 35.545C46.986 35.5466 47.2019 35.3545 47.23 35.1C47.2357 34.9706 47.1871 34.8447 47.096 34.7527C47.0048 34.6606 46.8795 34.6107 46.75 34.615Z" fill="#03A2D8"/>
<path d="M46.75 25.9749C46.6325 25.9708 46.5182 26.014 46.4327 26.0948C46.3472 26.1756 46.2976 26.2873 46.295 26.4049C46.284 26.5294 46.3241 26.6531 46.4062 26.7474C46.4882 26.8417 46.6051 26.8986 46.73 26.9049C46.9877 26.9062 47.2042 26.7113 47.23 26.4549C47.2342 26.3263 47.185 26.2018 47.0941 26.1108C47.0031 26.0199 46.8786 25.9707 46.75 25.9749Z" fill="#03A2D8"/>
<path d="M46.75 13.0098C46.5042 13.0098 46.305 13.2091 46.305 13.4548C46.301 13.5772 46.3464 13.6961 46.4311 13.7845C46.5158 13.873 46.6325 13.9236 46.755 13.9248C46.9299 13.9431 47.0999 13.8602 47.193 13.711C47.2862 13.5619 47.2862 13.3727 47.193 13.2236C47.0999 13.0745 46.9299 12.9915 46.755 13.0098H46.75Z" fill="#03A2D8"/>
<path d="M42.435 56.96C42.525 56.96 42.655 56.82 42.85 56.68C42.655 56.54 42.54 56.385 42.435 56.395C42.33 56.405 42.225 56.565 42.12 56.66C42.25 56.75 42.315 56.935 42.435 56.96Z" fill="#03A2D8"/>
<path d="M42.7049 52.3597C42.7049 52.2497 42.5299 52.1547 42.4349 52.0547C42.3299 52.1597 42.1649 52.2547 42.1399 52.3747C42.1149 52.4947 42.2899 52.5897 42.4299 52.7797C42.5649 52.5847 42.7149 52.4647 42.7049 52.3597Z" fill="#03A2D8"/>
<path d="M42.705 9.16973C42.705 9.05973 42.545 8.95473 42.455 8.84473C42.345 8.94473 42.175 9.02473 42.14 9.14473C42.105 9.26473 42.275 9.36973 42.405 9.56973C42.55 9.38473 42.71 9.27473 42.705 9.16973Z" fill="#03A2D8"/>
<path d="M42.415 48.32C42.525 48.32 42.62 48.15 42.725 48.055C42.625 47.945 42.535 47.78 42.415 47.755C42.295 47.73 42.195 47.895 42 48.035C42.19 48.175 42.31 48.325 42.415 48.32Z" fill="#03A2D8"/>
<path d="M42.75 61.0148C42.65 60.9098 42.56 60.7448 42.44 60.7148C42.32 60.6848 42.22 60.8598 42.025 60.9948C42.215 61.1348 42.335 61.2898 42.44 61.2798C42.545 61.2698 42.62 61.1098 42.75 61.0148Z" fill="#03A2D8"/>
<path d="M42.39 13.7498C42.505 13.6548 42.675 13.5748 42.705 13.4548C42.735 13.3348 42.575 13.2298 42.445 13.0298C42.295 13.2148 42.14 13.3198 42.14 13.4298C42.14 13.5398 42.3 13.6598 42.39 13.7498Z" fill="#03A2D8"/>
<path d="M42.435 44.1395C42.57 43.9445 42.73 43.8095 42.705 43.7196C42.68 43.6296 42.51 43.5146 42.4 43.4146C42.305 43.5196 42.145 43.6196 42.14 43.7296C42.135 43.8395 42.29 43.9495 42.435 44.1395Z" fill="#03A2D8"/>
<path d="M42.4 18.0897C42.51 17.9897 42.675 17.9047 42.705 17.7847C42.735 17.6647 42.57 17.5597 42.435 17.3647C42.29 17.5547 42.135 17.6697 42.14 17.7697C42.145 17.8697 42.31 17.9847 42.4 18.0897Z" fill="#03A2D8"/>
<path d="M42.7049 39.3998C42.7049 39.2898 42.5299 39.1948 42.4349 39.0898C42.3299 39.1948 42.1649 39.2898 42.1399 39.4098C42.1149 39.5298 42.2899 39.6298 42.4299 39.8198C42.5649 39.6248 42.7149 39.5048 42.7049 39.3998Z" fill="#03A2D8"/>
<path d="M42.4349 21.8096C42.3299 21.9146 42.1649 22.0046 42.1399 22.1246C42.1149 22.2446 42.2899 22.3446 42.4299 22.5346C42.5649 22.3396 42.7149 22.2196 42.7049 22.1146C42.6949 22.0096 42.5299 21.9096 42.4349 21.8096Z" fill="#03A2D8"/>
<path d="M42.12 35.055C42.225 35.16 42.315 35.33 42.435 35.355C42.555 35.38 42.655 35.215 42.85 35.075C42.655 34.935 42.54 34.78 42.435 34.79C42.33 34.8 42.25 34.96 42.12 35.055Z" fill="#03A2D8"/>
<path d="M42.14 26.4298C42.175 26.5498 42.345 26.6298 42.455 26.7298C42.545 26.6248 42.7 26.5198 42.705 26.4098C42.71 26.2998 42.555 26.1898 42.405 26.0098C42.275 26.2048 42.12 26.3398 42.14 26.4298Z" fill="#03A2D8"/>
<path d="M42.12 30.7498C42.225 30.8548 42.315 31.0198 42.435 31.0498C42.555 31.0798 42.655 30.9048 42.85 30.7698C42.655 30.6298 42.54 30.4748 42.435 30.4848C42.33 30.4948 42.25 30.6398 42.12 30.7498Z" fill="#03A2D8"/>
<path d="M85.6549 64.7498C85.2483 64.7397 84.8761 64.9767 84.7134 65.3495C84.5507 65.7223 84.63 66.1564 84.9139 66.4476C85.1978 66.7388 85.6298 66.8291 86.0066 66.6759C86.3833 66.5227 86.6298 66.1565 86.6299 65.7498C86.6301 65.2072 86.1974 64.7634 85.6549 64.7498Z" fill="#03A2D8"/>
<path d="M85.64 69.0596C85.0917 69.0598 84.6458 69.5016 84.6405 70.0499C84.6352 70.5982 85.0724 71.0485 85.6206 71.0594C86.1688 71.0703 86.6235 70.6377 86.64 70.0896C86.6481 69.8192 86.5463 69.5571 86.3579 69.363C86.1695 69.1689 85.9105 69.0594 85.64 69.0596Z" fill="#03A2D8"/>
<path d="M81.3149 69.09C80.9076 69.0757 80.5323 69.3101 80.3665 69.6824C80.2006 70.0547 80.2773 70.4905 80.5603 70.7838C80.8434 71.0771 81.2761 71.1692 81.6541 71.0167C82.0321 70.8642 82.2797 70.4976 82.2799 70.09C82.2803 69.5511 81.8535 69.1088 81.3149 69.09Z" fill="#03A2D8"/>
<path d="M81.295 73.4097C80.8874 73.4099 80.5208 73.6575 80.3683 74.0355C80.2158 74.4135 80.3079 74.8462 80.6012 75.1293C80.8945 75.4123 81.3303 75.489 81.7026 75.3231C82.0749 75.1573 82.3093 74.782 82.295 74.3747C82.2762 73.8361 81.8339 73.4093 81.295 73.4097Z" fill="#03A2D8"/>
<path d="M81.3099 64.75C80.903 64.7378 80.5292 64.9735 80.3649 65.346C80.2007 65.7186 80.2787 66.1535 80.5621 66.4458C80.8456 66.738 81.278 66.8292 81.6554 66.6764C82.0327 66.5235 82.2797 66.1571 82.2799 65.75C82.2802 65.2092 81.8505 64.7662 81.3099 64.75Z" fill="#03A2D8"/>
<path d="M76.995 69.1397C76.6186 69.1357 76.2773 69.3601 76.1319 69.7073C75.9865 70.0544 76.0659 70.4551 76.3328 70.7205C76.5997 70.9859 77.0008 71.0632 77.3471 70.9159C77.6935 70.7685 77.916 70.426 77.91 70.0497C77.8942 69.5519 77.4929 69.1527 76.995 69.1397Z" fill="#03A2D8"/>
<path d="M77.905 74.4197C77.9266 73.9095 77.5306 73.4783 77.0205 73.4564C76.5103 73.4345 76.0789 73.8302 76.0567 74.3403C76.0345 74.8505 76.4298 75.2821 76.94 75.3047C77.449 75.3217 77.878 74.9283 77.905 74.4197Z" fill="#03A2D8"/>
<path d="M77.005 64.8195C76.495 64.8087 76.0725 65.2128 76.0606 65.7228C76.0488 66.2328 76.452 66.6562 76.962 66.669C77.472 66.6819 77.8961 66.2795 77.91 65.7696C77.9158 65.2599 77.5144 64.8385 77.005 64.8195Z" fill="#03A2D8"/>
<path d="M76.965 77.7847C76.4543 77.7959 76.0493 78.2189 76.0604 78.7296C76.0715 79.2403 76.4944 79.6453 77.0051 79.6343C77.5158 79.6233 77.9209 79.2004 77.91 78.6897C77.8937 78.1812 77.4737 77.779 76.965 77.7847Z" fill="#03A2D8"/>
<path d="M72.67 69.2046C72.1963 69.2019 71.8097 69.5827 71.8052 70.0563C71.8006 70.53 72.1799 70.9181 72.6535 70.9245C73.1271 70.9309 73.5167 70.5532 73.525 70.0796C73.5276 69.8502 73.4391 69.6291 73.2787 69.465C73.1184 69.3009 72.8994 69.2072 72.67 69.2046Z" fill="#03A2D8"/>
<path d="M72.66 77.8447C72.1863 77.8475 71.8041 78.2327 71.805 78.7064C71.8059 79.18 72.1897 79.5638 72.6633 79.5647C73.137 79.5656 73.5222 79.1834 73.525 78.7097C73.5222 78.2331 73.1366 77.8475 72.66 77.8447Z" fill="#03A2D8"/>
<path d="M72.67 64.8848C72.1957 64.8821 71.8087 65.2638 71.8051 65.7381C71.8014 66.2124 72.1824 66.6001 72.6567 66.6047C73.131 66.6093 73.5195 66.2291 73.525 65.7548C73.5278 65.279 73.1458 64.8903 72.67 64.8848Z" fill="#03A2D8"/>
<path d="M72.655 82.1646C72.1814 82.1701 71.8014 82.5575 71.805 83.0311C71.8087 83.5048 72.1946 83.8863 72.6683 83.8845C73.1419 83.8827 73.525 83.4982 73.525 83.0245C73.5195 82.548 73.1316 82.1645 72.655 82.1646Z" fill="#03A2D8"/>
<path d="M72.645 73.525C72.1715 73.536 71.7961 73.9278 71.8052 74.4014C71.8144 74.8749 72.2047 75.2519 72.6783 75.2446C73.1518 75.2374 73.5304 74.8486 73.525 74.375C73.5141 73.8984 73.1217 73.5194 72.645 73.525Z" fill="#03A2D8"/>
<path d="M68.3401 64.9348C67.8947 64.9376 67.5351 65.2995 67.5352 65.7449C67.5352 66.1902 67.8948 66.5521 68.3402 66.5548C68.7855 66.5575 69.1496 66.2002 69.1551 65.7548C69.162 65.5362 69.0786 65.3243 68.9244 65.1691C68.7701 65.014 68.5588 64.9292 68.3401 64.9348Z" fill="#03A2D8"/>
<path d="M68.355 73.5748C68.026 73.5707 67.7273 73.766 67.5991 74.069C67.4708 74.3719 67.5386 74.7223 67.7705 74.9557C68.0024 75.189 68.3523 75.2589 68.6561 75.1326C68.9598 75.0062 69.157 74.7087 69.155 74.3798C69.1563 74.1667 69.0726 73.962 68.9224 73.8108C68.7723 73.6597 68.568 73.5748 68.355 73.5748Z" fill="#03A2D8"/>
<path d="M69.155 70.1098C69.173 69.7815 68.9908 69.4748 68.6938 69.3337C68.3968 69.1927 68.0439 69.2451 67.8008 69.4665C67.5577 69.6879 67.4726 70.0343 67.5854 70.3432C67.6981 70.6521 67.9864 70.8621 68.315 70.8748C68.5284 70.887 68.7378 70.8128 68.8958 70.6689C69.0539 70.5249 69.1473 70.3234 69.155 70.1098Z" fill="#03A2D8"/>
<path d="M68.3499 77.8946C67.9046 77.892 67.5406 78.2494 67.5352 78.6947C67.5298 79.1401 67.8849 79.5062 68.3302 79.5144C68.7755 79.5227 69.1439 79.1698 69.1549 78.7246C69.1646 78.506 69.0837 78.2931 68.9314 78.136C68.779 77.979 68.5687 77.8916 68.3499 77.8946Z" fill="#03A2D8"/>
<path d="M68.345 82.2149C68.0165 82.2149 67.7205 82.4134 67.5957 82.7173C67.471 83.0212 67.5421 83.3704 67.7759 83.6012C68.0096 83.8321 68.3596 83.8989 68.662 83.7703C68.9643 83.6418 69.1591 83.3434 69.155 83.0149C69.155 82.801 69.0694 82.596 68.9172 82.4457C68.765 82.2953 68.5589 82.2122 68.345 82.2149Z" fill="#03A2D8"/>
<path d="M64.01 86.5996C63.5972 86.6051 63.2664 86.9432 63.27 87.3561C63.2737 87.769 63.6104 88.1013 64.0233 88.0995C64.4362 88.0977 64.77 87.7625 64.77 87.3495C64.7743 87.1476 64.6952 86.9528 64.5515 86.811C64.4077 86.6691 64.2119 86.5926 64.01 86.5996Z" fill="#03A2D8"/>
<path d="M63.2801 82.9598C63.2524 83.2612 63.4099 83.5494 63.6785 83.689C63.9471 83.8286 64.2734 83.7917 64.5042 83.5958C64.7349 83.3999 64.8242 83.0839 64.73 82.7962C64.6359 82.5085 64.377 82.3064 64.0751 82.2848C63.8797 82.2668 63.6853 82.3283 63.5358 82.4553C63.3862 82.5823 63.2941 82.7641 63.2801 82.9598Z" fill="#03A2D8"/>
<path d="M64.04 77.9598C63.6306 77.9413 63.2831 78.257 63.2624 78.6663C63.2417 79.0757 63.5555 79.4249 63.9647 79.4478C64.374 79.4708 64.7248 79.1589 64.75 78.7498C64.7651 78.5498 64.6978 78.3523 64.5638 78.2031C64.4297 78.0539 64.2405 77.966 64.04 77.9598Z" fill="#03A2D8"/>
<path d="M64.015 73.6396C63.6062 73.6451 63.2783 73.9791 63.2801 74.3879C63.2819 74.7967 63.6129 75.1277 64.0217 75.1295C64.4306 75.1314 64.7645 74.8034 64.77 74.3946C64.7771 74.1923 64.6998 73.9961 64.5567 73.853C64.4135 73.7098 64.2173 73.6325 64.015 73.6396Z" fill="#03A2D8"/>
<path d="M64.05 69.3198C63.7471 69.3096 63.4682 69.484 63.3447 69.7608C63.2212 70.0376 63.2777 70.3616 63.4876 70.5803C63.6975 70.7989 64.019 70.8686 64.3006 70.7565C64.5822 70.6444 64.7678 70.3729 64.77 70.0698C64.7754 69.8744 64.7022 69.6851 64.5669 69.5441C64.4316 69.4032 64.2454 69.3224 64.05 69.3198Z" fill="#03A2D8"/>
<path d="M64.75 65.7498C64.7601 65.4478 64.5867 65.1696 64.3111 65.0456C64.0356 64.9216 63.7124 64.9763 63.493 65.1842C63.2737 65.392 63.2016 65.7117 63.3105 65.9936C63.4195 66.2755 63.6879 66.4636 63.99 66.4698C64.187 66.478 64.379 66.406 64.5221 66.2704C64.6653 66.1348 64.7475 65.947 64.75 65.7498Z" fill="#03A2D8"/>
<path d="M59.695 75.0646C59.8743 75.0727 60.0492 75.0075 60.1794 74.8839C60.3096 74.7604 60.3838 74.5891 60.385 74.4096C60.3946 74.2259 60.3283 74.0464 60.2016 73.913C60.0748 73.7797 59.8989 73.7043 59.715 73.7046C59.3394 73.7046 59.035 74.009 59.035 74.3846C59.035 74.7601 59.3394 75.0646 59.715 75.0646H59.695Z" fill="#03A2D8"/>
<path d="M59.025 65.6946C59.025 66.0702 59.3295 66.3746 59.705 66.3746C60.0806 66.3746 60.385 66.0702 60.385 65.6946C60.385 65.3191 60.0806 65.0146 59.705 65.0146C59.3295 65.0146 59.025 65.3191 59.025 65.6946Z" fill="#03A2D8"/>
<path d="M59.7201 78.0249C59.5364 78.018 59.3579 78.0869 59.2265 78.2155C59.095 78.3441 59.0222 78.521 59.0251 78.7049C59.0252 79.0785 59.3266 79.382 59.7002 79.3847C60.0738 79.3874 60.3796 79.0882 60.385 78.7147C60.3905 78.3411 60.0936 78.0331 59.7201 78.0249Z" fill="#03A2D8"/>
<path d="M59.715 82.3448C59.4391 82.3407 59.1881 82.5038 59.0797 82.7576C58.9713 83.0113 59.0269 83.3054 59.2206 83.502C59.4143 83.6985 59.7075 83.7586 59.9628 83.6539C60.2182 83.5493 60.385 83.3007 60.385 83.0248C60.389 82.845 60.3201 82.6712 60.1938 82.5431C60.0676 82.4149 59.8948 82.3434 59.715 82.3448Z" fill="#03A2D8"/>
<path d="M59.6849 70.7499C59.9612 70.758 60.2148 70.5981 60.3267 70.3454C60.4386 70.0927 60.3863 69.7974 60.1946 69.5983C60.0028 69.3993 59.7097 69.3362 59.453 69.4385C59.1963 69.5409 59.0271 69.7885 59.0249 70.0649C59.0195 70.2438 59.0865 70.4174 59.2107 70.5463C59.3349 70.6752 59.5059 70.7486 59.6849 70.7499Z" fill="#03A2D8"/>
<path d="M60.385 87.3647C60.3929 86.9913 60.0981 86.6815 59.7248 86.6707C59.3514 86.6599 59.0393 86.9523 59.0256 87.3255C59.0119 87.6988 59.3019 88.0132 59.675 88.0297C59.8587 88.0407 60.0387 87.9757 60.173 87.8499C60.3073 87.7242 60.384 87.5487 60.385 87.3647Z" fill="#03A2D8"/>
<path d="M55.36 73.75C55.0165 73.7639 54.7487 74.0525 54.7606 74.3961C54.7725 74.7397 55.0596 75.0092 55.4033 74.9993C55.7469 74.9893 56.018 74.7037 56.01 74.36C56.0089 74.1915 55.9388 74.0309 55.8159 73.9156C55.693 73.8003 55.5282 73.7404 55.36 73.75Z" fill="#03A2D8"/>
<path d="M55.39 86.75C55.135 86.7481 54.9044 86.9013 54.8073 87.1372C54.7103 87.3731 54.7663 87.6442 54.9488 87.8223C55.1314 88.0004 55.4038 88.0498 55.6372 87.947C55.8706 87.8442 56.0182 87.6099 56.01 87.355C56.0045 87.0173 55.7277 86.7472 55.39 86.75Z" fill="#03A2D8"/>
<path d="M55.37 83.6499C55.6057 83.671 55.8332 83.5572 55.9575 83.3559C56.0819 83.1545 56.0819 82.9002 55.9575 82.6989C55.8332 82.4975 55.6057 82.3837 55.37 82.4049C55.0478 82.4338 54.8008 82.7038 54.8008 83.0274C54.8008 83.3509 55.0478 83.6209 55.37 83.6499Z" fill="#03A2D8"/>
<path d="M55.395 66.2997C55.7394 66.2942 56.0145 66.011 56.0099 65.6665C56.0053 65.322 55.7228 65.0462 55.3783 65.0498C55.0338 65.0535 54.7573 65.3352 54.76 65.6797C54.7585 65.8472 54.8255 66.0081 54.9453 66.1251C55.0652 66.2421 55.2276 66.3052 55.395 66.2997Z" fill="#03A2D8"/>
<path d="M56.01 78.7499C56.0195 78.582 55.9605 78.4175 55.8464 78.294C55.7324 78.1705 55.5731 78.0987 55.405 78.0949C55.0598 78.0797 54.7677 78.3472 54.7525 78.6924C54.7373 79.0375 55.0048 79.3297 55.35 79.3449C55.517 79.3558 55.6813 79.2987 55.8056 79.1867C55.9299 79.0746 56.0036 78.9171 56.01 78.7499Z" fill="#03A2D8"/>
<path d="M55.405 69.44C55.1693 69.4189 54.9419 69.5327 54.8175 69.734C54.6931 69.9353 54.6931 70.1897 54.8175 70.391C54.9419 70.5923 55.1693 70.7062 55.405 70.685C55.7273 70.6561 55.9742 70.386 55.9742 70.0625C55.9742 69.739 55.7273 69.4689 55.405 69.44Z" fill="#03A2D8"/>
<path d="M51.06 86.8048C50.8538 86.7849 50.6541 86.8838 50.5448 87.0598C50.4356 87.2359 50.4356 87.4586 50.5448 87.6347C50.6541 87.8107 50.8538 87.9096 51.06 87.8898C51.3395 87.8629 51.5529 87.6281 51.5529 87.3473C51.5529 87.0665 51.3395 86.8316 51.06 86.8048Z" fill="#03A2D8"/>
<path d="M51.0799 65.1347C50.8572 65.1163 50.6459 65.2357 50.5467 65.4359C50.4475 65.6361 50.4806 65.8766 50.6301 66.0426C50.7797 66.2086 51.0154 66.2665 51.2249 66.1887C51.4343 66.1109 51.5751 65.9131 51.5799 65.6897C51.5956 65.5478 51.55 65.406 51.4544 65.3C51.3589 65.194 51.2226 65.1338 51.0799 65.1347Z" fill="#03A2D8"/>
<path d="M51.0649 69.5196C50.8587 69.4998 50.659 69.5986 50.5497 69.7747C50.4405 69.9507 50.4405 70.1735 50.5497 70.3495C50.659 70.5256 50.8587 70.6244 51.0649 70.6046C51.3444 70.5777 51.5578 70.3429 51.5578 70.0621C51.5578 69.7813 51.3444 69.5465 51.0649 69.5196Z" fill="#03A2D8"/>
<path d="M51.075 78.1648C50.8538 78.1587 50.6508 78.287 50.5614 78.4895C50.4721 78.6919 50.514 78.9284 50.6676 79.0877C50.8212 79.2471 51.0559 79.2978 51.2615 79.2159C51.4671 79.1341 51.6029 78.9361 51.605 78.7148C51.6104 78.5708 51.557 78.4308 51.457 78.327C51.357 78.2232 51.2191 78.1647 51.075 78.1648Z" fill="#03A2D8"/>
<path d="M51.07 82.4848C50.8492 82.4808 50.6477 82.6104 50.5599 82.8131C50.4721 83.0158 50.5154 83.2514 50.6694 83.4097C50.8234 83.5681 51.0577 83.6178 51.2627 83.5356C51.4678 83.4535 51.6029 83.2557 51.605 83.0348C51.6202 82.8875 51.5694 82.741 51.4661 82.6348C51.3628 82.5286 51.2177 82.4737 51.07 82.4848Z" fill="#03A2D8"/>
<path d="M51.055 73.8399C50.8488 73.8201 50.6491 73.9189 50.5398 74.095C50.4306 74.271 50.4306 74.4938 50.5398 74.6698C50.6491 74.8459 50.8488 74.9447 51.055 74.9249C51.3345 74.898 51.5479 74.6632 51.5479 74.3824C51.5479 74.1016 51.3345 73.8668 51.055 73.8399Z" fill="#03A2D8"/>
<path d="M46.75 74.8447C46.9977 74.8281 47.1957 74.6322 47.215 74.3847C47.2095 74.1299 46.9999 73.9269 46.745 73.9297C46.6274 73.9284 46.5142 73.9741 46.4306 74.0568C46.347 74.1395 46.3 74.2522 46.3 74.3697C46.296 74.4926 46.3413 74.6119 46.4258 74.7012C46.5103 74.7904 46.6271 74.8421 46.75 74.8447Z" fill="#03A2D8"/>
<path d="M47.2 70.0296C47.2025 69.7786 47.0185 69.5647 46.77 69.5296C46.6446 69.5186 46.5202 69.5594 46.4257 69.6425C46.3313 69.7256 46.275 69.8439 46.27 69.9696C46.2618 70.0872 46.3011 70.2031 46.3791 70.2915C46.4571 70.3798 46.5673 70.4332 46.685 70.4396C46.8082 70.4565 46.9329 70.4222 47.0302 70.3448C47.1275 70.2673 47.1888 70.1535 47.2 70.0296Z" fill="#03A2D8"/>
<path d="M46.75 65.2198C46.6324 65.2184 46.5192 65.2642 46.4356 65.3468C46.352 65.4295 46.305 65.5422 46.305 65.6598C46.2939 65.7868 46.336 65.9128 46.4213 66.0076C46.5066 66.1024 46.6275 66.1575 46.755 66.1598C47.0027 66.1431 47.2007 65.9473 47.22 65.6998C47.2241 65.573 47.1762 65.45 47.0875 65.3594C46.9987 65.2688 46.8768 65.2183 46.75 65.2198Z" fill="#03A2D8"/>
<path d="M46.75 82.5699C46.5062 82.5727 46.31 82.7711 46.31 83.0149C46.3073 83.1369 46.3532 83.255 46.4376 83.3432C46.522 83.4313 46.638 83.4823 46.76 83.4849C47.0094 83.468 47.2081 83.2694 47.225 83.0199C47.2168 82.7651 47.0049 82.5643 46.75 82.5699Z" fill="#03A2D8"/>
<path d="M46.75 87.8048C46.872 87.8075 46.9901 87.7616 47.0782 87.6772C47.1664 87.5928 47.2174 87.4769 47.22 87.3548C47.2254 87.2368 47.1837 87.1214 47.1039 87.0342C47.0242 86.947 46.9131 86.895 46.795 86.8898C46.6223 86.8653 46.4505 86.9406 46.3515 87.0842C46.2525 87.2279 46.2433 87.4152 46.3277 87.5679C46.4121 87.7206 46.5757 87.8123 46.75 87.8048Z" fill="#03A2D8"/>
<path d="M46.75 78.2496C46.6316 78.2483 46.5176 78.2947 46.4338 78.3785C46.3501 78.4622 46.3036 78.5762 46.305 78.6946C46.3023 78.8166 46.3482 78.9347 46.4326 79.0228C46.517 79.111 46.633 79.162 46.755 79.1646C47.0044 79.1477 47.2031 78.9491 47.22 78.6996C47.2174 78.5776 47.1664 78.4616 47.0782 78.3772C46.9901 78.2929 46.872 78.2469 46.75 78.2496Z" fill="#03A2D8"/>
<path d="M42.455 65.375C42.345 65.475 42.175 65.555 42.14 65.675C42.105 65.795 42.275 65.9 42.405 66.1C42.55 65.915 42.71 65.805 42.705 65.7C42.7 65.595 42.545 65.485 42.455 65.375Z" fill="#03A2D8"/>
<path d="M42.39 70.2947C42.505 70.1997 42.675 70.1197 42.705 69.9997C42.735 69.8797 42.575 69.7747 42.445 69.5747C42.295 69.7597 42.14 69.8647 42.14 69.9697C42.14 70.0747 42.3 70.1897 42.39 70.2947Z" fill="#03A2D8"/>
<path d="M42.405 74.81C42.55 74.625 42.71 74.515 42.705 74.41C42.7 74.305 42.545 74.195 42.455 74.085C42.345 74.185 42.175 74.265 42.14 74.385C42.105 74.505 42.275 74.61 42.405 74.81Z" fill="#03A2D8"/>
<path d="M42.39 79.0047C42.505 78.9097 42.675 78.8247 42.705 78.7097C42.735 78.5947 42.575 78.4797 42.445 78.2847C42.295 78.4647 42.14 78.5747 42.14 78.6797C42.14 78.7847 42.3 78.8947 42.39 79.0047Z" fill="#03A2D8"/>
<path d="M42.4 83.33C42.51 83.23 42.675 83.14 42.705 83.02C42.735 82.9 42.57 82.8 42.435 82.605C42.29 82.79 42.135 82.905 42.14 83.01C42.145 83.115 42.31 83.25 42.4 83.33Z" fill="#03A2D8"/>
<path d="M42.4349 87.0449C42.3299 87.1499 42.1649 87.2449 42.1399 87.3649C42.1149 87.4849 42.2899 87.5799 42.4299 87.7699C42.5649 87.5749 42.7149 87.4549 42.7049 87.3549C42.6949 87.2549 42.5299 87.1499 42.4349 87.0449Z" fill="#03A2D8"/>
</g>
<path d="M47.599 51.7141C58.7646 51.761 68.6428 58.9641 72.099 69.5829C72.4146 70.6235 71.8428 71.7235 70.8146 72.0641C69.7834 72.4048 68.6709 71.8641 68.3021 70.8454C65.4678 61.9204 57.2303 55.8204 47.8678 55.711C38.5053 55.6048 30.1303 61.5173 27.0928 70.3735C26.7271 71.4173 25.5865 71.9673 24.5428 71.6048C23.499 71.2391 22.949 70.0985 23.3115 69.0548C26.9428 58.7329 36.6553 51.7954 47.599 51.7141Z" fill="white"/>
<path d="M66.5586 36.5658C66.5586 39.2533 64.3805 41.4314 61.693 41.4314C59.0055 41.4314 56.8274 39.2533 56.8274 36.5658C56.8274 33.8783 59.0055 31.7002 61.693 31.7002C64.3805 31.7002 66.5586 33.8783 66.5586 36.5658Z" fill="white"/>
<path d="M38.6836 36.5658C38.6836 39.2533 36.5055 41.4314 33.818 41.4314C31.1305 41.4314 28.9523 39.2533 28.9523 36.5658C28.9523 33.8783 31.1305 31.7002 33.818 31.7002C36.5055 31.7002 38.6836 33.8783 38.6836 36.5658Z" fill="white"/>
</svg>
