<svg width="96" height="97" viewBox="0 0 96 97" fill="none" xmlns="http://www.w3.org/2000/svg">
<path d="M73.93 36.07C73.9131 40.4652 72.7034 44.7734 70.43 48.535C69.5039 50.1049 68.4697 51.6085 67.335 53.035C67.335 53.035 61.835 58.255 61.835 64.735C61.835 65.8396 60.9396 66.735 59.835 66.735H35.935C34.8305 66.735 33.935 65.8396 33.935 64.735C33.935 58.235 28.635 53.02 28.635 53.02C27.5037 51.5911 26.4697 50.0877 25.54 48.52C23.2667 44.7584 22.057 40.4502 22.04 36.055V35.99C22.04 35.59 22.04 35.195 22.07 34.795V34.72C22.75 22.435 32.75 11.375 47.07 10.875H48.9C64.32 10.875 73.9 24.2 73.9 34.81L73.93 36.07Z" fill="#03A2D8"/>
<mask id="mask0_1797_7094" style="mask-type:luminance" maskUnits="userSpaceOnUse" x="22" y="10" width="52" height="57">
<path fill-rule="evenodd" clip-rule="evenodd" d="M73.925 36.07C73.9056 40.4649 72.6961 44.7724 70.425 48.535C69.4955 50.1039 68.4597 51.6074 67.325 53.035C67.325 53.035 61.825 58.255 61.825 64.735C61.825 65.8396 60.9296 66.735 59.825 66.735H35.93C34.8255 66.735 33.93 65.8396 33.93 64.735C33.93 58.235 28.635 53.02 28.635 53.02C27.5003 51.5924 26.4646 50.0889 25.535 48.52C23.264 44.7574 22.0545 40.4499 22.035 36.055V35.99C22.035 35.59 22.035 35.195 22.065 34.795V34.72C22.705 22.435 32.74 11.375 47.065 10.875H48.895C64.31 10.875 73.895 24.2 73.895 34.81L73.925 36.07Z" fill="white"/>
</mask>
<g mask="url(#mask0_1797_7094)">
<path d="M72.4351 39.52C72.0359 39.6062 71.6244 39.4409 71.3957 39.1026C71.1669 38.7642 71.1669 38.3208 71.3957 37.9825C71.6244 37.6441 72.0359 37.4789 72.4351 37.565C72.8955 37.6644 73.2241 38.0715 73.2241 38.5425C73.2241 39.0135 72.8955 39.4207 72.4351 39.52Z" fill="#03A2D8"/>
<path d="M72.4501 30.8752C72.0427 30.8894 71.6675 30.655 71.5016 30.2827C71.3357 29.9104 71.4124 29.4747 71.6955 29.1814C71.9785 28.8881 72.4112 28.7959 72.7892 28.9484C73.1672 29.1009 73.4148 29.4676 73.4151 29.8752C73.4154 30.4141 72.9886 30.8563 72.4501 30.8752Z" fill="#03A2D8"/>
<path d="M72.435 48.1602C72.0274 48.1599 71.6607 47.9123 71.5082 47.5343C71.3557 47.1564 71.4479 46.7236 71.7412 46.4406C72.0345 46.1576 72.4702 46.0809 72.8425 46.2467C73.2148 46.4126 73.4492 46.7878 73.435 47.1952C73.4161 47.7338 72.9739 48.1605 72.435 48.1602Z" fill="#03A2D8"/>
<path d="M72.435 24.6052C72.8419 24.593 73.2157 24.8287 73.38 25.2013C73.5442 25.5738 73.4662 26.0087 73.1828 26.301C72.8993 26.5932 72.4669 26.6844 72.0895 26.5316C71.7122 26.3787 71.4651 26.0123 71.465 25.6052C71.4647 25.0644 71.8944 24.6214 72.435 24.6052Z" fill="#03A2D8"/>
<path d="M73.4149 42.85C73.4292 43.2574 73.1948 43.6326 72.8225 43.7985C72.4502 43.9643 72.0145 43.8876 71.7212 43.6046C71.4279 43.3216 71.3357 42.8888 71.4882 42.5109C71.6407 42.1329 72.0074 41.8853 72.4149 41.885C72.9538 41.8847 73.3961 42.3114 73.4149 42.85Z" fill="#03A2D8"/>
<path d="M72.465 50.53C72.8739 50.5305 73.2413 50.78 73.3927 51.1598C73.5441 51.5396 73.449 51.9734 73.1525 52.255C72.856 52.5367 72.418 52.6094 72.0464 52.4388C71.6748 52.2681 71.4446 51.8884 71.465 51.48C71.4917 50.9474 71.9317 50.5294 72.465 50.53Z" fill="#03A2D8"/>
<path d="M73.415 34.25C73.3113 34.705 72.9066 35.0278 72.44 35.0278C71.9733 35.0278 71.5687 34.705 71.465 34.25C71.465 33.6977 71.9127 33.25 72.465 33.25C72.9976 33.2767 73.4156 33.7167 73.415 34.25Z" fill="#03A2D8"/>
<path d="M72.45 20.28C72.8572 20.2802 73.2236 20.5272 73.3764 20.9046C73.5293 21.282 73.4381 21.7143 73.1458 21.9978C72.8536 22.2813 72.4187 22.3593 72.0461 22.195C71.6736 22.0307 71.4378 21.657 71.45 21.25C71.4663 20.7095 71.9093 20.2798 72.45 20.28Z" fill="#03A2D8"/>
<path d="M68.1101 30.825C67.6005 30.8195 67.1914 30.403 67.1951 29.8934C67.1988 29.3839 67.6138 28.9733 68.1234 28.9751C68.6329 28.9769 69.045 29.3905 69.0451 29.9C69.0396 30.4125 68.6226 30.8251 68.1101 30.825Z" fill="#03A2D8"/>
<path d="M69.0451 38.5401C69.0478 39.0503 68.6369 39.4664 68.1267 39.47C67.6165 39.4737 67.1997 39.0636 67.1951 38.5534C67.1905 38.0432 67.5999 37.6256 68.1101 37.6201C68.6206 37.6201 69.0369 38.0296 69.0451 38.5401Z" fill="#03A2D8"/>
<path d="M68.12 41.9402C68.6302 41.9375 69.0462 42.3484 69.0499 42.8585C69.0535 43.3687 68.6434 43.7856 68.1332 43.7901C67.623 43.7947 67.2055 43.3854 67.2 42.8752C67.1999 42.3646 67.6094 41.9484 68.12 41.9402Z" fill="#03A2D8"/>
<path d="M68.105 26.5C67.5949 26.4917 67.1878 26.072 67.1952 25.5618C67.2025 25.0517 67.6215 24.6438 68.1317 24.6502C68.6418 24.6566 69.0505 25.0749 69.045 25.585C69.0368 26.0967 68.6167 26.5056 68.105 26.5Z" fill="#03A2D8"/>
<path d="M68.15 46.25C68.4943 46.2414 68.8148 46.4247 68.982 46.7259C69.1491 47.027 69.1351 47.396 68.9456 47.6836C68.7562 47.9712 68.4226 48.1298 68.08 48.095C67.5942 48.0458 67.2303 47.6276 67.2488 47.1397C67.2674 46.6518 67.6619 46.2623 68.15 46.25Z" fill="#03A2D8"/>
<path d="M69.045 21.2501C69.0531 21.7603 68.6467 22.1806 68.1366 22.1898C67.6265 22.1989 67.2054 21.7933 67.1953 21.2833C67.1851 20.7732 67.5899 20.3512 68.1 20.3401C68.6106 20.3345 69.0313 20.7396 69.045 21.2501Z" fill="#03A2D8"/>
<path d="M68.135 52.4302C67.6255 52.4383 67.2055 52.0329 67.1955 51.5235C67.1855 51.0141 67.5893 50.5925 68.0987 50.5806C68.608 50.5687 69.0311 50.9709 69.045 51.4802C69.0534 51.9928 68.6475 52.4166 68.135 52.4302Z" fill="#03A2D8"/>
<path d="M69.0451 34.2501C69.0423 34.7603 68.6269 35.1719 68.1167 35.1701C67.6065 35.1682 67.1942 34.7536 67.1951 34.2434C67.196 33.7332 67.6098 33.3201 68.1201 33.3201C68.6306 33.3255 69.0424 33.7395 69.0451 34.2501Z" fill="#03A2D8"/>
<path d="M63.795 29.0401C64.2686 29.0374 64.6552 29.4182 64.6598 29.8918C64.6643 30.3654 64.2851 30.7536 63.8115 30.76C63.3379 30.7664 62.9482 30.3886 62.94 29.9151C62.9371 29.4384 63.3184 29.0483 63.795 29.0401Z" fill="#03A2D8"/>
<path d="M64.6601 42.8601C64.6628 43.3344 64.281 43.7214 63.8067 43.7251C63.3324 43.7287 62.9447 43.3477 62.9401 42.8734C62.9355 42.3991 63.3158 42.0107 63.7901 42.0051C64.2658 42.0024 64.6546 42.3844 64.6601 42.8601Z" fill="#03A2D8"/>
<path d="M63.8051 50.645C64.2787 50.6478 64.661 51.033 64.6601 51.5067C64.6591 51.9803 64.2754 52.3641 63.8017 52.365C63.3281 52.3659 62.9428 51.9837 62.9401 51.51C62.9428 51.0334 63.3285 50.6478 63.8051 50.645V50.645Z" fill="#03A2D8"/>
<path d="M64.6601 16.9401C64.6601 17.4144 64.276 17.7991 63.8017 17.8001C63.3274 17.801 62.9419 17.4177 62.9401 16.9434C62.9382 16.4691 63.3208 16.0828 63.7951 16.0801C64.2708 16.0801 64.6573 16.4643 64.6601 16.9401Z" fill="#03A2D8"/>
<path d="M64.6601 55.8401C64.6518 56.3137 64.2622 56.6914 63.7886 56.685C63.315 56.6786 62.9357 56.2905 62.9402 55.8168C62.9448 55.3432 63.3314 54.9624 63.8051 54.9651C64.2816 54.9733 64.6629 55.3635 64.6601 55.8401Z" fill="#03A2D8"/>
<path d="M64.6601 64.4551C64.6682 64.9293 64.2909 65.3206 63.8167 65.3297C63.3426 65.3388 62.9505 64.9624 62.9404 64.4882C62.9303 64.014 63.3059 63.6212 63.7801 63.6101C64.009 63.6047 64.2307 63.6909 64.3958 63.8495C64.561 64.0082 64.6561 64.2261 64.6601 64.4551Z" fill="#03A2D8"/>
<path d="M63.7951 39.4002C63.3208 39.3974 62.9382 39.0112 62.9401 38.5368C62.9419 38.0625 63.3274 37.6793 63.8017 37.6802C64.276 37.6811 64.6601 38.0658 64.6601 38.5402C64.6546 39.0148 64.2697 39.3975 63.7951 39.4002Z" fill="#03A2D8"/>
<path d="M63.795 20.4002C64.2686 20.3975 64.6553 20.7783 64.6598 21.2519C64.6644 21.7255 64.2851 22.1137 63.8115 22.1201C63.3379 22.1265 62.9483 21.7487 62.94 21.2752C62.9373 21.0457 63.0259 20.8247 63.1863 20.6606C63.3466 20.4965 63.5656 20.4028 63.795 20.4002Z" fill="#03A2D8"/>
<path d="M63.8001 35.0801C63.3257 35.0801 62.941 34.6961 62.9401 34.2218C62.9392 33.7475 63.3224 33.3619 63.7967 33.3601C64.271 33.3583 64.6573 33.7408 64.6601 34.2151C64.6574 34.6898 64.2747 35.0747 63.8001 35.0801Z" fill="#03A2D8"/>
<path d="M63.775 26.4401C63.3009 26.4262 62.9276 26.0312 62.9405 25.5571C62.9534 25.083 63.3476 24.7089 63.8217 24.7207C64.2958 24.7326 64.6708 25.126 64.66 25.6001C64.6437 26.0747 64.2498 26.4486 63.775 26.4401Z" fill="#03A2D8"/>
<path d="M63.815 59.2852C64.2885 59.2934 64.6663 59.6831 64.6599 60.1567C64.6535 60.6303 64.2653 61.0095 63.7917 61.005C63.3181 61.0005 62.9373 60.6138 62.94 60.1402C62.9482 59.6636 63.3383 59.2824 63.815 59.2852Z" fill="#03A2D8"/>
<path d="M64.6601 12.6051C64.6601 13.0801 64.275 13.4651 63.8001 13.4651C63.3251 13.4651 62.9401 13.0801 62.9401 12.6051C62.9401 12.1302 63.3251 11.7451 63.8001 11.7451C64.275 11.7451 64.6601 12.1302 64.6601 12.6051Z" fill="#03A2D8"/>
<path d="M63.79 46.325C64.2636 46.3196 64.6524 46.6982 64.6597 47.1718C64.6669 47.6453 64.2899 48.0356 63.8164 48.0448C63.3429 48.0539 62.951 47.6785 62.94 47.205C62.9344 46.7283 63.3134 46.3359 63.79 46.325Z" fill="#03A2D8"/>
<path d="M59.4951 46.3751C59.8244 46.3815 60.117 46.5866 60.2353 46.894C60.3536 47.2014 60.274 47.5498 60.0339 47.7753C59.7939 48.0008 59.4412 48.0585 59.1418 47.9213C58.8424 47.784 58.6559 47.4791 58.6701 47.1501C58.6753 46.9374 58.7655 46.7357 58.9205 46.5901C59.0756 46.4444 59.2825 46.367 59.4951 46.3751Z" fill="#03A2D8"/>
<path d="M60.2901 34.2202C60.29 34.5496 60.0904 34.8461 59.7852 34.9702C59.4801 35.0943 59.1302 35.0213 58.9002 34.7855C58.6702 34.5496 58.6059 34.198 58.7376 33.8961C58.8693 33.5941 59.1708 33.402 59.5001 33.4102C59.7127 33.4115 59.9159 33.4979 60.0643 33.6501C60.2128 33.8023 60.2941 34.0076 60.2901 34.2202Z" fill="#03A2D8"/>
<path d="M59.4751 63.6602C59.8045 63.6582 60.1023 63.856 60.2283 64.1603C60.3543 64.4647 60.2835 64.8151 60.0491 65.0465C59.8147 65.278 59.4635 65.3445 59.1607 65.2147C58.8579 65.0848 58.664 64.7846 58.6701 64.4552C58.67 64.2426 58.7552 64.0389 58.9064 63.8895C59.0577 63.7401 59.2625 63.6575 59.4751 63.6602Z" fill="#03A2D8"/>
<path d="M60.2901 12.6101C60.292 12.9395 60.0943 13.2373 59.7899 13.3633C59.4856 13.4893 59.1352 13.4185 58.9037 13.1841C58.6723 12.9497 58.6058 12.5985 58.7356 12.2957C58.8654 11.993 59.1657 11.799 59.4951 11.8051C59.7076 11.8051 59.9114 11.8902 60.0608 12.0414C60.2101 12.1927 60.2927 12.3975 60.2901 12.6101Z" fill="#03A2D8"/>
<path d="M59.4751 37.7501C59.8045 37.7482 60.1023 37.9459 60.2283 38.2502C60.3543 38.5546 60.2835 38.905 60.0491 39.1365C59.8147 39.3679 59.4635 39.4344 59.1607 39.3046C58.8579 39.1748 58.664 38.8745 58.6701 38.5451C58.6687 38.3321 58.7534 38.1276 58.9049 37.9779C59.0565 37.8282 59.2621 37.7461 59.4751 37.7501Z" fill="#03A2D8"/>
<path d="M60.29 25.5901C60.2731 26.0369 59.8973 26.3856 59.4504 26.369C59.0035 26.3523 58.6546 25.9766 58.6711 25.5297C58.6875 25.0828 59.0631 24.7338 59.51 24.7501C59.7258 24.7552 59.9303 24.8473 60.0772 25.0055C60.2241 25.1636 60.3008 25.3745 60.29 25.5901Z" fill="#03A2D8"/>
<path d="M60.2901 55.825C60.29 56.154 60.091 56.4503 59.7865 56.5747C59.482 56.6991 59.1324 56.6271 58.902 56.3923C58.6716 56.1575 58.606 55.8067 58.7361 55.5045C58.8662 55.2024 59.1662 55.0089 59.4951 55.015C59.7085 55.015 59.9131 55.1008 60.0626 55.2532C60.2121 55.4055 60.2941 55.6116 60.2901 55.825Z" fill="#03A2D8"/>
<path d="M60.29 29.9052C60.2879 30.2346 60.0864 30.5299 59.7805 30.6521C59.4746 30.7742 59.1252 30.699 58.8967 30.4618C58.6682 30.2245 58.6061 29.8725 58.7396 29.5714C58.8732 29.2703 59.1758 29.0801 59.505 29.0902C59.7177 29.0928 59.9204 29.1805 60.0679 29.3337C60.2154 29.4868 60.2954 29.6927 60.29 29.9052Z" fill="#03A2D8"/>
<path d="M60.2901 42.8601C60.292 43.1895 60.0943 43.4873 59.7899 43.6133C59.4856 43.7393 59.1352 43.6685 58.9037 43.4341C58.6723 43.1997 58.6058 42.8485 58.7356 42.5457C58.8654 42.243 59.1657 42.049 59.4951 42.0551C59.7081 42.0537 59.9126 42.1384 60.0623 42.2899C60.212 42.4415 60.2941 42.6471 60.2901 42.8601Z" fill="#03A2D8"/>
<path d="M60.29 51.5151C60.2857 51.8445 60.0824 52.1384 59.7758 52.2587C59.4691 52.3789 59.1202 52.3015 58.8932 52.0628C58.6662 51.8242 58.6063 51.4718 58.7417 51.1716C58.8771 50.8713 59.1808 50.683 59.51 50.6951C59.7226 50.699 59.9248 50.788 60.0714 50.9421C60.218 51.0962 60.2967 51.3026 60.29 51.5151Z" fill="#03A2D8"/>
<path d="M59.4851 16.13C59.8145 16.1322 60.1097 16.3337 60.2319 16.6396C60.3541 16.9455 60.2788 17.2949 60.0416 17.5234C59.8044 17.7519 59.4524 17.814 59.1512 17.6804C58.8501 17.5469 58.6599 17.2443 58.6701 16.915C58.6713 16.702 58.7586 16.4985 58.912 16.3507C59.0655 16.2028 59.2721 16.1233 59.4851 16.13Z" fill="#03A2D8"/>
<path d="M60.29 60.1601C60.2856 60.4899 60.0817 60.7841 59.7745 60.904C59.4672 61.0238 59.1179 60.9454 58.8914 60.7057C58.6648 60.466 58.6062 60.1129 58.7433 59.8129C58.8803 59.5129 59.1855 59.3259 59.515 59.3401C59.7268 59.3453 59.9277 59.4349 60.0732 59.5888C60.2187 59.7427 60.2967 59.9484 60.29 60.1601Z" fill="#03A2D8"/>
<path d="M60.2901 21.2501C60.2961 21.5795 60.1022 21.8797 59.7994 22.0095C59.4966 22.1393 59.1454 22.0729 58.911 21.8414C58.6766 21.6099 58.6058 21.2596 58.7318 20.9552C58.8578 20.6508 59.1556 20.4531 59.4851 20.4551C59.6972 20.4538 59.9012 20.5368 60.0522 20.6859C60.2032 20.835 60.2887 21.0379 60.2901 21.2501Z" fill="#03A2D8"/>
<path d="M55.155 42.1201C55.356 42.113 55.5509 42.1898 55.6931 42.332C55.8353 42.4742 55.9121 42.6691 55.905 42.8701C55.9023 43.2802 55.5685 43.611 55.1584 43.6101C54.7482 43.6091 54.416 43.2769 54.415 42.8667C54.4141 42.4566 54.7449 42.1228 55.155 42.1201Z" fill="#03A2D8"/>
<path d="M55.905 29.9052C55.9028 30.2083 55.7172 30.4799 55.4356 30.592C55.154 30.7041 54.8325 30.6344 54.6226 30.4157C54.4127 30.1971 54.3562 29.873 54.4797 29.5962C54.6032 29.3194 54.8821 29.145 55.185 29.1552C55.3804 29.1578 55.5666 29.2386 55.7019 29.3796C55.8372 29.5206 55.9104 29.7099 55.905 29.9052Z" fill="#03A2D8"/>
<path d="M55.905 64.4552C55.909 64.7579 55.7296 65.0329 55.4509 65.1511C55.1723 65.2693 54.8498 65.2071 54.6351 64.9938C54.4203 64.7805 54.3559 64.4585 54.4722 64.179C54.5885 63.8996 54.8623 63.7182 55.165 63.7202C55.3608 63.7189 55.549 63.7957 55.688 63.9337C55.8269 64.0717 55.905 64.2594 55.905 64.4552Z" fill="#03A2D8"/>
<path d="M55.1449 24.8351C55.4476 24.829 55.7238 25.0066 55.8438 25.2845C55.9639 25.5623 55.9039 25.8852 55.6921 26.1014C55.4802 26.3176 55.1587 26.3841 54.8784 26.2697C54.5982 26.1553 54.415 25.8828 54.4149 25.5801C54.4109 25.3839 54.486 25.1944 54.6234 25.0542C54.7607 24.914 54.9487 24.8351 55.1449 24.8351Z" fill="#03A2D8"/>
<path d="M55.11 47.93C54.8084 47.9087 54.5497 47.7072 54.4551 47.4201C54.3605 47.133 54.4487 46.8172 54.6784 46.6208C54.9081 46.4243 55.2338 46.3861 55.5027 46.524C55.7717 46.662 55.9306 46.9488 55.905 47.25C55.8909 47.4461 55.799 47.6284 55.6496 47.7562C55.5002 47.884 55.3058 47.9466 55.11 47.93Z" fill="#03A2D8"/>
<path d="M55.155 37.7951C55.3569 37.7908 55.5517 37.8699 55.6936 38.0137C55.8354 38.1574 55.9119 38.3532 55.905 38.5551C55.905 38.9693 55.5692 39.3051 55.155 39.3051C54.7408 39.3051 54.405 38.9693 54.405 38.5551C54.3981 38.3532 54.4745 38.1574 54.6164 38.0137C54.7583 37.8699 54.953 37.7908 55.155 37.7951Z" fill="#03A2D8"/>
<path d="M55.21 20.5151C55.5121 20.5344 55.7725 20.7348 55.8687 21.0218C55.9648 21.3089 55.8777 21.6256 55.6483 21.8232C55.4188 22.0207 55.0926 22.0597 54.8231 21.9218C54.5535 21.784 54.3942 21.4967 54.42 21.1951C54.4327 20.9994 54.5236 20.8171 54.6722 20.6892C54.8208 20.5613 55.0146 20.4985 55.21 20.5151Z" fill="#03A2D8"/>
<path d="M55.905 60.155C55.905 60.5692 55.5692 60.905 55.155 60.905C54.7408 60.905 54.405 60.5692 54.405 60.155C54.405 59.7408 54.7408 59.405 55.155 59.405C55.5692 59.405 55.905 59.7408 55.905 60.155Z" fill="#03A2D8"/>
<path d="M55.175 16.1901C55.4805 16.1945 55.7528 16.3838 55.8634 16.6687C55.9739 16.9535 55.9006 17.2769 55.6781 17.4863C55.4556 17.6957 55.1283 17.7491 54.8507 17.6214C54.5731 17.4937 54.4008 17.2103 54.415 16.9051C54.4202 16.7093 54.5034 16.5236 54.6461 16.3894C54.7888 16.2551 54.9792 16.1834 55.175 16.1901Z" fill="#03A2D8"/>
<path d="M55.17 13.3601C54.8669 13.3641 54.5916 13.1841 54.4737 12.9048C54.3558 12.6255 54.4189 12.3027 54.6333 12.0883C54.8476 11.874 55.1705 11.8109 55.4497 11.9288C55.729 12.0466 55.909 12.322 55.905 12.6251C55.9063 12.8204 55.8293 13.0081 55.6912 13.1463C55.5531 13.2844 55.3653 13.3614 55.17 13.3601Z" fill="#03A2D8"/>
<path d="M55.905 55.815C55.9119 56.2292 55.5817 56.5706 55.1675 56.5775C54.7533 56.5844 54.4119 56.2542 54.405 55.84C54.4005 55.572 54.5394 55.3221 54.7692 55.1842C54.999 55.0464 55.2849 55.0416 55.5192 55.1717C55.7535 55.3018 55.9005 55.547 55.905 55.815Z" fill="#03A2D8"/>
<path d="M55.905 34.2151C55.905 34.6293 55.5692 34.9651 55.155 34.9651C54.7408 34.9651 54.405 34.6293 54.405 34.2151C54.405 33.8009 54.7408 33.4651 55.155 33.4651C55.5692 33.4651 55.905 33.8009 55.905 34.2151Z" fill="#03A2D8"/>
<path d="M55.15 50.7501C55.4526 50.746 55.7277 50.9255 55.8458 51.2041C55.964 51.4828 55.9018 51.8053 55.6885 52.02C55.4752 52.2348 55.1532 52.2991 54.8738 52.1828C54.5943 52.0665 54.413 51.7927 54.415 51.4901C54.4123 51.2939 54.4887 51.1048 54.627 50.9656C54.7653 50.8264 54.9538 50.7487 55.15 50.7501Z" fill="#03A2D8"/>
<path d="M51.52 34.2501C51.5136 34.5264 51.3407 34.7713 51.0826 34.8698C50.8244 34.9683 50.5323 34.9008 50.3435 34.6989C50.1548 34.4971 50.1069 34.2012 50.2225 33.9501C50.338 33.6991 50.5939 33.543 50.87 33.5551C51.0491 33.559 51.219 33.6349 51.3414 33.7657C51.4637 33.8965 51.5281 34.0712 51.52 34.2501Z" fill="#03A2D8"/>
<path d="M51.52 55.8402C51.5136 56.1164 51.3407 56.3614 51.0826 56.4599C50.8244 56.5584 50.5323 56.4908 50.3435 56.289C50.1548 56.0872 50.1069 55.7912 50.2225 55.5402C50.338 55.2892 50.5939 55.1331 50.87 55.1452C51.0491 55.149 51.219 55.225 51.3414 55.3558C51.4637 55.4866 51.5281 55.6613 51.52 55.8402Z" fill="#03A2D8"/>
<path d="M50.85 11.935C51.1263 11.9393 51.3726 12.1103 51.473 12.3678C51.5735 12.6252 51.5081 12.9179 51.3077 13.1081C51.1073 13.2984 50.8116 13.3484 50.5598 13.2347C50.3079 13.121 50.1499 12.8662 50.16 12.59C50.1626 12.411 50.2372 12.2406 50.3671 12.1173C50.497 11.994 50.6711 11.9283 50.85 11.935Z" fill="#03A2D8"/>
<path d="M50.845 63.7902C51.2205 63.7902 51.525 64.0947 51.525 64.4702C51.525 64.8458 51.2205 65.1502 50.845 65.1502C50.6602 65.1518 50.4829 65.0771 50.3551 64.9436C50.2273 64.8101 50.1603 64.6298 50.17 64.4452C50.1713 64.2684 50.2435 64.0995 50.3703 63.9764C50.4972 63.8533 50.6682 63.7862 50.845 63.7902Z" fill="#03A2D8"/>
<path d="M50.16 51.4551C50.1795 51.1793 50.364 50.9428 50.6267 50.8568C50.8894 50.7708 51.1781 50.8523 51.3569 51.0631C51.5357 51.274 51.5691 51.572 51.4414 51.8172C51.3137 52.0624 51.0503 52.2058 50.775 52.1801C50.5971 52.1661 50.4321 52.0817 50.3167 51.9456C50.2012 51.8095 50.1448 51.6329 50.16 51.4551Z" fill="#03A2D8"/>
<path d="M51.52 16.9351C51.52 17.3107 51.2156 17.6151 50.84 17.6151C50.4645 17.6151 50.16 17.3107 50.16 16.9351C50.16 16.5596 50.4645 16.2551 50.84 16.2551C51.2156 16.2551 51.52 16.5596 51.52 16.9351Z" fill="#03A2D8"/>
<path d="M51.52 38.5401C51.52 38.9157 51.2156 39.2201 50.84 39.2201C50.4645 39.2201 50.16 38.9157 50.16 38.5401C50.16 38.1646 50.4645 37.8601 50.84 37.8601C51.2156 37.8601 51.52 38.1646 51.52 38.5401Z" fill="#03A2D8"/>
<path d="M51.52 21.2501C51.522 21.5269 51.356 21.7773 51.1002 21.8832C50.8444 21.9891 50.5499 21.9294 50.3556 21.7322C50.1614 21.535 50.106 21.2397 50.2157 20.9855C50.3254 20.7313 50.5783 20.569 50.855 20.5751C51.0332 20.5751 51.2038 20.6465 51.3288 20.7734C51.4538 20.9003 51.5227 21.072 51.52 21.2501Z" fill="#03A2D8"/>
<path d="M50.835 59.4652C51.1109 59.4631 51.3607 59.6281 51.4673 59.8826C51.5738 60.1372 51.5159 60.4309 51.3208 60.626C51.1257 60.8211 50.832 60.879 50.5774 60.7724C50.3229 60.6659 50.158 60.4161 50.16 60.1402C50.1573 59.9603 50.2275 59.787 50.3547 59.6599C50.4819 59.5327 50.6551 59.4624 50.835 59.4652Z" fill="#03A2D8"/>
<path d="M51.5201 47.1852C51.5199 47.462 51.352 47.7111 51.0954 47.8151C50.8389 47.9191 50.5449 47.8571 50.3521 47.6585C50.1593 47.4598 50.1062 47.1641 50.2177 46.9108C50.3293 46.6575 50.5833 46.497 50.8601 46.5052C51.0382 46.5065 51.2083 46.5792 51.3324 46.707C51.4565 46.8348 51.5241 47.0071 51.5201 47.1852Z" fill="#03A2D8"/>
<path d="M51.52 25.5951C51.5135 25.8718 51.34 26.1169 51.0812 26.215C50.8224 26.3131 50.53 26.2446 50.3417 26.0417C50.1535 25.8389 50.1069 25.5422 50.2241 25.2914C50.3412 25.0407 50.5986 24.8859 50.875 24.9001C51.0532 24.9052 51.2218 24.9818 51.3431 25.1124C51.4644 25.2431 51.5281 25.417 51.52 25.5951Z" fill="#03A2D8"/>
<path d="M50.8551 30.5801C50.5787 30.5862 50.3262 30.4244 50.2162 30.1709C50.1062 29.9173 50.1606 29.6224 50.3539 29.4248C50.5471 29.2272 50.8407 29.1662 51.0967 29.2705C51.3526 29.3748 51.52 29.6237 51.5201 29.9001C51.5241 30.079 51.4558 30.252 51.3307 30.38C51.2055 30.508 51.0341 30.5801 50.8551 30.5801Z" fill="#03A2D8"/>
<path d="M51.52 42.8802C51.5136 43.1565 51.3407 43.4014 51.0826 43.4999C50.8244 43.5984 50.5323 43.5309 50.3435 43.3291C50.1548 43.1272 50.1069 42.8313 50.2225 42.5803C50.338 42.3293 50.5939 42.1731 50.87 42.1852C51.0491 42.1891 51.219 42.265 51.3414 42.3958C51.4637 42.5267 51.5281 42.7013 51.52 42.8802Z" fill="#03A2D8"/>
<path d="M47.1451 60.1402C47.1505 60.4853 46.8752 60.7696 46.5301 60.7751C46.185 60.7806 45.9008 60.5053 45.8952 60.1602C45.8897 59.8151 46.165 59.5308 46.5101 59.5252C46.6766 59.5198 46.8382 59.5822 46.9579 59.6981C47.0776 59.8141 47.1452 59.9736 47.1451 60.1402Z" fill="#03A2D8"/>
<path d="M47.145 38.5252C47.1558 38.8701 46.8851 39.1585 46.5402 39.1695C46.1952 39.1805 45.9067 38.9099 45.8956 38.5649C45.8845 38.22 46.155 37.9314 46.5 37.9202C46.6665 37.912 46.8292 37.9718 46.9508 38.0859C47.0724 38.1999 47.1424 38.3585 47.145 38.5252Z" fill="#03A2D8"/>
<path d="M46.51 43.485C46.1655 43.4795 45.8905 43.1963 45.8951 42.8518C45.8997 42.5073 46.1821 42.2315 46.5266 42.2351C46.8711 42.2388 47.1477 42.5205 47.145 42.865C47.1465 43.0325 47.0795 43.1934 46.9597 43.3104C46.8398 43.4274 46.6774 43.4905 46.51 43.485Z" fill="#03A2D8"/>
<path d="M47.1451 64.4802C47.1439 64.6478 47.0744 64.8076 46.9527 64.9228C46.8309 65.0379 46.6674 65.0984 46.5001 65.0902C46.1778 65.0613 45.9309 64.7913 45.9309 64.4677C45.9309 64.1442 46.1778 63.8741 46.5001 63.8452C46.6718 63.8367 46.8393 63.9006 46.9619 64.0212C47.0844 64.1419 47.1509 64.3083 47.1451 64.4802Z" fill="#03A2D8"/>
<path d="M47.145 12.6001C47.1557 12.9444 46.8859 13.2325 46.5417 13.2443C46.1975 13.2561 45.9086 12.9872 45.8957 12.643C45.8828 12.2988 46.1508 12.0091 46.495 11.9951C46.6623 11.9856 46.8263 12.0448 46.949 12.159C47.0717 12.2732 47.1425 12.4325 47.145 12.6001Z" fill="#03A2D8"/>
<path d="M46.5301 26.205C46.1863 26.2103 45.9028 25.937 45.8955 25.5932C45.8883 25.2495 46.1601 24.9644 46.5038 24.9553C46.8475 24.9462 47.134 25.2164 47.1451 25.56C47.1518 25.7279 47.0902 25.8913 46.9743 26.0129C46.8584 26.1345 46.6981 26.2038 46.5301 26.205Z" fill="#03A2D8"/>
<path d="M47.145 29.8852C47.1531 30.2295 46.881 30.5155 46.5367 30.5246C46.1923 30.5337 45.9055 30.2625 45.8954 29.9182C45.8853 29.5739 46.1557 29.2863 46.5 29.2752C46.667 29.2684 46.8296 29.3294 46.9511 29.4442C47.0725 29.559 47.1424 29.718 47.145 29.8852Z" fill="#03A2D8"/>
<path d="M46.515 55.2002C46.8588 55.1976 47.1402 55.4732 47.1447 55.817C47.1493 56.1608 46.8752 56.4437 46.5314 56.4501C46.1876 56.4565 45.9032 56.184 45.895 55.8402C45.8896 55.6723 45.9525 55.5095 46.0693 55.3888C46.1862 55.2682 46.347 55.2001 46.515 55.2002Z" fill="#03A2D8"/>
<path d="M46.53 34.8452C46.2942 34.8663 46.0668 34.7525 45.9424 34.5512C45.818 34.3498 45.818 34.0955 45.9424 33.8942C46.0668 33.6928 46.2942 33.579 46.53 33.6002C46.8522 33.6291 47.0991 33.8991 47.0991 34.2227C47.0991 34.5462 46.8522 34.8163 46.53 34.8452Z" fill="#03A2D8"/>
<path d="M47.145 51.4901C47.1531 51.8345 46.881 52.1205 46.5367 52.1296C46.1923 52.1387 45.9055 51.8675 45.8954 51.5231C45.8853 51.1788 46.1557 50.8912 46.5 50.8801C46.6674 50.8719 46.8308 50.9324 46.9526 51.0476C47.0743 51.1627 47.1438 51.3226 47.145 51.4901Z" fill="#03A2D8"/>
<path d="M47.145 21.2501C47.145 21.5946 46.8662 21.8742 46.5217 21.8751C46.1771 21.876 45.8969 21.5979 45.895 21.2534C45.8932 20.9089 46.1705 20.6278 46.515 20.6251C46.6829 20.6195 46.8456 20.6834 46.9648 20.8017C47.0841 20.92 47.1492 21.0822 47.145 21.2501Z" fill="#03A2D8"/>
<path d="M46.525 47.8052C46.3571 47.8107 46.1944 47.7468 46.0752 47.6286C45.9559 47.5103 45.8907 47.3481 45.895 47.1802C45.895 46.835 46.1748 46.5552 46.52 46.5552C46.8651 46.5552 47.145 46.835 47.145 47.1802C47.1491 47.3463 47.0852 47.5069 46.9682 47.6249C46.8512 47.7428 46.6911 47.808 46.525 47.8052Z" fill="#03A2D8"/>
<path d="M47.145 16.965C47.1481 17.1987 47.0207 17.4146 46.8145 17.5247C46.6084 17.6348 46.3581 17.6208 46.1656 17.4882C45.9731 17.3557 45.8706 17.1269 45.9 16.895C45.9064 16.7327 45.9779 16.5798 46.0982 16.4707C46.2186 16.3616 46.3778 16.3055 46.54 16.315C46.7076 16.3175 46.8669 16.3882 46.9812 16.5109C47.0954 16.6336 47.1545 16.7976 47.145 16.965Z" fill="#03A2D8"/>
<path d="M42.19 39.0852C41.8891 39.0768 41.6521 38.8261 41.6604 38.5253C41.6687 38.2245 41.9193 37.9873 42.2201 37.9956C42.5209 38.0038 42.7581 38.2543 42.75 38.5552C42.7517 38.7015 42.6922 38.842 42.5859 38.9426C42.4795 39.0433 42.336 39.0949 42.19 39.0852Z" fill="#03A2D8"/>
<path d="M42.75 25.5751C42.7528 25.8761 42.511 26.1223 42.21 26.1251C41.9091 26.1278 41.6628 25.8861 41.6601 25.5851C41.6573 25.2841 41.899 25.0379 42.2 25.0351C42.3454 25.031 42.4861 25.0863 42.5899 25.1882C42.6936 25.29 42.7514 25.4297 42.75 25.5751Z" fill="#03A2D8"/>
<path d="M42.7501 16.9501C42.7445 17.251 42.496 17.4905 42.1951 17.4849C41.8942 17.4794 41.6547 17.231 41.6602 16.9301C41.6658 16.6291 41.9141 16.3896 42.2151 16.3951C42.3609 16.3936 42.501 16.4522 42.6022 16.5573C42.7035 16.6623 42.757 16.8044 42.7501 16.9501Z" fill="#03A2D8"/>
<path d="M42.75 47.1851C42.7585 47.3348 42.7038 47.4811 42.5992 47.5885C42.4947 47.696 42.3499 47.7546 42.2 47.7501C41.9024 47.7472 41.6621 47.5059 41.6604 47.2083C41.6587 46.9106 41.8962 46.6666 42.1938 46.6603C42.4915 46.654 42.7391 46.8876 42.75 47.1851Z" fill="#03A2D8"/>
<path d="M42.75 21.2502C42.7515 21.3951 42.6935 21.5344 42.5896 21.6355C42.4857 21.7365 42.3449 21.7906 42.2 21.7852C41.9205 21.7583 41.7072 21.5235 41.7072 21.2427C41.7072 20.9619 41.9205 20.727 42.2 20.7002C42.3471 20.696 42.4895 20.7526 42.5935 20.8566C42.6976 20.9607 42.7542 21.1031 42.75 21.2502Z" fill="#03A2D8"/>
<path d="M42.215 52.0451C41.934 52.027 41.713 51.7978 41.7052 51.5163C41.6974 51.2347 41.9054 50.9936 42.185 50.9601C42.3312 50.9519 42.4743 51.0039 42.5811 51.104C42.6878 51.2042 42.7489 51.3437 42.75 51.4901C42.7584 51.6362 42.7055 51.7792 42.6039 51.8845C42.5023 51.9899 42.3614 52.0481 42.215 52.0451Z" fill="#03A2D8"/>
<path d="M42.2 55.2852C42.4796 55.3121 42.6929 55.5469 42.6929 55.8277C42.6929 56.1085 42.4796 56.3434 42.2 56.3702C41.9938 56.39 41.7941 56.2912 41.6849 56.1152C41.5756 55.9391 41.5756 55.7163 41.6849 55.5403C41.7941 55.3642 41.9938 55.2654 42.2 55.2852Z" fill="#03A2D8"/>
<path d="M42.75 64.48C42.7502 64.626 42.6903 64.7655 42.5843 64.8658C42.4783 64.9661 42.3357 65.0183 42.19 65.01C42.043 65.0183 41.8998 64.9614 41.7986 64.8544C41.6975 64.7475 41.6486 64.6014 41.665 64.455C41.6976 64.1755 41.9376 63.9668 42.2189 63.9733C42.5002 63.9798 42.7303 64.1993 42.75 64.48Z" fill="#03A2D8"/>
<path d="M42.175 30.4451C42.0325 30.4374 41.8991 30.3726 41.805 30.2654C41.7109 30.1581 41.6641 30.0174 41.675 29.8751C41.6738 29.7304 41.7353 29.5923 41.8437 29.4964C41.952 29.4005 42.0966 29.3563 42.24 29.3751C42.3816 29.3828 42.5142 29.4469 42.6081 29.5531C42.7021 29.6592 42.7496 29.7986 42.74 29.9401C42.7213 30.2345 42.4697 30.4594 42.175 30.4451Z" fill="#03A2D8"/>
<path d="M42.19 12.0752C42.4113 12.0691 42.6142 12.1974 42.7036 12.3999C42.793 12.6023 42.751 12.8388 42.5975 12.9981C42.4439 13.1575 42.2092 13.2082 42.0035 13.1263C41.7979 13.0445 41.6622 12.8465 41.66 12.6252C41.6546 12.4812 41.708 12.3412 41.808 12.2374C41.908 12.1336 42.0459 12.0751 42.19 12.0752Z" fill="#03A2D8"/>
<path d="M42.2 60.6901C41.899 60.6873 41.6573 60.4411 41.6601 60.1401C41.6628 59.8391 41.9091 59.5974 42.21 59.6001C42.511 59.6029 42.7528 59.8491 42.75 60.1501C42.7514 60.2955 42.6936 60.4352 42.5899 60.537C42.4861 60.6389 42.3454 60.6942 42.2 60.6901Z" fill="#03A2D8"/>
<path d="M42.75 34.2501C42.7313 34.5377 42.4881 34.7588 42.2 34.7501C41.9761 34.7473 41.7768 34.6078 41.6973 34.3985C41.6179 34.1891 41.6746 33.9525 41.8403 33.8019C42.006 33.6513 42.2469 33.6173 42.4478 33.7163C42.6486 33.8152 42.7685 34.027 42.75 34.2501Z" fill="#03A2D8"/>
<path d="M42.2 42.3201C42.4063 42.3003 42.6059 42.3992 42.7152 42.5752C42.8245 42.7512 42.8245 42.974 42.7152 43.1501C42.6059 43.3261 42.4063 43.425 42.2 43.4051C41.9205 43.3783 41.7072 43.1434 41.7072 42.8626C41.7072 42.5818 41.9205 42.347 42.2 42.3201Z" fill="#03A2D8"/>
<path d="M38.34 12.615C38.3207 12.8625 38.1227 13.0584 37.875 13.075C37.6202 13.0669 37.4194 12.855 37.425 12.6C37.425 12.4825 37.4721 12.3698 37.5557 12.2871C37.6393 12.2045 37.7525 12.1587 37.87 12.16C37.9929 12.1573 38.1117 12.2039 38.2 12.2894C38.2883 12.3749 38.3387 12.4921 38.34 12.615Z" fill="#03A2D8"/>
<path d="M37.895 64.0102C38.1495 64.0384 38.3416 64.2542 38.34 64.5102C38.3324 64.6346 38.2751 64.7506 38.1811 64.8324C38.0871 64.9142 37.9642 64.9548 37.84 64.9452C37.722 64.94 37.6108 64.8881 37.5311 64.8009C37.4514 64.7136 37.4096 64.5983 37.415 64.4802C37.4121 64.3529 37.4621 64.2302 37.5531 64.1411C37.644 64.052 37.7678 64.0046 37.895 64.0102Z" fill="#03A2D8"/>
<path d="M37.895 55.365C38.1495 55.3931 38.3416 55.609 38.34 55.865C38.3324 55.9893 38.2751 56.1054 38.1811 56.1872C38.0871 56.269 37.9642 56.3096 37.84 56.3C37.7224 56.2961 37.6112 56.2453 37.5314 56.1588C37.4515 56.0724 37.4096 55.9576 37.415 55.84C37.4122 55.7123 37.462 55.5891 37.5528 55.4992C37.6436 55.4094 37.7674 55.3608 37.895 55.365Z" fill="#03A2D8"/>
<path d="M37.89 51.9651C37.6404 51.9508 37.4396 51.7544 37.42 51.5051C37.4255 51.2502 37.6351 51.0473 37.89 51.0501C38.0076 51.0487 38.1208 51.0945 38.2044 51.1772C38.288 51.2598 38.3351 51.3725 38.335 51.4901C38.3391 51.6121 38.2945 51.7307 38.211 51.8198C38.1275 51.9089 38.0121 51.9612 37.89 51.9651Z" fill="#03A2D8"/>
<path d="M37.8801 33.75C38.1293 33.7696 38.3258 33.9703 38.3401 34.22C38.3364 34.3466 38.2807 34.4662 38.1861 34.5504C38.0914 34.6346 37.9663 34.6761 37.8401 34.665C37.7225 34.665 37.6098 34.618 37.5271 34.5344C37.4445 34.4508 37.3987 34.3376 37.4001 34.22C37.3986 34.0932 37.4491 33.9713 37.5397 33.8825C37.6303 33.7938 37.7533 33.7459 37.8801 33.75Z" fill="#03A2D8"/>
<path d="M37.8701 46.75C38.1197 46.7642 38.3205 46.9607 38.3401 47.21C38.3387 47.332 38.289 47.4485 38.2018 47.5338C38.1146 47.6191 37.9971 47.6663 37.8751 47.665C37.757 47.6663 37.6433 47.6207 37.5589 47.5382C37.4745 47.4557 37.4264 47.343 37.4251 47.225C37.421 47.103 37.4656 46.9844 37.5491 46.8953C37.6326 46.8062 37.748 46.7539 37.8701 46.75Z" fill="#03A2D8"/>
<path d="M38.34 21.2502C38.3401 21.505 38.1349 21.7124 37.88 21.7152C37.7576 21.7152 37.6403 21.6659 37.5547 21.5784C37.4691 21.4909 37.4223 21.3726 37.425 21.2502C37.4237 21.1321 37.4693 21.0184 37.5518 20.934C37.6343 20.8496 37.747 20.8015 37.865 20.8002C38.12 20.7945 38.3319 20.9953 38.34 21.2502Z" fill="#03A2D8"/>
<path d="M38.34 42.8702C38.3348 42.9967 38.2789 43.1158 38.1848 43.2005C38.0906 43.2853 37.9663 43.3284 37.84 43.3202C37.7142 43.3152 37.596 43.2589 37.5129 43.1645C37.4297 43.07 37.3889 42.9456 37.4 42.8202C37.4081 42.5756 37.6102 42.3824 37.855 42.3852C37.9853 42.3795 38.112 42.4287 38.2042 42.521C38.2965 42.6132 38.3457 42.7399 38.34 42.8702Z" fill="#03A2D8"/>
<path d="M38.3401 60.1401C38.3234 60.3878 38.1276 60.5858 37.8801 60.6051C37.7567 60.6051 37.6387 60.5551 37.5529 60.4665C37.4671 60.3779 37.421 60.2583 37.4251 60.1351C37.425 59.8912 37.6212 59.6928 37.8651 59.6901C38.12 59.6844 38.3319 59.8852 38.3401 60.1401Z" fill="#03A2D8"/>
<path d="M37.8651 26.0402C37.6106 26.0121 37.4185 25.7962 37.4201 25.5402C37.4277 25.4162 37.4851 25.3006 37.5793 25.2196C37.6734 25.1386 37.7963 25.0992 37.9201 25.1102C38.0377 25.1141 38.1488 25.1649 38.2287 25.2514C38.3086 25.3378 38.3505 25.4527 38.3451 25.5702C38.3465 25.6971 38.296 25.819 38.2054 25.9077C38.1148 25.9964 37.9918 26.0443 37.8651 26.0402Z" fill="#03A2D8"/>
<path d="M38.34 38.5551C38.3336 38.6807 38.277 38.7985 38.1831 38.8822C38.0891 38.9658 37.9655 39.0083 37.84 39.0001C37.7151 38.9938 37.5982 38.9369 37.5162 38.8426C37.4341 38.7483 37.394 38.6246 37.405 38.5001C37.4089 38.382 37.4596 38.2704 37.5459 38.1897C37.6321 38.1091 37.747 38.066 37.865 38.0701C37.9936 38.0672 38.1176 38.1177 38.2076 38.2096C38.2976 38.3015 38.3456 38.4266 38.34 38.5551Z" fill="#03A2D8"/>
<path d="M38.3399 29.91C38.3142 30.1665 38.0977 30.3613 37.84 30.36C37.7156 30.3524 37.5995 30.2951 37.5177 30.2011C37.436 30.1071 37.3953 29.9843 37.405 29.86C37.4088 29.7424 37.4597 29.6313 37.5461 29.5514C37.6326 29.4715 37.7474 29.4296 37.865 29.435C37.9922 29.4308 38.1155 29.4795 38.2055 29.5695C38.2955 29.6595 38.3442 29.7828 38.3399 29.91Z" fill="#03A2D8"/>
<path d="M38.34 16.935C38.3347 17.1887 38.1288 17.3924 37.875 17.395C37.753 17.3924 37.6371 17.3414 37.5527 17.2532C37.4683 17.1651 37.4224 17.047 37.425 16.925C37.425 16.6792 37.6243 16.48 37.87 16.48C38.1249 16.4772 38.3346 16.6802 38.34 16.935Z" fill="#03A2D8"/>
<path d="M33.985 60.1501C33.79 60.2901 33.66 60.4501 33.57 60.4301C33.48 60.4101 33.36 60.2351 33.26 60.1301C33.365 60.0351 33.46 59.8701 33.575 59.8651C33.69 59.8601 33.795 60.0101 33.985 60.1501Z" fill="#03A2D8"/>
<path d="M33.565 56.2501C33.425 56.0601 33.26 55.9351 33.28 55.8451C33.3 55.7551 33.47 55.6301 33.57 55.5251C33.67 55.6251 33.83 55.7201 33.845 55.8301C33.86 55.9401 33.705 56.0551 33.565 56.2501Z" fill="#03A2D8"/>
<path d="M33.54 13.0402C33.41 12.8402 33.255 12.7052 33.28 12.6152C33.305 12.5252 33.48 12.4152 33.59 12.3152C33.68 12.4252 33.84 12.5302 33.845 12.6402C33.85 12.7502 33.69 12.8552 33.54 13.0402Z" fill="#03A2D8"/>
<path d="M33.135 51.5051C33.33 51.3651 33.46 51.2051 33.55 51.2251C33.64 51.2451 33.76 51.4151 33.86 51.5251C33.76 51.6201 33.66 51.7801 33.55 51.7851C33.44 51.7901 33.33 51.6451 33.135 51.5051Z" fill="#03A2D8"/>
<path d="M33.135 64.4651C33.33 64.3251 33.46 64.1651 33.55 64.1851C33.64 64.2051 33.76 64.3801 33.86 64.4851C33.76 64.5801 33.66 64.7401 33.55 64.7501C33.44 64.7601 33.33 64.6051 33.135 64.4651Z" fill="#03A2D8"/>
<path d="M33.585 16.5151C33.71 16.7151 33.865 16.8501 33.845 16.9401C33.825 17.0301 33.64 17.1401 33.53 17.2351C33.44 17.1301 33.28 17.0201 33.28 16.9101C33.28 16.8001 33.435 16.7001 33.585 16.5151Z" fill="#03A2D8"/>
<path d="M33.575 47.61C33.43 47.42 33.275 47.305 33.28 47.2C33.285 47.095 33.445 46.99 33.535 46.885C33.645 46.985 33.815 47.07 33.845 47.19C33.875 47.31 33.705 47.41 33.575 47.61Z" fill="#03A2D8"/>
<path d="M33.57 20.8352C33.705 21.0302 33.865 21.1602 33.845 21.2502C33.825 21.3402 33.645 21.4602 33.535 21.5602C33.445 21.4552 33.285 21.3502 33.28 21.2402C33.275 21.1302 33.425 21.0252 33.57 20.8352Z" fill="#03A2D8"/>
<path d="M33.565 43.2851C33.425 43.0951 33.26 42.9701 33.28 42.8801C33.3 42.7901 33.47 42.6651 33.57 42.5601C33.67 42.6651 33.83 42.7601 33.845 42.8701C33.86 42.9801 33.705 43.0951 33.565 43.2851Z" fill="#03A2D8"/>
<path d="M33.565 26.0051C33.425 25.8151 33.26 25.6851 33.28 25.5951C33.3 25.5051 33.47 25.3801 33.57 25.2751C33.67 25.3801 33.83 25.4751 33.845 25.5851C33.86 25.6951 33.705 25.8101 33.565 26.0051Z" fill="#03A2D8"/>
<path d="M33.985 38.5452C33.79 38.6852 33.66 38.8452 33.57 38.8252C33.48 38.8052 33.36 38.6302 33.26 38.5252C33.365 38.4302 33.46 38.2702 33.57 38.2602C33.68 38.2502 33.795 38.4052 33.985 38.5452Z" fill="#03A2D8"/>
<path d="M33.54 29.4751C33.69 29.6601 33.845 29.7751 33.845 29.8801C33.845 29.9851 33.68 30.0951 33.59 30.2001C33.48 30.1001 33.31 30.0201 33.28 29.9001C33.25 29.7801 33.41 29.6751 33.54 29.4751Z" fill="#03A2D8"/>
<path d="M33.985 34.2502C33.79 34.3852 33.66 34.5502 33.57 34.5302C33.48 34.5102 33.36 34.3352 33.26 34.2302C33.365 34.1352 33.46 33.9702 33.57 33.9652C33.68 33.9602 33.795 34.0852 33.985 34.2502Z" fill="#03A2D8"/>
</g>
<path d="M34.9449 71.5601H61.0499" stroke="#03A2D8" stroke-width="6.25" stroke-linecap="round" stroke-linejoin="round"/>
<path d="M37.88 78.345H58.125" stroke="#03A2D8" stroke-width="6.25" stroke-linecap="round" stroke-linejoin="round"/>
<path d="M41.08 84.7949H55.135" stroke="#03A2D8" stroke-width="6.25" stroke-linecap="round" stroke-linejoin="round"/>
<path d="M32.13 36.9299C32.1288 31.2659 35.1295 26.0256 40.015 23.1599" stroke="white" stroke-width="6.25" stroke-linecap="round"/>
</svg>
