<svg width="96" height="96" viewBox="0 0 96 96" fill="none" xmlns="http://www.w3.org/2000/svg">
<path fill-rule="evenodd" clip-rule="evenodd" d="M22.5254 65.1211C16.4453 65.1211 13.6453 61.1374 13.6453 56.2416V30.2582C13.6453 26.3211 17.2453 22.3211 22.5254 22.4011H91.0053V56.2416C91.0053 61.1374 87.4801 65.1211 82.5837 65.1211H22.5254Z" fill="#03A2D8"/>
<path fill-rule="evenodd" clip-rule="evenodd" d="M14.3945 27.2567C14.7439 27.219 15.0987 27.1997 15.4579 27.1997H84.581H86.2715V28.8902V63.4289C86.2715 63.7469 86.2563 64.0614 86.2268 64.3717C85.1881 64.8501 84.0318 65.1169 82.8131 65.1169H21.858C17.3471 65.1169 13.6906 61.4604 13.6906 56.9501V30.5788C13.6906 29.3958 13.942 28.2716 14.3945 27.2567ZM12.437 27.6731C12.153 28.592 12 29.5679 12 30.5788V56.9501C12 62.3851 16.4224 66.8075 21.8579 66.8075H82.813C83.8665 66.8075 84.882 66.6413 85.8346 66.3339C84.5916 70.3557 80.8378 73.2863 76.413 73.2863H15.4579C10.0224 73.2863 5.60001 68.8639 5.60001 63.4289V37.0576C5.60001 32.6754 8.47452 28.9517 12.437 27.6731Z" fill="#03A2D8"/>
<path fill-rule="evenodd" clip-rule="evenodd" d="M82.5269 25.0123C82.0704 25.023 81.7025 24.6753 81.6856 24.2189C81.6692 23.767 82.0163 23.3832 82.4632 23.3596C82.9326 23.3348 83.3315 23.7106 83.3355 24.1811C83.3389 24.6303 82.9782 25.001 82.5269 25.0123Z" fill="#03A2D8"/>
<path fill-rule="evenodd" clip-rule="evenodd" d="M86.0004 25.0112C85.5479 25.014 85.1771 24.6551 85.1669 24.2065C85.1568 23.736 85.5428 23.3494 86.0133 23.3596C86.4624 23.3691 86.8203 23.7405 86.8174 24.1936C86.8141 24.65 86.4568 25.0084 86.0004 25.0112Z" fill="#03A2D8"/>
<path fill-rule="evenodd" clip-rule="evenodd" d="M89.5062 25.0119C89.0498 25.0249 88.6796 24.68 88.661 24.223C88.6424 23.7711 88.9867 23.3862 89.4341 23.3597C89.9029 23.3332 90.3036 23.7074 90.3103 24.1774C90.316 24.6259 89.9576 24.9995 89.5062 25.0119Z" fill="#03A2D8"/>
<path fill-rule="evenodd" clip-rule="evenodd" d="M83.3347 27.6529C83.3465 28.1015 82.9943 28.4813 82.5458 28.5027C82.0758 28.5246 81.6831 28.1465 81.6842 27.6726C81.6853 27.2156 82.042 26.8561 82.4985 26.8516C82.9498 26.8471 83.3229 27.2044 83.3347 27.6529Z" fill="#03A2D8"/>
<path fill-rule="evenodd" clip-rule="evenodd" d="M86.0086 26.8517C86.465 26.859 86.8189 27.2208 86.8178 27.6778C86.8166 28.1303 86.4538 28.4982 86.0046 28.5033C85.5347 28.5084 85.1515 28.1179 85.1673 27.6479C85.1814 27.1994 85.5561 26.8443 86.0086 26.8517Z" fill="#03A2D8"/>
<path fill-rule="evenodd" clip-rule="evenodd" d="M89.503 26.8504C89.9543 26.8617 90.3144 27.2336 90.3105 27.6827C90.306 28.1532 89.9064 28.5279 89.437 28.5026C88.9902 28.4783 88.6436 28.0946 88.6611 27.6427C88.678 27.1862 89.0465 26.8386 89.503 26.8504Z" fill="#03A2D8"/>
<path fill-rule="evenodd" clip-rule="evenodd" d="M82.5235 31.9871C82.0671 31.9967 81.7003 31.6473 81.6856 31.1909C81.6704 30.739 82.0192 30.3569 82.4661 30.3349C82.9355 30.3124 83.3333 30.6894 83.335 31.1593C83.3372 31.6096 82.9755 31.9781 82.5235 31.9871Z" fill="#03A2D8"/>
<path fill-rule="evenodd" clip-rule="evenodd" d="M86.0102 30.3351C86.4593 30.343 86.8188 30.7127 86.8177 31.1651C86.8166 31.6221 86.4599 31.9817 86.0034 31.9867C85.5301 31.9907 85.1492 31.6013 85.1672 31.1313C85.1841 30.6828 85.5605 30.3267 86.0102 30.3351Z" fill="#03A2D8"/>
<path fill-rule="evenodd" clip-rule="evenodd" d="M90.3102 31.1533C90.3159 31.6024 89.9558 31.9749 89.505 31.9867C89.0491 31.9996 88.6789 31.6537 88.6609 31.1967C88.6417 30.7228 89.0187 30.3306 89.4886 30.3345C89.9383 30.3384 90.3046 30.7036 90.3102 31.1533Z" fill="#03A2D8"/>
<path fill-rule="evenodd" clip-rule="evenodd" d="M83.3353 34.6584C83.3296 35.1081 82.9639 35.4738 82.5142 35.4778C82.0437 35.4823 81.6667 35.0906 81.6853 34.6162C81.7034 34.1592 82.073 33.8132 82.5289 33.825C82.9808 33.8374 83.3403 34.2093 83.3353 34.6584Z" fill="#03A2D8"/>
<path fill-rule="evenodd" clip-rule="evenodd" d="M86.0218 33.8271C86.4782 33.8412 86.8265 34.2086 86.818 34.6656C86.8096 35.1164 86.4399 35.4798 85.9913 35.4781C85.5214 35.4759 85.1444 35.0792 85.1669 34.6098C85.1884 34.1612 85.5687 33.813 86.0218 33.8271Z" fill="#03A2D8"/>
<path fill-rule="evenodd" clip-rule="evenodd" d="M89.476 33.8267C89.9279 33.8233 90.2998 34.1817 90.31 34.6302C90.3207 35.1008 89.9347 35.4873 89.4641 35.4783C89.0156 35.4687 88.6572 35.0979 88.66 34.6449C88.6623 34.1879 89.019 33.8295 89.476 33.8267Z" fill="#03A2D8"/>
<path fill-rule="evenodd" clip-rule="evenodd" d="M82.5274 37.3094C82.976 37.3206 83.3372 37.692 83.3355 38.1417C83.3332 38.6127 82.9377 38.9841 82.4632 38.9599C82.0079 38.9362 81.6675 38.562 81.685 38.1045C81.7019 37.6542 82.0795 37.2975 82.5274 37.3094Z" fill="#03A2D8"/>
<path fill-rule="evenodd" clip-rule="evenodd" d="M85.9982 38.9614C85.5457 38.9626 85.1754 38.603 85.167 38.1539C85.158 37.6834 85.5457 37.2985 86.0156 37.3098C86.4647 37.3211 86.8214 37.693 86.8169 38.146C86.813 38.6025 86.4546 38.9597 85.9982 38.9614Z" fill="#03A2D8"/>
<path fill-rule="evenodd" clip-rule="evenodd" d="M89.498 38.9617C89.041 38.9708 88.6747 38.6214 88.6606 38.1644C88.646 37.713 88.9954 37.3304 89.4422 37.3096C89.9116 37.287 90.3083 37.6646 90.31 38.1351C90.3117 38.5848 89.9499 38.9533 89.498 38.9617Z" fill="#03A2D8"/>
<path fill-rule="evenodd" clip-rule="evenodd" d="M82.5098 42.4527C82.0612 42.4544 81.6916 42.0904 81.6837 41.6402C81.6758 41.1826 82.0246 40.8158 82.4805 40.8017C82.9544 40.787 83.3432 41.1674 83.3353 41.6379C83.3274 42.0876 82.9595 42.451 82.5098 42.4527Z" fill="#03A2D8"/>
<path fill-rule="evenodd" clip-rule="evenodd" d="M86.008 42.453C85.5589 42.4597 85.1831 42.1025 85.1673 41.6539C85.1504 41.1845 85.5324 40.7957 86.0058 40.8013C86.4622 40.807 86.8178 41.1676 86.8178 41.624C86.8178 42.0765 86.4571 42.4456 86.008 42.453Z" fill="#03A2D8"/>
<path fill-rule="evenodd" clip-rule="evenodd" d="M89.4848 42.4527C89.0368 42.4544 88.6672 42.0904 88.6587 41.6402C88.6508 41.1826 88.9996 40.8158 89.4555 40.8017C89.9294 40.787 90.3182 41.1674 90.3104 41.6379C90.3025 42.0876 89.9345 42.451 89.4848 42.4527Z" fill="#03A2D8"/>
<path fill-rule="evenodd" clip-rule="evenodd" d="M83.3353 45.1127C83.3353 45.5629 82.9724 45.9298 82.5204 45.9371C82.0634 45.9444 81.6989 45.5945 81.6853 45.1369C81.6718 44.6642 82.0544 44.2748 82.5238 44.2844C82.9724 44.2934 83.3347 44.663 83.3353 45.1127Z" fill="#03A2D8"/>
<path fill-rule="evenodd" clip-rule="evenodd" d="M86.008 44.2843C86.4566 44.291 86.8178 44.6601 86.8178 45.1126C86.8178 45.5696 86.4622 45.9303 86.0058 45.9359C85.5324 45.9415 85.1504 45.5527 85.1673 45.0833C85.1831 44.6348 85.5589 44.2775 86.008 44.2843Z" fill="#03A2D8"/>
<path fill-rule="evenodd" clip-rule="evenodd" d="M90.3102 45.0861C90.3243 45.5352 89.9727 45.9139 89.5219 45.9353C89.0649 45.9567 88.6885 45.6186 88.6614 45.1633C88.6333 44.6894 89.0018 44.2899 89.4723 44.2842C89.9214 44.2792 90.2961 44.6375 90.3102 45.0861Z" fill="#03A2D8"/>
<path fill-rule="evenodd" clip-rule="evenodd" d="M83.3347 48.5845C83.3431 49.0336 82.987 49.4106 82.5385 49.4275C82.0691 49.4455 81.6797 49.0646 81.6848 48.5907C81.6893 48.1337 82.0493 47.7764 82.5047 47.7759C82.9571 47.7748 83.3268 48.1354 83.3347 48.5845Z" fill="#03A2D8"/>
<path fill-rule="evenodd" clip-rule="evenodd" d="M85.9976 47.7759C86.454 47.777 86.813 48.1343 86.8169 48.5913C86.8214 49.0443 86.4647 49.4162 86.0156 49.4275C85.5456 49.4388 85.1585 49.0539 85.167 48.5834C85.1754 48.1343 85.5451 47.7748 85.9976 47.7759Z" fill="#03A2D8"/>
<path fill-rule="evenodd" clip-rule="evenodd" d="M89.4848 49.4278C89.0368 49.4295 88.6672 49.0655 88.6587 48.6153C88.6508 48.1577 88.9996 47.7909 89.4555 47.7768C89.9294 47.7621 90.3182 48.1425 90.3104 48.613C90.3025 49.0627 89.9345 49.4261 89.4848 49.4278Z" fill="#03A2D8"/>
<path fill-rule="evenodd" clip-rule="evenodd" d="M82.5203 51.2594C82.9699 51.2667 83.3328 51.6353 83.3351 52.0849C83.3368 52.556 82.944 52.9308 82.4695 52.9099C82.0142 52.8902 81.6699 52.5183 81.684 52.0613C81.6975 51.611 82.0723 51.2515 82.5203 51.2594Z" fill="#03A2D8"/>
<path fill-rule="evenodd" clip-rule="evenodd" d="M86.0009 52.9106C85.5484 52.9134 85.177 52.555 85.1674 52.1065C85.1562 51.6359 85.5427 51.2494 86.0127 51.259C86.4618 51.2685 86.8202 51.6393 86.8174 52.0924C86.8146 52.5494 86.4573 52.9078 86.0009 52.9106Z" fill="#03A2D8"/>
<path fill-rule="evenodd" clip-rule="evenodd" d="M89.4567 51.2592C89.9053 51.2456 90.2862 51.5973 90.3093 52.0458C90.3335 52.5152 89.9577 52.9102 89.4838 52.9114C89.0273 52.9125 88.6667 52.5575 88.6599 52.0999C88.6532 51.6474 89.0082 51.2727 89.4567 51.2592Z" fill="#03A2D8"/>
<path fill-rule="evenodd" clip-rule="evenodd" d="M82.523 56.403C82.0751 56.412 81.6998 56.0542 81.6845 55.6034C81.6688 55.1464 82.0114 54.7733 82.4667 54.7519C82.9417 54.7299 83.335 55.103 83.335 55.5746C83.3345 56.0237 82.9727 56.3934 82.523 56.403Z" fill="#03A2D8"/>
<path fill-rule="evenodd" clip-rule="evenodd" d="M86.8175 55.5749C86.8175 56.0274 86.4563 56.3959 86.0078 56.4027C85.5373 56.4094 85.1535 56.0201 85.167 55.5501C85.18 55.1015 85.5542 54.7454 86.0061 54.751C86.462 54.7572 86.8175 55.1173 86.8175 55.5749Z" fill="#03A2D8"/>
<path fill-rule="evenodd" clip-rule="evenodd" d="M90.3102 55.593C90.2995 56.0421 89.9293 56.4033 89.4796 56.4027C89.0097 56.4021 88.6372 56.0054 88.6609 55.5321C88.684 55.0757 89.057 54.7342 89.514 54.7511C89.9648 54.768 90.3209 55.1439 90.3102 55.593Z" fill="#03A2D8"/>
<path fill-rule="evenodd" clip-rule="evenodd" d="M82.5313 59.887C82.0743 59.8994 81.7046 59.5545 81.686 59.0981C81.6668 58.6456 82.0117 58.2607 82.4591 58.2348C82.9274 58.2077 83.3286 58.5819 83.3354 59.0519C83.341 59.5004 82.9821 59.874 82.5313 59.887Z" fill="#03A2D8"/>
<path fill-rule="evenodd" clip-rule="evenodd" d="M85.9816 58.234C86.4302 58.2267 86.8043 58.5856 86.8179 59.0364C86.832 59.4934 86.4877 59.8653 86.0318 59.8851C85.5573 59.9053 85.1651 59.5312 85.1668 59.0595C85.1691 58.6099 85.5325 58.2419 85.9816 58.234Z" fill="#03A2D8"/>
<path fill-rule="evenodd" clip-rule="evenodd" d="M89.498 59.8871C89.041 59.8955 88.6747 59.5467 88.6606 59.0891C88.646 58.6378 88.9954 58.2557 89.4422 58.2343C89.9116 58.2123 90.3083 58.5899 90.31 59.0598C90.3117 59.5101 89.9499 59.878 89.498 59.8871Z" fill="#03A2D8"/>
<path fill-rule="evenodd" clip-rule="evenodd" d="M83.3353 62.5589C83.3296 63.0086 82.9628 63.3738 82.5131 63.3771C82.0431 63.3811 81.6667 62.9889 81.6853 62.515C81.7039 62.058 82.0741 61.712 82.53 61.725C82.9814 61.7374 83.3409 62.1098 83.3353 62.5589Z" fill="#03A2D8"/>
<path fill-rule="evenodd" clip-rule="evenodd" d="M85.9794 63.378C85.5303 63.369 85.168 62.9999 85.1669 62.5502C85.1663 62.0786 85.5596 61.7055 86.0347 61.727C86.49 61.7478 86.8326 62.1203 86.8174 62.5773C86.8027 63.0281 86.4274 63.3865 85.9794 63.378Z" fill="#03A2D8"/>
<path fill-rule="evenodd" clip-rule="evenodd" d="M79.8282 48.6353C79.8237 49.0912 79.4608 49.4417 79.0015 49.4344C78.5479 49.4265 78.1991 49.0602 78.2098 48.6004C78.22 48.1575 78.5761 47.8137 79.023 47.8154C79.4794 47.8171 79.8333 48.1778 79.8282 48.6353Z" fill="#03A2D8"/>
<path fill-rule="evenodd" clip-rule="evenodd" d="M79.0297 44.3296C79.4856 44.3347 79.8361 44.697 79.8282 45.1563C79.8209 45.6105 79.4546 45.9593 78.9948 45.9486C78.5519 45.9379 78.2081 45.5823 78.2098 45.1354C78.2115 44.6784 78.5721 44.3251 79.0297 44.3296Z" fill="#03A2D8"/>
<path fill-rule="evenodd" clip-rule="evenodd" d="M79.0226 51.3018C79.479 51.3035 79.8323 51.6635 79.8284 52.1211C79.8239 52.577 79.461 52.928 79.0023 52.9207C78.5588 52.9134 78.2117 52.5606 78.21 52.1143C78.2089 51.6573 78.565 51.3001 79.0226 51.3018Z" fill="#03A2D8"/>
<path fill-rule="evenodd" clip-rule="evenodd" d="M79.8282 41.6632C79.8237 42.119 79.4608 42.4695 79.0015 42.4622C78.5479 42.4543 78.1991 42.088 78.2098 41.6282C78.22 41.1853 78.5761 40.8416 79.023 40.8433C79.4794 40.845 79.8333 41.2056 79.8282 41.6632Z" fill="#03A2D8"/>
<path fill-rule="evenodd" clip-rule="evenodd" d="M79.0253 56.4066C78.5678 56.4088 78.2099 56.0532 78.2099 55.5968C78.2105 55.1398 78.5683 54.7842 79.0264 54.7876C79.4716 54.791 79.8227 55.1398 79.8283 55.5844C79.8339 56.0425 79.4812 56.4037 79.0253 56.4066Z" fill="#03A2D8"/>
<path fill-rule="evenodd" clip-rule="evenodd" d="M79.0149 38.976C78.5585 38.9737 78.2051 38.6137 78.2097 38.1555C78.2147 37.7002 78.5776 37.3492 79.0363 37.3571C79.4803 37.3644 79.8269 37.7177 79.828 38.164C79.8292 38.621 79.4725 38.9777 79.0149 38.976Z" fill="#03A2D8"/>
<path fill-rule="evenodd" clip-rule="evenodd" d="M79.8282 34.6708C79.8327 35.1284 79.4788 35.4885 79.0224 35.4901C78.5654 35.4913 78.2087 35.1346 78.2098 34.6776C78.2115 34.2313 78.5586 33.8785 79.0021 33.8712C79.4613 33.8639 79.8237 34.2149 79.8282 34.6708Z" fill="#03A2D8"/>
<path fill-rule="evenodd" clip-rule="evenodd" d="M79.0055 59.8927C78.5502 59.8865 78.2008 59.5219 78.2099 59.0626C78.2189 58.609 78.5868 58.2619 79.0461 58.2737C79.4884 58.285 79.8316 58.6428 79.8282 59.0902C79.8254 59.5461 79.4637 59.8989 79.0055 59.8927Z" fill="#03A2D8"/>
<path fill-rule="evenodd" clip-rule="evenodd" d="M79.8282 31.2029C79.8242 31.6593 79.4625 32.011 79.0038 32.0042C78.549 31.9974 78.2002 31.6323 78.2098 31.1725C78.2194 30.729 78.5744 30.3847 79.0207 30.3853C79.4777 30.3864 79.8321 30.7453 79.8282 31.2029Z" fill="#03A2D8"/>
<path fill-rule="evenodd" clip-rule="evenodd" d="M79.0088 61.7603C79.4669 61.7558 79.8265 62.1097 79.8281 62.5667C79.8298 63.0231 79.4731 63.3804 79.0161 63.3792C78.5704 63.3775 78.2171 63.0304 78.2098 62.587C78.2024 62.1277 78.5535 61.7648 79.0088 61.7603Z" fill="#03A2D8"/>
<path fill-rule="evenodd" clip-rule="evenodd" d="M79.8282 27.6986C79.8327 28.1562 79.4788 28.5163 79.0224 28.518C78.5654 28.5191 78.2087 28.1624 78.2098 27.7054C78.2115 27.2591 78.5586 26.9064 79.0021 26.899C79.4613 26.8917 79.8237 27.2428 79.8282 27.6986Z" fill="#03A2D8"/>
<path fill-rule="evenodd" clip-rule="evenodd" d="M79.033 23.4127C79.4878 23.4189 79.8372 23.7829 79.8281 24.2427C79.8197 24.6963 79.4517 25.0435 78.9919 25.0311C78.5496 25.0198 78.2069 24.6625 78.2098 24.2151C78.2131 23.7587 78.5749 23.4065 79.033 23.4127Z" fill="#03A2D8"/>
<path fill-rule="evenodd" clip-rule="evenodd" d="M75.5265 49.4124C75.0988 49.4074 74.741 49.0439 74.7461 48.6179C74.7512 48.1902 75.1157 47.8324 75.5406 47.8375C75.9683 47.8425 76.3261 48.206 76.3211 48.6314C76.316 49.0597 75.9525 49.4175 75.5265 49.4124Z" fill="#03A2D8"/>
<path fill-rule="evenodd" clip-rule="evenodd" d="M75.5414 23.4346C75.9697 23.4403 76.3269 23.8043 76.3213 24.2297C76.3157 24.658 75.9516 25.0153 75.5262 25.0096C75.0979 25.004 74.7407 24.64 74.7463 24.214C74.7519 23.7863 75.1165 23.429 75.5414 23.4346Z" fill="#03A2D8"/>
<path fill-rule="evenodd" clip-rule="evenodd" d="M75.5392 42.4403C75.1132 42.4442 74.7503 42.0858 74.7464 41.6581C74.7424 41.2321 75.1008 40.8692 75.528 40.8653C75.954 40.8613 76.3174 41.2197 76.3214 41.6474C76.3253 42.0734 75.9669 42.4363 75.5392 42.4403Z" fill="#03A2D8"/>
<path fill-rule="evenodd" clip-rule="evenodd" d="M75.5265 56.3846C75.0988 56.3795 74.741 56.0161 74.7461 55.5901C74.7512 55.1624 75.1157 54.8046 75.5406 54.8096C75.9683 54.8147 76.3261 55.1782 76.3211 55.6036C76.316 56.0319 75.9525 56.3897 75.5265 56.3846Z" fill="#03A2D8"/>
<path fill-rule="evenodd" clip-rule="evenodd" d="M75.5282 37.3794C75.9542 37.3755 76.3171 37.7339 76.3211 38.1616C76.325 38.5876 75.9666 38.9505 75.5395 38.9544C75.1135 38.9584 74.75 38.6 74.7461 38.1723C74.7422 37.7463 75.1005 37.3834 75.5282 37.3794Z" fill="#03A2D8"/>
<path fill-rule="evenodd" clip-rule="evenodd" d="M76.3212 27.7014C76.3263 28.1274 75.9684 28.4909 75.5407 28.4959C75.1147 28.501 74.7513 28.1432 74.7462 27.7149C74.7411 27.29 75.099 26.926 75.5267 26.921C75.9527 26.9159 76.3161 27.2737 76.3212 27.7014Z" fill="#03A2D8"/>
<path fill-rule="evenodd" clip-rule="evenodd" d="M76.3212 52.0993C76.3297 52.5236 75.9741 52.8904 75.5458 52.8989C75.1215 52.9073 74.7552 52.5518 74.7462 52.1235C74.7378 51.6992 75.0933 51.3324 75.5216 51.3239C75.9459 51.3149 76.3127 51.671 76.3212 52.0993Z" fill="#03A2D8"/>
<path fill-rule="evenodd" clip-rule="evenodd" d="M75.5547 58.2959C75.9835 58.3105 76.3357 58.6824 76.321 59.1045C76.3064 59.5327 75.935 59.8855 75.513 59.8708C75.0841 59.8562 74.732 59.4843 74.746 59.0622C74.7613 58.6334 75.1332 58.2812 75.5547 58.2959Z" fill="#03A2D8"/>
<path fill-rule="evenodd" clip-rule="evenodd" d="M76.3212 45.1416C76.3189 45.5687 75.9572 45.9283 75.5312 45.9266C75.104 45.9249 74.7445 45.562 74.7462 45.136C74.7484 44.7088 75.1108 44.3493 75.5362 44.3516C75.9634 44.3533 76.3229 44.7156 76.3212 45.1416Z" fill="#03A2D8"/>
<path fill-rule="evenodd" clip-rule="evenodd" d="M75.5409 33.8931C75.9686 33.8982 76.3264 34.2617 76.3213 34.6877C76.3162 35.1154 75.9516 35.4732 75.5268 35.4681C75.0991 35.463 74.7412 35.099 74.7463 34.6736C74.7514 34.2459 75.1154 33.888 75.5409 33.8931Z" fill="#03A2D8"/>
<path fill-rule="evenodd" clip-rule="evenodd" d="M75.543 63.3568C75.1182 63.3636 74.753 63.0063 74.7462 62.5786C74.7395 62.1537 75.0967 61.7886 75.5244 61.7818C75.9493 61.7751 76.3145 62.1318 76.3212 62.56C76.328 62.9849 75.9707 63.3501 75.543 63.3568Z" fill="#03A2D8"/>
<path fill-rule="evenodd" clip-rule="evenodd" d="M76.3212 31.2153C76.3065 31.6441 75.9346 31.9969 75.5126 31.9817C75.0843 31.967 74.7321 31.5957 74.7462 31.1736C74.7608 30.7442 75.1328 30.392 75.5548 30.4067C75.9831 30.4219 76.3353 30.7933 76.3212 31.2153Z" fill="#03A2D8"/>
<path fill-rule="evenodd" clip-rule="evenodd" d="M72.041 42.3981C71.6341 42.393 71.2944 42.043 71.3034 41.6384C71.3124 41.2316 71.6657 40.8946 72.0692 40.9076C72.4664 40.9211 72.7938 41.2581 72.7933 41.6537C72.7927 42.0599 72.4467 42.4026 72.041 42.3981Z" fill="#03A2D8"/>
<path fill-rule="evenodd" clip-rule="evenodd" d="M72.7933 48.6243C72.7938 49.0312 72.4484 49.3738 72.0421 49.3698C71.6359 49.3659 71.2955 49.0165 71.3034 48.6125C71.3113 48.2146 71.6443 47.8844 72.041 47.8799C72.4467 47.8754 72.7927 48.2175 72.7933 48.6243Z" fill="#03A2D8"/>
<path fill-rule="evenodd" clip-rule="evenodd" d="M72.0526 24.9676C71.6463 24.9698 71.302 24.6267 71.3037 24.2198C71.3053 23.813 71.6519 23.472 72.0576 23.4771C72.4543 23.4827 72.7868 23.8146 72.793 24.2113C72.7998 24.6171 72.4594 24.9648 72.0526 24.9676Z" fill="#03A2D8"/>
<path fill-rule="evenodd" clip-rule="evenodd" d="M72.046 51.3662C72.4522 51.3651 72.796 51.7094 72.7932 52.1157C72.7903 52.5225 72.4421 52.8629 72.0369 52.8567C71.6402 52.8493 71.3089 52.5169 71.3038 52.1202C71.2976 51.7145 71.6391 51.3679 72.046 51.3662Z" fill="#03A2D8"/>
<path fill-rule="evenodd" clip-rule="evenodd" d="M72.036 38.9119C71.6286 38.9034 71.2917 38.5512 71.3035 38.1478C71.3159 37.7403 71.6709 37.4056 72.0738 37.422C72.4716 37.4383 72.7968 37.777 72.7934 38.1725C72.7894 38.5788 72.4406 38.9197 72.036 38.9119Z" fill="#03A2D8"/>
<path fill-rule="evenodd" clip-rule="evenodd" d="M72.0696 54.852C72.4776 54.8655 72.8101 55.2222 72.7926 55.6251C72.7751 56.0336 72.4156 56.3633 72.0133 56.3413C71.6149 56.3193 71.2942 55.9761 71.3038 55.5823C71.3128 55.1748 71.6662 54.8384 72.0696 54.852Z" fill="#03A2D8"/>
<path fill-rule="evenodd" clip-rule="evenodd" d="M72.0696 26.9633C72.4776 26.9768 72.8101 27.3335 72.7926 27.7364C72.7751 28.1449 72.4156 28.4746 72.0133 28.4526C71.6149 28.4306 71.2942 28.0875 71.3038 27.6936C71.3128 27.2862 71.6662 26.9498 72.0696 26.9633Z" fill="#03A2D8"/>
<path fill-rule="evenodd" clip-rule="evenodd" d="M72.7933 34.6718C72.7989 35.0775 72.4569 35.424 72.0506 35.4257C71.6443 35.4268 71.3011 35.0825 71.3034 34.6763C71.3062 34.2796 71.6353 33.9454 72.0325 33.9353C72.4371 33.9257 72.7871 34.2649 72.7933 34.6718Z" fill="#03A2D8"/>
<path fill-rule="evenodd" clip-rule="evenodd" d="M72.0515 61.8242C72.4583 61.8265 72.7993 62.1736 72.7931 62.5793C72.7869 62.9862 72.4358 63.3248 72.0318 63.3147C71.6345 63.304 71.306 62.9687 71.3037 62.5726C71.3015 62.1663 71.6458 61.822 72.0515 61.8242Z" fill="#03A2D8"/>
<path fill-rule="evenodd" clip-rule="evenodd" d="M72.7933 31.1837C72.8 31.5894 72.4591 31.9371 72.0528 31.9399C71.6465 31.9422 71.3022 31.5984 71.3034 31.1922C71.3051 30.796 71.633 30.4607 72.0303 30.4495C72.4349 30.4388 72.7859 30.7769 72.7933 31.1837Z" fill="#03A2D8"/>
<path fill-rule="evenodd" clip-rule="evenodd" d="M72.0613 59.8284C71.6562 59.8362 71.3074 59.4959 71.3034 59.089C71.2995 58.6833 71.6427 58.3379 72.049 58.3379C72.4451 58.3385 72.7809 58.6658 72.7933 59.0637C72.8052 59.4677 72.4682 59.8199 72.0613 59.8284Z" fill="#03A2D8"/>
<path fill-rule="evenodd" clip-rule="evenodd" d="M72.7933 45.1452C72.7893 45.552 72.4405 45.8918 72.0354 45.8845C71.6291 45.8761 71.2915 45.5239 71.3034 45.1198C71.3158 44.722 71.6516 44.3946 72.0478 44.394C72.454 44.3935 72.7972 44.7389 72.7933 45.1452Z" fill="#03A2D8"/>
<path fill-rule="evenodd" clip-rule="evenodd" d="M68.5587 40.9595C68.9391 40.9567 69.2575 41.2751 69.2558 41.6554C69.2547 42.0358 68.9335 42.3519 68.5537 42.3463C68.1834 42.3406 67.8758 42.0335 67.8696 41.6633C67.8634 41.2835 68.1784 40.9617 68.5587 40.9595Z" fill="#03A2D8"/>
<path fill-rule="evenodd" clip-rule="evenodd" d="M69.256 24.2349C69.2486 24.6158 68.9224 24.9275 68.5431 24.9156C68.1633 24.9038 67.8545 24.5753 67.8697 24.196C67.8844 23.8252 68.1994 23.5249 68.569 23.5288C68.9494 23.5322 69.2638 23.8551 69.256 24.2349Z" fill="#03A2D8"/>
<path fill-rule="evenodd" clip-rule="evenodd" d="M69.2559 52.1084C69.2576 52.4893 68.9393 52.8066 68.5589 52.8043C68.1785 52.8021 67.863 52.4803 67.8697 52.0999C67.8759 51.7297 68.1836 51.4226 68.5538 51.4175C68.9336 51.4125 69.2548 51.728 69.2559 52.1084Z" fill="#03A2D8"/>
<path fill-rule="evenodd" clip-rule="evenodd" d="M68.5653 58.3901C68.9457 58.3913 69.2612 58.7125 69.2562 59.0923C69.2511 59.4732 68.9271 59.7865 68.5473 59.7769C68.1771 59.7679 67.8722 59.458 67.87 59.0878C67.8671 58.7074 68.1849 58.3885 68.5653 58.3901Z" fill="#03A2D8"/>
<path fill-rule="evenodd" clip-rule="evenodd" d="M69.256 31.1968C69.2548 31.5778 68.9336 31.8933 68.5538 31.8883C68.1729 31.8826 67.8602 31.5586 67.8697 31.1788C67.8788 30.8086 68.1887 30.5037 68.5589 30.5015C68.9393 30.4987 69.2576 30.8165 69.256 31.1968Z" fill="#03A2D8"/>
<path fill-rule="evenodd" clip-rule="evenodd" d="M69.2559 62.5787C69.2503 62.9596 68.9263 63.2718 68.5465 63.2628C68.1656 63.2532 67.8568 62.9252 67.8697 62.546C67.8827 62.1758 68.196 61.8743 68.5656 61.876C68.946 61.8777 69.2621 62.1989 69.2559 62.5787Z" fill="#03A2D8"/>
<path fill-rule="evenodd" clip-rule="evenodd" d="M68.5571 49.3182C68.1762 49.3143 67.8623 48.992 67.8696 48.6122C67.8769 48.2312 68.2032 47.9202 68.5824 47.9314C68.9527 47.9427 69.2558 48.2538 69.2558 48.6246C69.2564 49.0044 68.9369 49.3216 68.5571 49.3182Z" fill="#03A2D8"/>
<path fill-rule="evenodd" clip-rule="evenodd" d="M68.5565 33.9873C68.9369 33.9834 69.2564 34.3006 69.2558 34.681C69.2558 35.0614 68.9358 35.3786 68.556 35.3741C68.1857 35.3702 67.8769 35.0636 67.8696 34.6934C67.8623 34.3136 68.1762 33.9907 68.5565 33.9873Z" fill="#03A2D8"/>
<path fill-rule="evenodd" clip-rule="evenodd" d="M68.5621 45.8323C68.1817 45.8317 67.8656 45.5116 67.8695 45.1318C67.874 44.7509 68.1975 44.437 68.5767 44.4455C68.9475 44.4534 69.2529 44.7627 69.2557 45.133C69.2597 45.5133 68.943 45.8328 68.5621 45.8323Z" fill="#03A2D8"/>
<path fill-rule="evenodd" clip-rule="evenodd" d="M68.5416 38.8603C68.1607 38.8479 67.8536 38.5177 67.8699 38.139C67.8863 37.7581 68.2199 37.4538 68.598 37.4741C68.9682 37.4938 69.2646 37.8128 69.2562 38.1819C69.2477 38.5628 68.9203 38.8727 68.5416 38.8603Z" fill="#03A2D8"/>
<path fill-rule="evenodd" clip-rule="evenodd" d="M69.2559 27.6984C69.2621 28.0788 68.9466 28.4 68.5657 28.4016C68.1859 28.4033 67.8675 28.0855 67.8697 27.7046C67.8714 27.3344 68.1763 27.0244 68.5465 27.0149C68.9257 27.0053 69.2503 27.3175 69.2559 27.6984Z" fill="#03A2D8"/>
<path fill-rule="evenodd" clip-rule="evenodd" d="M68.5538 54.9039C68.9341 54.8982 69.2548 55.2144 69.2559 55.5953C69.2576 55.9751 68.9392 56.2935 68.5588 56.2907C68.1886 56.2878 67.8787 55.983 67.8697 55.6128C67.8607 55.2335 68.1734 54.909 68.5538 54.9039Z" fill="#03A2D8"/>
<path fill-rule="evenodd" clip-rule="evenodd" d="M65.0897 54.9439C65.4633 54.9496 65.7422 55.2448 65.7304 55.6224C65.7186 55.9842 65.4312 56.2558 65.0655 56.2501C64.6919 56.2445 64.4129 55.9487 64.4248 55.5711C64.436 55.2099 64.724 54.9383 65.0897 54.9439Z" fill="#03A2D8"/>
<path fill-rule="evenodd" clip-rule="evenodd" d="M65.7302 45.1396C65.7302 45.5149 65.44 45.7984 65.063 45.7922C64.7007 45.7854 64.4246 45.5036 64.4246 45.1385C64.4252 44.7632 64.7148 44.4792 65.0912 44.486C65.4547 44.4922 65.7308 44.775 65.7302 45.1396Z" fill="#03A2D8"/>
<path fill-rule="evenodd" clip-rule="evenodd" d="M65.7302 27.7049C65.7319 28.0808 65.444 28.3659 65.0676 28.3614C64.7041 28.3564 64.4263 28.0757 64.4246 27.7117C64.4229 27.3359 64.7109 27.0507 65.0873 27.0552C65.4513 27.0592 65.7285 27.3404 65.7302 27.7049Z" fill="#03A2D8"/>
<path fill-rule="evenodd" clip-rule="evenodd" d="M65.0726 47.9717C65.4485 47.9694 65.7347 48.2574 65.7302 48.6332C65.7263 48.9967 65.4462 49.2756 65.0828 49.2779C64.7064 49.2801 64.4207 48.9928 64.4246 48.6163C64.428 48.2523 64.7086 47.9739 65.0726 47.9717Z" fill="#03A2D8"/>
<path fill-rule="evenodd" clip-rule="evenodd" d="M65.7302 38.175C65.7263 38.5491 65.4327 38.8298 65.0557 38.8202C64.6934 38.81 64.4207 38.5238 64.4246 38.1581C64.4285 37.7845 64.7227 37.5038 65.0997 37.5134C65.4614 37.5236 65.7342 37.8098 65.7302 38.175Z" fill="#03A2D8"/>
<path fill-rule="evenodd" clip-rule="evenodd" d="M65.7302 62.5674C65.7314 62.9433 65.4428 63.2278 65.0664 63.2228C64.703 63.2177 64.4257 62.9365 64.4246 62.5719C64.4235 62.1961 64.712 61.9115 65.0884 61.9166C65.4519 61.9216 65.7291 62.2028 65.7302 62.5674Z" fill="#03A2D8"/>
<path fill-rule="evenodd" clip-rule="evenodd" d="M65.0555 24.8753C64.6836 24.8646 64.4092 24.5643 64.4255 24.1862C64.4413 23.8261 64.7332 23.559 65.0995 23.5691C65.4714 23.5793 65.7464 23.8791 65.7295 24.2572C65.7137 24.6178 65.4218 24.8855 65.0555 24.8753Z" fill="#03A2D8"/>
<path fill-rule="evenodd" clip-rule="evenodd" d="M65.7302 41.6573C65.728 42.032 65.4366 42.3143 65.0597 42.3059C64.6973 42.298 64.4229 42.0134 64.4246 41.6477C64.4269 41.2736 64.7187 40.9912 65.0957 40.9997C65.4581 41.0081 65.7325 41.2927 65.7302 41.6573Z" fill="#03A2D8"/>
<path fill-rule="evenodd" clip-rule="evenodd" d="M65.7302 52.1101C65.7308 52.4854 65.4417 52.7699 65.0653 52.7643C64.7024 52.7587 64.4252 52.4769 64.4246 52.1123C64.424 51.7365 64.7125 51.4525 65.0895 51.4581C65.453 51.4637 65.7297 51.7455 65.7302 52.1101Z" fill="#03A2D8"/>
<path fill-rule="evenodd" clip-rule="evenodd" d="M65.7302 59.0932C65.7257 59.4668 65.4316 59.7469 65.054 59.7362C64.6922 59.726 64.4201 59.4386 64.4246 59.0735C64.4291 58.6993 64.7238 58.4198 65.1008 58.43C65.462 58.4407 65.7347 58.7275 65.7302 59.0932Z" fill="#03A2D8"/>
<path fill-rule="evenodd" clip-rule="evenodd" d="M65.0809 30.541C65.4556 30.5427 65.7385 30.8346 65.73 31.211C65.7233 31.5739 65.4393 31.8483 65.0741 31.8472C64.6994 31.8455 64.4165 31.5542 64.4244 31.1772C64.4323 30.8143 64.7163 30.5393 65.0809 30.541Z" fill="#03A2D8"/>
<path fill-rule="evenodd" clip-rule="evenodd" d="M65.7302 34.6697C65.7359 35.0462 65.4507 35.3352 65.0754 35.3341C64.7103 35.333 64.4291 35.0557 64.4246 34.6917C64.4195 34.3147 64.7041 34.0262 65.08 34.0273C65.4445 34.0285 65.7252 34.3057 65.7302 34.6697Z" fill="#03A2D8"/>
<path fill-rule="evenodd" clip-rule="evenodd" d="M61.5854 51.5098C61.9331 51.5064 62.1962 51.7701 62.1934 52.1178C62.19 52.4537 61.9342 52.7095 61.5989 52.7129C61.2512 52.7157 60.9875 52.4525 60.9909 52.1049C60.9937 51.769 61.2495 51.5132 61.5854 51.5098Z" fill="#03A2D8"/>
<path fill-rule="evenodd" clip-rule="evenodd" d="M62.1935 41.6572C62.1912 42.0032 61.9224 42.2624 61.5742 42.2545C61.2406 42.2461 60.9887 41.9846 60.991 41.6482C60.9932 41.3022 61.262 41.043 61.6102 41.0515C61.9438 41.0594 62.1957 41.3208 62.1935 41.6572Z" fill="#03A2D8"/>
<path fill-rule="evenodd" clip-rule="evenodd" d="M61.5794 37.5655C61.9276 37.5599 62.1936 37.8208 62.1936 38.1673C62.193 38.5037 61.9394 38.7624 61.6047 38.7686C61.257 38.7742 60.9905 38.5133 60.9911 38.1656C60.9911 37.8304 61.2446 37.5712 61.5794 37.5655Z" fill="#03A2D8"/>
<path fill-rule="evenodd" clip-rule="evenodd" d="M61.5529 56.1973C61.2216 56.1799 60.9787 55.9094 60.9911 55.5713C61.0029 55.2287 61.2824 54.9785 61.6318 54.9971C61.9733 55.0151 62.2167 55.2997 62.1914 55.6502C62.1671 55.9792 61.8916 56.2154 61.5529 56.1973Z" fill="#03A2D8"/>
<path fill-rule="evenodd" clip-rule="evenodd" d="M61.5887 48.0234C61.9358 48.0218 62.1979 48.2866 62.1934 48.6348C62.1888 48.9701 61.9313 49.2248 61.596 49.2265C61.2484 49.2282 60.9863 48.9634 60.9908 48.6151C60.9953 48.2798 61.2523 48.0251 61.5887 48.0234Z" fill="#03A2D8"/>
<path fill-rule="evenodd" clip-rule="evenodd" d="M61.6316 34.0801C61.9624 34.0981 62.2052 34.3686 62.1928 34.7061C62.181 35.0493 61.9015 35.2989 61.5527 35.2803C61.2112 35.2623 60.9672 34.9783 60.9926 34.6278C61.0168 34.2987 61.2924 34.062 61.6316 34.0801Z" fill="#03A2D8"/>
<path fill-rule="evenodd" clip-rule="evenodd" d="M61.603 30.5928C61.9479 30.5979 62.2043 30.8701 62.193 31.2183C62.1823 31.5508 61.918 31.8004 61.581 31.7959C61.2367 31.7903 60.9798 31.5187 60.991 31.1699C61.0023 30.8374 61.266 30.5878 61.603 30.5928Z" fill="#03A2D8"/>
<path fill-rule="evenodd" clip-rule="evenodd" d="M61.5991 28.31C61.2515 28.3134 60.9877 28.0497 60.9911 27.702C60.9939 27.3662 61.2498 27.1103 61.5851 27.107C61.9327 27.1036 62.1964 27.3667 62.1936 27.7144C62.1902 28.0503 61.935 28.3067 61.5991 28.31Z" fill="#03A2D8"/>
<path fill-rule="evenodd" clip-rule="evenodd" d="M62.1935 62.5589C62.1985 62.9066 61.9365 63.172 61.5894 63.1709C61.2535 63.1692 60.9955 62.915 60.9909 62.5797C60.9859 62.2321 61.2473 61.9667 61.595 61.9678C61.9309 61.9695 62.1884 62.2236 62.1935 62.5589Z" fill="#03A2D8"/>
<path fill-rule="evenodd" clip-rule="evenodd" d="M62.1935 45.1322C62.1968 45.4793 61.9331 45.743 61.5854 45.7402C61.2496 45.7368 60.9938 45.481 60.991 45.1452C60.9876 44.7975 61.2507 44.5343 61.5984 44.5371C61.9343 44.5405 62.1901 44.7963 62.1935 45.1322Z" fill="#03A2D8"/>
<path fill-rule="evenodd" clip-rule="evenodd" d="M62.1935 24.2289C62.1901 24.5743 61.9202 24.833 61.5719 24.8239C61.2389 24.8144 60.9876 24.5518 60.991 24.2159C60.9938 23.8699 61.2643 23.6113 61.6119 23.6209C61.9455 23.6299 62.1963 23.8919 62.1935 24.2289Z" fill="#03A2D8"/>
<path fill-rule="evenodd" clip-rule="evenodd" d="M61.5832 58.482C61.9309 58.478 62.1957 58.7406 62.1935 59.0877C62.1912 59.4236 61.9359 59.6805 61.6007 59.6851C61.253 59.689 60.9887 59.4264 60.991 59.0793C60.9926 58.7429 61.2479 58.4859 61.5832 58.482Z" fill="#03A2D8"/>
<path fill-rule="evenodd" clip-rule="evenodd" d="M58.6556 45.151C58.6494 45.4677 58.4009 45.6999 58.0809 45.6875C57.7766 45.6756 57.5523 45.435 57.5579 45.1268C57.5641 44.8106 57.8126 44.5779 58.1321 44.5903C58.4364 44.6016 58.6613 44.8422 58.6556 45.151Z" fill="#03A2D8"/>
<path fill-rule="evenodd" clip-rule="evenodd" d="M58.6556 62.5805C58.65 62.8972 58.4021 63.1299 58.082 63.1181C57.7777 63.1074 57.5529 62.8668 57.5579 62.5585C57.5636 62.2418 57.8115 62.0091 58.131 62.0209C58.4353 62.0316 58.6607 62.2717 58.6556 62.5805Z" fill="#03A2D8"/>
<path fill-rule="evenodd" clip-rule="evenodd" d="M58.1136 27.1597C58.4303 27.1631 58.6653 27.4093 58.6557 27.7288C58.6461 28.0343 58.4078 28.2602 58.1001 28.2568C57.7828 28.2535 57.5484 28.0072 57.558 27.6877C57.567 27.3829 57.8054 27.1563 58.1136 27.1597Z" fill="#03A2D8"/>
<path fill-rule="evenodd" clip-rule="evenodd" d="M57.5595 59.044C57.5775 58.7408 57.8232 58.5228 58.1331 58.5352C58.447 58.5476 58.6735 58.8017 58.6538 59.1229C58.6352 59.4362 58.3754 59.656 58.0542 59.6301C57.7527 59.6058 57.5409 59.3551 57.5595 59.044Z" fill="#03A2D8"/>
<path fill-rule="evenodd" clip-rule="evenodd" d="M58.6556 31.1933C58.6556 31.5111 58.4133 31.7489 58.0944 31.7433C57.7884 31.7377 57.5585 31.5033 57.5579 31.1956C57.5574 30.8766 57.7997 30.64 58.1192 30.6456C58.4252 30.6512 58.6551 30.8857 58.6556 31.1933Z" fill="#03A2D8"/>
<path fill-rule="evenodd" clip-rule="evenodd" d="M58.6556 48.624C58.6556 48.9418 58.4133 49.1796 58.0944 49.174C57.7884 49.1683 57.5585 48.9339 57.5579 48.6262C57.5574 48.3073 57.7997 48.0706 58.1192 48.0763C58.4252 48.0819 58.6551 48.3163 58.6556 48.624Z" fill="#03A2D8"/>
<path fill-rule="evenodd" clip-rule="evenodd" d="M58.6556 34.6774C58.6568 34.9856 58.4297 35.2217 58.1237 35.2291C57.8042 35.2375 57.5596 35.0014 57.5579 34.6841C57.5562 34.3646 57.7974 34.1268 58.1169 34.1319C58.4229 34.1364 58.6539 34.3703 58.6556 34.6774Z" fill="#03A2D8"/>
<path fill-rule="evenodd" clip-rule="evenodd" d="M58.6556 24.2235C58.6545 24.5413 58.4111 24.7779 58.0921 24.7712C57.7856 24.7644 57.5574 24.5289 57.5579 24.2212C57.5591 23.9034 57.8019 23.6667 58.1214 23.6735C58.4274 23.6802 58.6562 23.9152 58.6556 24.2235Z" fill="#03A2D8"/>
<path fill-rule="evenodd" clip-rule="evenodd" d="M58.6556 55.5985C58.6545 55.9163 58.4111 56.1529 58.0921 56.1462C57.7856 56.1394 57.5574 55.9044 57.5579 55.5962C57.5585 55.2784 57.8019 55.0417 58.1214 55.0485C58.4274 55.0552 58.6562 55.2902 58.6556 55.5985Z" fill="#03A2D8"/>
<path fill-rule="evenodd" clip-rule="evenodd" d="M58.6556 38.1789C58.6494 38.4956 58.4009 38.7277 58.0809 38.7153C57.7766 38.7035 57.5523 38.4629 57.5579 38.1541C57.5641 37.8385 57.8126 37.6052 58.1321 37.6182C58.4364 37.6295 58.6613 37.8706 58.6556 38.1789Z" fill="#03A2D8"/>
<path fill-rule="evenodd" clip-rule="evenodd" d="M58.1191 42.2013C57.7995 42.2075 57.5572 41.9697 57.5578 41.6513C57.5584 41.3442 57.7883 41.1098 58.0943 41.1041C58.4138 41.0979 58.6561 41.3352 58.6555 41.6535C58.6549 41.9612 58.425 42.1956 58.1191 42.2013Z" fill="#03A2D8"/>
<path fill-rule="evenodd" clip-rule="evenodd" d="M58.6556 52.1232C58.6494 52.4399 58.4009 52.672 58.0809 52.6596C57.7766 52.6478 57.5523 52.4072 57.5579 52.0989C57.5641 51.7828 57.8126 51.5501 58.1321 51.5625C58.4364 51.5738 58.6613 51.8144 58.6556 52.1232Z" fill="#03A2D8"/>
<path fill-rule="evenodd" clip-rule="evenodd" d="M55.1244 48.6127C55.1306 48.9013 54.9136 49.125 54.6263 49.1278C54.3383 49.1306 54.1174 48.9108 54.1185 48.6234C54.1191 48.3456 54.327 48.1315 54.6026 48.1219C54.8905 48.1118 55.1176 48.3265 55.1244 48.6127Z" fill="#03A2D8"/>
<path fill-rule="evenodd" clip-rule="evenodd" d="M54.6132 52.6142C54.3258 52.6097 54.1105 52.3843 54.1184 52.0964C54.1263 51.8096 54.3551 51.5965 54.643 51.6084C54.9186 51.6191 55.1248 51.8355 55.1243 52.1127C55.1231 52.4001 54.9011 52.6187 54.6132 52.6142Z" fill="#03A2D8"/>
<path fill-rule="evenodd" clip-rule="evenodd" d="M55.1244 27.6951C55.1311 27.9831 54.9153 28.2079 54.6279 28.2113C54.34 28.2147 54.1185 27.9955 54.1185 27.7081C54.1185 27.4309 54.3253 27.215 54.6015 27.2055C54.8888 27.1948 55.1171 27.4083 55.1244 27.6951Z" fill="#03A2D8"/>
<path fill-rule="evenodd" clip-rule="evenodd" d="M54.6302 38.6695C54.3422 38.674 54.1197 38.4559 54.1185 38.1685C54.1174 37.8811 54.3377 37.6608 54.6257 37.6636C54.9029 37.6659 55.1165 37.8749 55.1244 38.151C55.1323 38.439 54.917 38.6649 54.6302 38.6695Z" fill="#03A2D8"/>
<path fill-rule="evenodd" clip-rule="evenodd" d="M55.1244 41.6406C55.1306 41.9291 54.9136 42.1528 54.6263 42.1556C54.3383 42.1584 54.1174 41.9387 54.1185 41.6513C54.1191 41.3735 54.327 41.1593 54.6026 41.1498C54.8905 41.1396 55.1176 41.3543 55.1244 41.6406Z" fill="#03A2D8"/>
<path fill-rule="evenodd" clip-rule="evenodd" d="M54.6165 62.0664C54.9044 62.0636 55.1253 62.2839 55.1242 62.5713C55.123 62.8587 54.9005 63.0768 54.6125 63.0723C54.3358 63.0678 54.124 62.857 54.1183 62.5803C54.1121 62.2924 54.3291 62.0687 54.6165 62.0664Z" fill="#03A2D8"/>
<path fill-rule="evenodd" clip-rule="evenodd" d="M54.6302 45.6421C54.3422 45.6466 54.1197 45.4285 54.1185 45.1412C54.1174 44.8538 54.3377 44.6334 54.6257 44.6363C54.9029 44.6385 55.1165 44.8476 55.1244 45.1237C55.1323 45.4116 54.917 45.6376 54.6302 45.6421Z" fill="#03A2D8"/>
<path fill-rule="evenodd" clip-rule="evenodd" d="M55.1244 59.0718C55.1306 59.3597 54.9131 59.5834 54.6257 59.5862C54.3377 59.5891 54.1174 59.3687 54.1185 59.0813C54.1197 58.8035 54.327 58.5894 54.6031 58.5804C54.8911 58.5708 55.1182 58.7849 55.1244 59.0718Z" fill="#03A2D8"/>
<path fill-rule="evenodd" clip-rule="evenodd" d="M55.1244 34.6832C55.1227 34.9706 54.8995 35.1881 54.6116 35.1836C54.3248 35.1785 54.1095 34.9526 54.1185 34.6641C54.1264 34.3879 54.34 34.1789 54.6178 34.1778C54.9046 34.1755 55.1261 34.3953 55.1244 34.6832Z" fill="#03A2D8"/>
<path fill-rule="evenodd" clip-rule="evenodd" d="M54.623 56.1002C54.3351 56.1014 54.1159 55.8793 54.1181 55.5925C54.121 55.3046 54.3452 55.0876 54.6332 55.0944C54.9099 55.1006 55.12 55.3125 55.1246 55.5891C55.1285 55.8771 54.9104 56.0991 54.623 56.1002Z" fill="#03A2D8"/>
<path fill-rule="evenodd" clip-rule="evenodd" d="M55.1244 31.2163C55.1126 31.5026 54.8798 31.7122 54.5924 31.697C54.3067 31.6812 54.1011 31.4468 54.1197 31.1583C54.1377 30.8833 54.3592 30.6833 54.637 30.6911C54.9232 30.6996 55.1362 30.9289 55.1244 31.2163Z" fill="#03A2D8"/>
<path fill-rule="evenodd" clip-rule="evenodd" d="M54.6165 24.7254C54.3291 24.7226 54.1121 24.4989 54.1183 24.211C54.1245 23.9241 54.3516 23.7094 54.6396 23.7196C54.9157 23.7286 55.123 23.9433 55.1242 24.2205C55.1247 24.5079 54.9044 24.7283 54.6165 24.7254Z" fill="#03A2D8"/>
<path fill-rule="evenodd" clip-rule="evenodd" d="M51.1276 49.0627C50.8774 49.0588 50.6937 48.8677 50.6982 48.6164C50.7021 48.3668 50.8932 48.1831 51.1445 48.1876C51.3947 48.1915 51.5778 48.382 51.5733 48.6333C51.5694 48.8841 51.3789 49.0672 51.1276 49.0627Z" fill="#03A2D8"/>
<path fill-rule="evenodd" clip-rule="evenodd" d="M51.5733 38.1612C51.5761 38.4126 51.3919 38.6013 51.1405 38.6041C50.8898 38.607 50.701 38.4227 50.6982 38.1719C50.6954 37.9201 50.8802 37.7313 51.131 37.729C51.3817 37.7268 51.5705 37.911 51.5733 38.1612Z" fill="#03A2D8"/>
<path fill-rule="evenodd" clip-rule="evenodd" d="M51.5733 24.2236C51.5728 24.4743 51.3857 24.6603 51.1349 24.6597C50.8836 24.6592 50.6976 24.4715 50.6982 24.2207C50.6988 23.9706 50.8858 23.784 51.1372 23.7852C51.3879 23.7857 51.5739 23.9728 51.5733 24.2236Z" fill="#03A2D8"/>
<path fill-rule="evenodd" clip-rule="evenodd" d="M51.5733 31.2026C51.5694 31.4528 51.3783 31.6365 51.127 31.632C50.8774 31.6275 50.6937 31.4371 50.6982 31.1857C50.7027 30.9355 50.8932 30.7524 51.1445 30.7569C51.3947 30.7609 51.5778 30.9513 51.5733 31.2026Z" fill="#03A2D8"/>
<path fill-rule="evenodd" clip-rule="evenodd" d="M51.5733 55.5986C51.5728 55.8493 51.3857 56.0353 51.1349 56.0347C50.8836 56.0342 50.6976 55.8465 50.6982 55.5957C50.6988 55.3456 50.8858 55.159 51.1372 55.1602C51.3879 55.1607 51.5739 55.3478 51.5733 55.5986Z" fill="#03A2D8"/>
<path fill-rule="evenodd" clip-rule="evenodd" d="M51.5733 34.6855C51.5711 34.9363 51.3823 35.1206 51.131 35.1183C50.8802 35.1161 50.6954 34.9273 50.6982 34.6754C50.7005 34.4246 50.8892 34.2404 51.1405 34.2432C51.3919 34.2454 51.5761 34.4342 51.5733 34.6855Z" fill="#03A2D8"/>
<path fill-rule="evenodd" clip-rule="evenodd" d="M51.1474 59.5208C50.8961 59.5264 50.7039 59.3449 50.6983 59.0947C50.6927 58.8423 50.8741 58.6513 51.1243 58.6456C51.3768 58.64 51.5678 58.8209 51.5734 59.0716C51.5796 59.3241 51.3982 59.5151 51.1474 59.5208Z" fill="#03A2D8"/>
<path fill-rule="evenodd" clip-rule="evenodd" d="M51.1342 62.1318C51.3849 62.1307 51.5726 62.3172 51.5731 62.5674C51.5737 62.8188 51.3878 63.0064 51.1376 63.007C50.8868 63.0075 50.6992 62.8216 50.6986 62.5708C50.698 62.3195 50.884 62.1324 51.1342 62.1318Z" fill="#03A2D8"/>
<path fill-rule="evenodd" clip-rule="evenodd" d="M51.1144 42.0904C50.8665 42.0797 50.6878 41.8836 50.6985 41.6317C50.7087 41.3832 50.9053 41.2051 51.1572 41.2153C51.4057 41.2254 51.5838 41.4221 51.5731 41.6745C51.5629 41.9225 51.3663 42.1011 51.1144 42.0904Z" fill="#03A2D8"/>
<path fill-rule="evenodd" clip-rule="evenodd" d="M51.1276 27.2711C51.3789 27.2666 51.5694 27.4497 51.5733 27.7005C51.5772 27.9518 51.3941 28.1423 51.1439 28.1462C50.8926 28.1501 50.7021 27.9664 50.6982 27.7168C50.6942 27.4655 50.8779 27.275 51.1276 27.2711Z" fill="#03A2D8"/>
<path fill-rule="evenodd" clip-rule="evenodd" d="M51.5733 45.1406C51.5728 45.3908 51.3851 45.5768 51.1343 45.5762C50.8836 45.5757 50.6976 45.388 50.6982 45.1373C50.6988 44.8865 50.8864 44.7005 51.1377 44.7017C51.3879 44.7022 51.5739 44.8893 51.5733 45.1406Z" fill="#03A2D8"/>
<path fill-rule="evenodd" clip-rule="evenodd" d="M51.1347 51.6738C51.3855 51.6727 51.5726 51.8592 51.5731 52.11C51.5737 52.3613 51.3878 52.5484 51.137 52.549C50.8862 52.5495 50.6992 52.3636 50.6986 52.1122C50.698 51.8615 50.884 51.6744 51.1347 51.6738Z" fill="#03A2D8"/>
<path fill-rule="evenodd" clip-rule="evenodd" d="M48.0206 27.7065C48.0217 27.906 47.8448 28.0813 47.6453 28.0784C47.4458 28.0751 47.2655 27.8936 47.2819 27.6964C47.301 27.4822 47.4272 27.356 47.6425 27.3402C47.8403 27.325 48.0195 27.507 48.0206 27.7065Z" fill="#03A2D8"/>
<path fill-rule="evenodd" clip-rule="evenodd" d="M47.6608 62.1994C47.8597 62.2056 48.0304 62.3893 48.0208 62.5865C48.0107 62.7854 47.8225 62.9618 47.6269 62.9376C47.4145 62.9116 47.2905 62.782 47.2821 62.5657C47.2748 62.3673 47.4618 62.1932 47.6608 62.1994Z" fill="#03A2D8"/>
<path fill-rule="evenodd" clip-rule="evenodd" d="M47.6564 59.4539C47.4569 59.4573 47.2799 59.2814 47.2805 59.0825C47.2811 58.883 47.4597 58.701 47.658 58.7151C47.8733 58.7309 47.9995 58.8571 48.0187 59.0713C48.0356 59.2685 47.8558 59.4505 47.6564 59.4539Z" fill="#03A2D8"/>
<path fill-rule="evenodd" clip-rule="evenodd" d="M47.6514 44.7686C47.8509 44.7691 48.025 44.9477 48.0205 45.1467C48.016 45.3456 47.8329 45.5253 47.6368 45.5073C47.4226 45.4865 47.2964 45.3597 47.2823 45.1444C47.2694 44.9455 47.4519 44.768 47.6514 44.7686Z" fill="#03A2D8"/>
<path fill-rule="evenodd" clip-rule="evenodd" d="M47.6712 23.7984C47.8701 23.8103 48.0358 23.999 48.02 24.1957C48.0037 24.3957 47.8115 24.5648 47.6165 24.5355C47.4052 24.5028 47.2841 24.3715 47.2824 24.1546C47.2812 23.9557 47.4745 23.7866 47.6712 23.7984Z" fill="#03A2D8"/>
<path fill-rule="evenodd" clip-rule="evenodd" d="M47.6425 55.2271C47.842 55.2226 48.0201 55.3973 48.0207 55.5962C48.0212 55.7957 47.8432 55.9788 47.6448 55.9659C47.4295 55.9512 47.3022 55.8256 47.2819 55.612C47.2639 55.4148 47.4431 55.2316 47.6425 55.2271Z" fill="#03A2D8"/>
<path fill-rule="evenodd" clip-rule="evenodd" d="M48.0206 34.6756C48.0234 34.8751 47.8476 35.052 47.6487 35.0509C47.4492 35.0498 47.2678 34.8706 47.2819 34.6722C47.2988 34.457 47.4244 34.3307 47.6391 34.3121C47.8364 34.2952 48.0178 34.4761 48.0206 34.6756Z" fill="#03A2D8"/>
<path fill-rule="evenodd" clip-rule="evenodd" d="M48.0206 52.1183C48.0161 52.3178 47.8347 52.4891 47.6363 52.4818C47.4379 52.4733 47.2599 52.2862 47.2824 52.0907C47.3067 51.8783 47.4351 51.7532 47.651 51.743C47.8499 51.7335 48.0251 51.9188 48.0206 52.1183Z" fill="#03A2D8"/>
<path fill-rule="evenodd" clip-rule="evenodd" d="M47.6382 38.5369C47.4392 38.5296 47.2691 38.3442 47.2803 38.1481C47.2916 37.9486 47.4809 37.7739 47.6753 37.7987C47.8878 37.8258 48.0118 37.956 48.0185 38.1723C48.0253 38.3713 47.8365 38.5443 47.6382 38.5369Z" fill="#03A2D8"/>
<path fill-rule="evenodd" clip-rule="evenodd" d="M48.0206 48.6342C48.015 48.8331 47.8318 49.0044 47.634 48.9954C47.4357 48.9852 47.2587 48.7976 47.2824 48.6021C47.3078 48.3896 47.4368 48.2651 47.6532 48.2566C47.8521 48.2482 48.0262 48.4353 48.0206 48.6342Z" fill="#03A2D8"/>
<path fill-rule="evenodd" clip-rule="evenodd" d="M48.0206 41.662C48.015 41.8609 47.8318 42.0322 47.634 42.0232C47.4357 42.0131 47.2587 41.8254 47.2824 41.6299C47.3078 41.4174 47.4368 41.2929 47.6532 41.2845C47.8521 41.276 48.0262 41.4631 48.0206 41.662Z" fill="#03A2D8"/>
<path fill-rule="evenodd" clip-rule="evenodd" d="M48.0206 31.1918C48.0223 31.3913 47.8454 31.5671 47.6464 31.5648C47.447 31.562 47.2661 31.3817 47.2819 31.1839C47.2999 30.9692 47.4267 30.843 47.6414 30.8266C47.8392 30.8109 48.0189 30.9923 48.0206 31.1918Z" fill="#03A2D8"/>
<path fill-rule="evenodd" clip-rule="evenodd" d="M44.1708 62.9112C44.0558 62.7585 43.9234 62.6565 43.9375 62.5832C43.9566 62.4857 44.0902 62.4102 44.1747 62.3257C44.2525 62.408 44.3843 62.4846 44.3934 62.5736C44.4012 62.6582 44.2801 62.7551 44.1708 62.9112Z" fill="#03A2D8"/>
<path fill-rule="evenodd" clip-rule="evenodd" d="M44.1829 23.8276C44.2871 23.9877 44.4117 24.0981 44.3925 24.1702C44.3671 24.266 44.2285 24.332 44.1389 24.4097C44.0662 24.323 43.9394 24.2373 43.9372 24.1483C43.9355 24.0632 44.0628 23.9753 44.1829 23.8276Z" fill="#03A2D8"/>
<path fill-rule="evenodd" clip-rule="evenodd" d="M44.1482 28.0495C44.0434 27.8894 43.9183 27.7795 43.9375 27.7068C43.9628 27.6111 44.1009 27.5451 44.1905 27.4668C44.2632 27.5536 44.3905 27.6387 44.3928 27.7277C44.395 27.8128 44.2677 27.9013 44.1482 28.0495Z" fill="#03A2D8"/>
<path fill-rule="evenodd" clip-rule="evenodd" d="M43.823 59.0814C43.9785 58.9703 44.0833 58.8396 44.1566 58.8559C44.2535 58.8774 44.3256 59.012 44.4084 59.0983C44.325 59.1743 44.245 59.3045 44.156 59.3113C44.0709 59.3175 43.9768 59.1946 43.823 59.0814Z" fill="#03A2D8"/>
<path fill-rule="evenodd" clip-rule="evenodd" d="M44.1829 30.8535C44.2871 31.0136 44.4117 31.124 44.3925 31.1967C44.3671 31.2925 44.2285 31.3578 44.1389 31.4362C44.0662 31.3494 43.9394 31.2637 43.9372 31.1741C43.9355 31.0896 44.0628 31.0017 44.1829 30.8535Z" fill="#03A2D8"/>
<path fill-rule="evenodd" clip-rule="evenodd" d="M44.1746 55.9389C44.058 55.7873 43.9329 55.696 43.9374 55.6115C43.9419 55.5225 44.0704 55.4397 44.1448 55.354C44.2333 55.4346 44.3691 55.5045 44.3927 55.6003C44.4102 55.6729 44.2823 55.7811 44.1746 55.9389Z" fill="#03A2D8"/>
<path fill-rule="evenodd" clip-rule="evenodd" d="M44.173 34.3389C44.2812 34.4955 44.4096 34.6031 44.3927 34.6758C44.3696 34.7728 44.2333 34.8426 44.1459 34.9238C44.071 34.8387 43.9425 34.7564 43.9374 34.6674C43.9323 34.5829 44.0569 34.491 44.173 34.3389Z" fill="#03A2D8"/>
<path fill-rule="evenodd" clip-rule="evenodd" d="M44.1708 52.4532C44.0558 52.3004 43.9234 52.1985 43.9375 52.1252C43.9566 52.0277 44.0902 51.9522 44.1747 51.8677C44.2525 51.9499 44.3843 52.0266 44.3934 52.1156C44.4012 52.2001 44.2801 52.2971 44.1708 52.4532Z" fill="#03A2D8"/>
<path fill-rule="evenodd" clip-rule="evenodd" d="M44.1708 38.5083C44.0558 38.3556 43.9234 38.2536 43.9375 38.1804C43.9566 38.0829 44.0902 38.0074 44.1747 37.9229C44.2525 38.0046 44.3843 38.0818 44.3934 38.1708C44.4012 38.2553 44.2801 38.3522 44.1708 38.5083Z" fill="#03A2D8"/>
<path fill-rule="evenodd" clip-rule="evenodd" d="M44.507 48.6269C44.352 48.7385 44.2467 48.8686 44.174 48.8523C44.0765 48.8315 44.0044 48.6962 43.9215 48.6106C44.0055 48.5339 44.0855 48.4038 44.174 48.3976C44.2591 48.3908 44.3532 48.5142 44.507 48.6269Z" fill="#03A2D8"/>
<path fill-rule="evenodd" clip-rule="evenodd" d="M44.1504 41.3115C44.2693 41.4609 44.3961 41.5499 44.3933 41.6344C44.3899 41.7234 44.262 41.8085 44.1887 41.8947C44.0997 41.8159 43.9622 41.7482 43.9374 41.6524C43.9188 41.5803 44.045 41.4704 44.1504 41.3115Z" fill="#03A2D8"/>
<path fill-rule="evenodd" clip-rule="evenodd" d="M44.507 45.1406C44.352 45.2522 44.2467 45.3823 44.174 45.366C44.0765 45.3451 44.0044 45.2099 43.9215 45.1242C44.0055 45.0476 44.0855 44.9174 44.174 44.9112C44.2591 44.9045 44.3532 45.0279 44.507 45.1406Z" fill="#03A2D8"/>
<path fill-rule="evenodd" clip-rule="evenodd" d="M29.4889 31.3331C29.3294 31.3331 29.1942 31.4582 29.1598 31.6374C28.8724 33.1358 28.1517 34.4983 27.0743 35.5774C25.9963 36.6571 24.6343 37.3801 23.1365 37.6691C22.9574 37.7041 22.8323 37.8393 22.8323 37.9988V49.3573C22.8323 49.5173 22.9574 49.6526 23.1365 49.6869C24.6355 49.9766 25.9986 50.7018 27.0771 51.7837C28.1545 52.8634 28.8747 54.2271 29.1604 55.7271C29.1948 55.9063 29.3306 56.0325 29.49 56.0325H75.1765C75.336 56.0325 75.4723 55.9063 75.5061 55.7266C75.7918 54.2271 76.512 52.8634 77.5894 51.7837C78.668 50.7012 80.0311 49.9766 81.5311 49.6869C81.7097 49.6526 81.8348 49.5173 81.8348 49.3573V37.9988C81.8348 37.8393 81.7097 37.7041 81.5305 37.6691C80.0322 37.3801 78.6702 36.6571 77.5922 35.5774C76.5148 34.4983 75.7941 33.1358 75.5073 31.638C75.4729 31.4582 75.3371 31.3331 75.1776 31.3331H29.4889ZM75.1765 58.2865H29.49C28.2526 58.2865 27.1825 57.3872 26.9458 56.1492C26.7452 55.0937 26.2386 54.1346 25.4813 53.375C24.7217 52.6143 23.7632 52.1038 22.7088 51.9004C21.4742 51.6614 20.5782 50.5919 20.5782 49.3573V37.9988C20.5782 36.7636 21.4748 35.694 22.7094 35.4557C23.7632 35.2528 24.7211 34.744 25.4796 33.9849C26.2369 33.2259 26.7441 32.268 26.9458 31.2142C27.1819 29.9773 28.2515 29.0791 29.4889 29.0791H75.1776C76.4151 29.0791 77.4846 29.9773 77.7213 31.2148C77.9224 32.268 78.4302 33.2259 79.1869 33.9849C79.9454 34.744 80.9034 35.2528 81.9571 35.4557C83.1923 35.694 84.0888 36.7636 84.0888 37.9988V49.3573C84.0888 50.5919 83.1934 51.6609 81.9588 51.9004C80.9034 52.1038 79.9448 52.6143 79.1852 53.375C78.4279 54.1346 77.9213 55.0937 77.7207 56.1486C77.484 57.3872 76.4139 58.2865 75.1765 58.2865Z" fill="white"/>
<path fill-rule="evenodd" clip-rule="evenodd" d="M52.3333 50.9406C48.3313 50.9406 45.0754 47.6847 45.0754 43.6827C45.0754 39.6813 48.3313 36.4248 52.3333 36.4248C56.3353 36.4248 59.5912 39.6813 59.5912 43.6827C59.5912 47.6847 56.3353 50.9406 52.3333 50.9406Z" fill="white"/>
<path d="M80.3708 11.9327C81.347 10.9563 82.9299 10.956 83.9064 11.9321C84.8453 12.8707 84.8816 14.3703 84.0153 15.3524L83.907 15.4677L15.4681 83.9302C14.4919 84.9066 12.909 84.9069 11.9325 83.9308C10.9936 82.9922 10.9572 81.4926 11.8236 80.5105L11.9319 80.3952L80.3708 11.9327Z" fill="#666666" stroke="white"/>
</svg>
