<svg width="24" height="24" viewBox="0 0 24 24" fill="none" xmlns="http://www.w3.org/2000/svg">
<path fill-rule="evenodd" clip-rule="evenodd" d="M18.8289 6.32772C19.0242 6.13246 19.3408 6.13246 19.5361 6.32772C19.7096 6.50129 19.7289 6.77071 19.5939 6.96558L19.5361 7.03483L9.36375 17.2071L4.64645 12.4898C4.45118 12.2946 4.45118 11.978 4.64645 11.7827C4.82001 11.6092 5.08944 11.5899 5.28431 11.7249L5.35355 11.7827L9.363 15.792L18.8289 6.32772Z" fill="#E60000"/>
</svg>
